<?xml version="1.0" encoding="UTF-8" standalone="no"?>
<!-- Generator: Adobe Illustrator 24.0.1, SVG Export Plug-In . SVG Version: 6.00 Build 0)  -->

<svg
   version="1.1"
   x="0px"
   y="0px"
   viewBox="0 0 991.8 239.8"
   style="enable-background:new 0 0 991.8 239.8;"
   xml:space="preserve"
   id="svg2695"
   sodipodi:docname="alltools.svg"
   inkscape:version="1.2.1 (9c6d41e410, 2022-07-14)"
   xmlns:inkscape="http://www.inkscape.org/namespaces/inkscape"
   xmlns:sodipodi="http://sodipodi.sourceforge.net/DTD/sodipodi-0.dtd"
   xmlns="http://www.w3.org/2000/svg"
   xmlns:svg="http://www.w3.org/2000/svg"><defs
   id="defs2699">
	
	
	
	
	
	
	

		
		
		
		
		
		
		
		
		
		
		
		
		
		
	</defs><sodipodi:namedview
   id="namedview2697"
   pagecolor="#ffffff"
   bordercolor="#000000"
   borderopacity="0.25"
   inkscape:showpageshadow="2"
   inkscape:pageopacity="0.0"
   inkscape:pagecheckerboard="0"
   inkscape:deskcolor="#d1d1d1"
   showgrid="false"
   inkscape:zoom="4.9445452"
   inkscape:cx="663.76176"
   inkscape:cy="147.63744"
   inkscape:window-width="1366"
   inkscape:window-height="705"
   inkscape:window-x="-8"
   inkscape:window-y="-8"
   inkscape:window-maximized="1"
   inkscape:current-layer="text3253" />
<style
   type="text/css"
   id="style2501">
	.st0{fill:#FFE87B;}
	.st1{fill:#1E1E1C;}
	.st2{fill:#1E1E1C;stroke:#1E1E1C;stroke-width:0.25;stroke-miterlimit:10;}
	.st3{fill:#1E1E1C;stroke:#1E1E1C;stroke-width:0.15;stroke-miterlimit:10;}
	.st4{fill:#FFFFFF;}
	.st5{stroke:#1E1E1C;stroke-miterlimit:10;}
	.st6{fill:none;stroke:#1E1E1C;stroke-width:3;stroke-linecap:round;stroke-linejoin:round;stroke-miterlimit:10;}
	.st7{stroke:#000000;stroke-width:1.5;stroke-miterlimit:10;}
</style>
<g
   id="Calque_2">
</g>
<path
   d="m 647.6,71.6 c 3.1,-2.2 5.8,-3.9 8.3,-5.8 5.9,-4.6 12.6,-7.6 19.3,-10.6 2.5,-1.1 4.3,-0.3 5.6,2.2 4.1,8 9.7,15.1 14.6,22.6 5.3,8.1 9.7,16.9 14.4,25.5 2.5,4.5 4.6,9.1 7.3,13.4 2.6,4.3 4.9,8.6 6.2,13.4 0.2,0.9 0.9,1.7 1.4,2.6 1,1.6 1.1,3.1 0,4.9 -2.9,4.5 -7.4,6.7 -12,8.8 -3.3,1.6 -6.8,3 -10.3,4 -5.5,1.6 -10,4.8 -14.8,7.7 -8.3,5 -16.6,9.9 -25,14.9 -3.2,1.9 -6.4,3.9 -9.5,5.9 -1.7,1 -3.4,0.6 -4.8,-1.3 -2,-2.8 -3.9,-5.7 -5.8,-8.4 -12.6,1.3 -25.1,2.7 -37.7,4 -2.2,3.4 -4.5,7.3 -7.2,10.9 -3.7,4.9 -8.8,8.3 -14.8,9.9 -5.5,1.5 -11.3,1.1 -16.9,-0.1 -6.4,-1.4 -12.5,-3.7 -18,-7.3 -7.5,-4.8 -13.3,-11.2 -17.5,-19 -2.6,-4.8 -2.5,-10.2 -2.5,-15.6 0,-7 2.3,-13.1 5.3,-19.4 3,-6.2 8.1,-9.6 13.1,-13.5 1,-0.8 1.9,-2.3 1.9,-3.5 -0.1,-4.2 -0.4,-8.5 -0.9,-12.7 -0.5,-5.1 -1.1,-10.1 -1.9,-15.2 -0.8,-5.3 -2.2,-10.5 -2.8,-15.9 -0.9,-7.7 -1.3,-15.5 -1.7,-23.3 -0.1,-1 0.9,-2.6 1.7,-3 3.6,-1.4 7.3,-2.6 11.1,-3.4 4,-0.8 8.1,-1.2 12.2,-1.2 6.9,-0.1 13.6,-1 20.4,-2.4 8.3,-1.7 16.8,-2.4 25.3,-3.1 5.5,-0.4 11.1,-0.2 16.6,0 3.5,0.1 7,0.7 10.5,1.2 2,0.3 3.2,1.5 3.8,3.5 3,9.4 5.2,18.8 5.1,29.3 z m 3.4,105.8 c 3.6,-2 6.8,-3.8 9.9,-5.6 8.1,-4.8 16.3,-9.4 24.2,-14.5 6.4,-4.1 13,-7.3 20.1,-9.8 4.8,-1.7 9.3,-4.5 13.7,-7 2.7,-1.6 2.7,-2.7 1.2,-5.4 -0.2,-0.4 -0.5,-0.9 -0.5,-1.4 -0.9,-4.7 -3.3,-8.8 -5.8,-12.9 -2.5,-4.1 -4.7,-8.4 -7,-12.6 -4,-7.5 -7.6,-15.2 -12.1,-22.4 -5.5,-8.9 -12.5,-16.8 -17.2,-26.3 -0.2,-0.4 -1.4,-0.7 -1.8,-0.5 -4.1,1.9 -8.3,3.7 -12.1,6 -4.2,2.5 -8,5.6 -12.1,8.3 -7.7,5.1 -15.3,10.1 -23.2,15 -7.3,4.5 -13.8,10.4 -21.8,13.9 -1.6,0.7 -2.3,1.8 -1.2,3.7 2.6,4.8 4.8,9.8 7.6,14.5 3,4.9 6.5,9.4 9.9,14.1 1.6,2.2 3.4,4.2 4.9,6.4 2.6,3.8 5.1,7.7 7.6,11.5 2.5,3.8 4.9,7.6 7.3,11.5 2.8,4.5 5.6,9.1 8.4,13.5 z m -21.9,-26.3 c 0.1,-0.1 0.2,-0.2 0.3,-0.3 -1,-1.6 -1.9,-3.2 -3,-4.8 -2,-2.9 -4,-5.8 -6,-8.7 -1.7,-2.3 -3.6,-4.4 -5.2,-6.7 -3.2,-4.9 -6.3,-9.7 -9.1,-14.8 -2.1,-3.7 -3.6,-7.7 -5.3,-11.6 -0.6,-1.4 -0.2,-2.5 1,-3.3 1.6,-1 3.4,-1.8 5,-2.8 3.3,-2 6.5,-4.2 10.1,-6.5 -4.5,-1.4 -5.5,-3.3 -4.9,-8.2 0.2,-1.6 2.6,-4.4 3.9,-4.1 1.9,0.3 4.3,0.5 5.5,1.8 1.3,1.4 1.6,3.9 2.3,5.9 0.5,-0.4 1.4,-0.9 2.2,-1.4 4.9,-3.3 9.5,-6.9 14.6,-9.9 2.9,-1.7 3.6,-3.7 3.5,-6.7 -0.3,-8.5 -2,-16.7 -4.8,-24.7 -0.3,-0.8 -1.3,-1.7 -2.1,-1.9 -2.9,-0.5 -5.9,-0.9 -8.8,-1 -13,-0.3 -26.1,-0.4 -38.9,2.6 -8.5,2 -17,3 -25.6,2.9 -6.6,0 -12.9,1.6 -19,4.5 0,0.5 0,1 0,1.6 0.8,7.9 1.4,15.8 2.4,23.6 1.3,10.4 3.1,20.7 4.5,31.1 0.5,3.5 0.5,7.1 0.7,10.8 4.4,-2.9 9.3,-1.2 13.9,-1.8 -1.5,-3.2 -0.6,-7.5 1.7,-8.9 1.9,-1.2 6.2,-0.6 7.2,1.3 0.7,1.2 0.9,2.9 0.7,4.3 -0.3,1.7 -1.2,3.3 -1.9,5.1 8.8,1.9 18.3,3.7 25,11.4 2.4,-1.9 5,-2.1 6.8,-0.6 2.2,1.7 2.9,4.5 1.7,7.1 -0.6,1.2 -1.3,2.4 -1.9,3.6 -0.2,0.5 -0.4,1.1 -0.3,1.5 1,3.6 2.1,7.2 3.2,10.8 2.8,-1 5.3,0.7 5.8,3.8 0.6,3.8 -1.5,6.3 -4.1,8 -2.7,1.8 -3,4.5 -4.1,7.5 11.7,-1.3 23,-2.6 34.7,-3.9 -2.3,-3.8 -4.4,-7.3 -6.6,-10.9 -0.6,0.6 -0.6,1 -0.7,1.4 -0.7,2.9 -2,4 -4.7,3.7 -2.8,-0.2 -4.7,-2 -4.8,-4.7 -0.1,-1.7 -0.1,-3.4 0.1,-5.1 0.3,-2.6 2.1,-3.3 4.1,-1.6 0.1,0.3 0.5,0.4 0.9,0.6 z m -97.2,3.4 c -0.4,5.1 -0.2,9.7 2,13.8 3.9,7.2 9.3,13.3 16.4,17.5 8.3,4.9 17.2,8 27.1,7.2 2.4,-0.2 5,-0.5 7.2,-1.5 8.5,-3.5 13.3,-10.4 16.8,-18.5 3.1,-7.2 3.9,-14.7 2.6,-22.4 -0.9,-5.1 -3.1,-9.7 -5.4,-14.2 -2.4,-4.7 -6.1,-8.1 -10.9,-9.8 -5.4,-1.9 -11.1,-3.2 -16.7,-4.7 -7.9,-2.1 -15.5,-1.5 -22.7,2.8 -1.3,0.8 -2.8,1.4 -3.9,2.4 -3.1,2.7 -5.6,5.8 -7.6,9.5 -3.3,5.9 -5.4,11.7 -4.9,17.9 z m 83.6,-71.1 c 0.9,1.5 -1,3.4 1.5,4 1.6,0.4 2.3,-0.4 2.3,-2.1 -0.1,-2.5 -1.8,-1.7 -3.8,-1.9 z m -7,71.6 c 0,1.7 0,3.3 0,5.1 2.6,-2.3 2.6,-3.7 0,-5.1 z m -35.9,-43.2 c -2.2,-0.4 -3.4,-0.3 -3.4,1.5 0,0.4 1.2,0.8 1.8,1.2 0.5,-0.8 0.9,-1.6 1.6,-2.7 z m 30.2,24.7 c 1,-1.2 1.9,-2.4 0.8,-3.8 -0.2,-0.3 -1.5,0.4 -2.5,0.6 0.7,1.4 1.2,2.2 1.7,3.2 z"
   id="path2504" /><path
   d="m 683.6,89 c 3.3,0.3 4,1 4,4.1 0,1.5 -0.1,3 -0.3,4.4 -0.4,2.5 -2.5,3.6 -4.5,2.1 -2.2,-1.6 -4.3,-3.5 -6.3,-5.3 -1,-0.9 -0.5,-2.6 0.9,-3.1 0.8,-0.3 1.6,-0.5 2.7,-0.8 -1.3,-5.4 -2.1,-10.9 -5,-16.1 -0.8,0.5 -1.4,0.8 -1.9,1.3 -3.4,3.4 -6.9,6.7 -10.3,10.1 -0.9,0.9 -1.8,1.6 -2.9,0.6 -1.1,-0.9 -0.7,-2.1 0,-3 0.9,-1.1 1.9,-2.1 2.9,-3.1 2.2,-2.1 4.4,-4.2 6.6,-6.3 0.4,-0.3 0.7,-0.7 1,-1.1 3.8,-3.6 6.6,-3.3 8.7,1.5 1.7,3.9 2.6,8 3.8,12.1 0.3,0.9 0.4,1.7 0.6,2.6 z"
   id="path2506" /><path
   d="m 674.7,118.5 c 3.7,1.9 7.1,3.6 11.2,5.7 -0.6,-5.1 -1.2,-9.6 -1.8,-14.1 -0.1,-0.6 -0.2,-1.1 -0.3,-1.7 -0.1,-1.2 0,-2.4 1.5,-2.6 1.4,-0.2 2,0.8 2.2,2 0.5,3.3 1.1,6.6 1.5,9.9 0.2,2 0.3,4 0.3,5.9 0,3.6 -2.6,5.3 -5.9,3.7 -3.2,-1.6 -6.4,-3.3 -9.5,-5 -2.2,2.3 -2.8,2.4 -5.3,0.7 -1.8,-1.2 -3.4,-2.5 -3.7,-4.9 -0.3,-2.5 0.9,-4 3.4,-4.2 1.2,-0.1 2.4,-0.1 3.6,0 2.9,0.1 3.6,1 3,3.7 -0.1,0.3 -0.2,0.6 -0.2,0.9 z"
   id="path2508" /><path
   d="m 649.4,96.1 c -2.4,-3.9 -1.7,-5.6 2.6,-6.7 1.1,-0.3 2.2,-0.6 3.3,-0.7 2.4,-0.3 3.6,0.8 3.1,3.2 -0.3,1.4 -0.9,2.8 -1.5,4.2 -0.4,1 -1,1.8 -1.7,2.6 -0.4,0.4 -1,0.8 -1.6,0.9 -1.1,0.2 -2.4,0 -3.3,0.5 -2.5,1.5 -4.9,3.2 -7.9,5.2 2.7,1.7 4.8,3.1 7,4.5 1.1,0.7 2.4,1.2 3.6,1.9 1.2,0.7 1.7,1.8 0.9,2.8 -0.5,0.6 -2,1 -2.7,0.6 -3.2,-1.7 -6.4,-3.6 -9.4,-5.7 -3.7,-2.6 -3.4,-6 0.4,-8.6 1.2,-0.8 2.3,-1.7 3.5,-2.4 1.2,-0.8 2.4,-1.5 3.7,-2.3 z"
   id="path2510" /><path
   d="m 666.6,97.7 c -2.1,-0.4 -3.5,-1.3 -2.9,-3.2 0.3,-1 1.3,-2.2 2.3,-2.6 1.7,-0.7 3.1,0.4 3.6,2.1 0.9,2.6 1.1,5.1 -1.1,7.3 -0.3,0.3 -0.6,0.6 -0.8,1 0,0 0,0.1 0,0.4 0.7,0.1 1.6,0 2.1,0.3 0.7,0.4 1.5,1.2 1.6,1.8 0.1,0.5 -0.9,1.6 -1.5,1.7 -2.3,0.2 -4.7,0.2 -7,0 -1.9,-0.2 -2.3,-2.1 -0.9,-3.7 1.3,-1.7 2.8,-3.2 4.6,-5.1 z"
   id="path2520" /><path
   d="m 579.6,67.3 c -0.6,0 -1.3,0 -1.9,0 -1.4,0.1 -2.7,-0.2 -2.8,-1.8 -0.1,-1.7 1.2,-2 2.6,-2.1 3.5,-0.3 7.1,-0.4 10.5,-1 4.3,-0.8 8.5,-2 12.8,-2.9 1.5,-0.3 3.1,-0.3 4.6,-0.2 0.5,0 1.3,0.7 1.3,1 0,0.6 -0.4,1.3 -0.9,1.7 -0.4,0.4 -1.1,0.6 -1.7,0.7 -7.2,1.5 -14.4,3 -21.6,4.4 -1,0.2 -2,0 -3,0 0.1,0.2 0.1,0.2 0.1,0.2 z"
   id="path2522" /><path
   d="m 585,90 c 0.1,-1.1 0.1,-2.3 0.5,-3.3 0.3,-0.8 0.9,-1.6 1.5,-2.2 2.2,-1.9 4.4,-0.5 6.5,0.3 1.8,0.7 2.9,2 2.8,4.1 0,0.6 0,1.1 0,1.7 -0.3,4.1 -1.8,5.8 -5.3,5.6 -3.8,-0.1 -5.9,-2.4 -6,-6.2 z m 4.2,-2.1 c -0.7,3.1 -0.3,4.2 1.5,4.5 1.6,0.2 1.7,-0.8 1.8,-1.9 0.1,-2.3 -0.1,-2.6 -3.3,-2.6 z"
   id="path2524" /><path
   d="m 562.2,90.2 c 0,-0.3 0,-0.6 0,-0.9 0.1,-3.4 1.6,-4.6 4.9,-4 4.5,0.9 6.5,4 5.5,8.6 -0.5,2.2 -2.1,3.4 -4.3,3.3 -4.1,-0.2 -6.1,-2.6 -6.1,-7 z m 6.6,3.2 c 0,-1.1 0,-2 0,-3.1 -1,0.1 -1.8,0.2 -2.6,0.3 -0.6,2.2 0.7,2.5 2.6,2.8 z"
   id="path2526" /><path
   d="m 594.7,117.5 c -3.7,0 -5.5,-1.6 -5.5,-4.7 0,-4 2,-5.9 5.8,-5.9 3.3,0 5.4,2.1 5.4,5.4 0.1,3.4 -1.9,5.2 -5.7,5.2 z m 0.3,-7.6 c -0.9,1.2 -1.4,1.9 -1.8,2.5 0.6,0.4 1.2,1.2 1.7,1.1 0.7,-0.1 1.4,-0.8 1.8,-1.4 0.1,-0.2 -0.8,-1 -1.7,-2.2 z"
   id="path2528" /><path
   d="m 568.8,181.5 c -7.1,0.1 -13.9,-1.5 -19.7,-5.7 -5.7,-4.1 -8.9,-10 -9.1,-17.2 -0.1,-2.8 0,-5.5 0.4,-8.3 1.1,-7.9 5.9,-13.3 12.2,-17.6 1.8,-1.3 3.8,-1.7 6.1,-1.3 0.8,0.1 1.8,0.1 2.4,-0.3 5.1,-2.6 10.2,-1.8 15.2,-0.1 2.1,0.7 4.2,1.7 6.2,2.7 5.6,2.7 8.7,7.6 10.4,13.3 2.4,8.2 1.7,15.9 -3.3,23.3 -3,4.3 -6.4,7.8 -11.3,9.6 -3.1,1.1 -6.4,1.6 -9.5,2.3 0.1,-0.2 0.1,-0.5 0,-0.7 z m 4.9,-3.8 c 0.7,-0.2 1.1,-0.3 1.6,-0.5 5,-1.8 8.7,-4.9 11.6,-9.4 3.6,-5.5 4.3,-11.2 3.1,-17.3 -0.7,-3.2 -2.3,-6.4 -4,-9.2 -2.7,-4.4 -7.6,-5.7 -12.2,-7.2 -3.8,-1.2 -7.6,-1.4 -11.3,0.6 -1.1,0.6 -2.6,0.2 -3.8,0.4 -1.3,0.2 -2.8,0.1 -3.8,0.8 -5,3.5 -9.4,7.7 -10.3,14.1 -0.4,2.4 -0.5,4.9 -0.5,7.4 0,7.8 3.5,13.5 10.5,17 1.9,0.9 3.9,1.8 6,2.2 2.9,0.6 5.9,0.8 8.8,1.1 0.2,-0.3 0.3,-0.5 0.5,-0.8 -3.7,-7.7 -7.5,-15.4 -11.2,-23 -0.3,-0.6 -0.8,-1.2 -0.8,-1.7 0.1,-0.9 0.2,-2.3 0.8,-2.7 1.1,-0.8 2.1,0 2.7,1.2 0.2,0.5 0.5,1 0.8,1.6 0.5,-0.4 1,-0.8 1.4,-1.1 2.9,-2.7 5.8,-5.4 8.8,-8 1.8,-1.6 4,-1.5 5.3,0.3 2.3,3.2 4.3,6.7 6.3,10.1 0.8,1.3 0.3,2.5 -1,3.3 -2.2,1.4 -4.5,2.7 -6.6,4.2 -2.4,1.7 -4.8,3.5 -7.3,5.3 1.3,3.7 2.9,7.4 4.6,11.3 z m 0.9,-31.9 c -3.5,3.3 -6.7,6.4 -9.9,9.5 -0.2,0.2 -0.5,0.8 -0.4,1.1 0.9,2 1.9,4 3,6.3 4.3,-3 8.3,-5.8 12.3,-8.5 -1.6,-2.8 -3.2,-5.4 -5,-8.4 z"
   id="path2530" /><g
   id="g2546">
		<path
   d="m 407.3,101.9 c -0.4,4.1 -0.8,8 -1.3,11.8 0,0.3 -0.3,0.6 -0.6,1.3 -3,-2.6 -5.8,-5 -8.5,-7.5 -0.5,-0.4 -0.7,-1.3 -0.8,-1.9 -1,-9.2 -1.4,-18.5 -0.6,-27.8 0,-0.4 0.1,-0.8 0.1,-1.3 0.1,-3.1 1.9,-5.8 4.9,-6.4 5.2,-1 10.5,-1.7 15.7,-2.5 3,-0.5 6,-1.1 9,-1.6 0.7,-0.1 1.6,-0.1 2.3,0.1 5.1,2.3 10.2,4.6 15.3,6.9 1.4,0.6 2.9,1.2 4.3,1.7 4.7,1.8 9.3,3.6 14,5.4 2,0.8 2.9,2.3 3.1,4.4 0.4,5.8 0.8,11.6 1,17.4 0.2,7.4 0.2,14.7 0.4,22.1 0.1,2.1 -0.7,3.1 -2.7,3.5 -7,1.6 -14.1,3.2 -21.1,5 -3.7,1 -7.2,2.5 -10.9,3.5 -1,0.3 -2.5,0.1 -3.3,-0.5 -2.7,-2.1 -5.3,-4.5 -7.8,-6.9 -0.5,-0.4 -0.7,-1.4 -0.6,-2.1 0.4,-4.9 0.9,-9.9 1.5,-14.8 0.2,-1.8 -0.1,-2.9 -1.7,-3.8 -3.8,-1.8 -7.7,-3.9 -11.7,-6 z m 24.5,29.7 c 1.7,-0.6 3,-1 4.4,-1.4 7.8,-1.9 15.7,-3.9 23.5,-5.8 1.2,-0.3 2.1,-0.6 2.1,-2.3 -0.2,-7.7 -0.2,-15.4 -0.4,-23.2 -0.1,-4.3 -0.5,-8.7 -0.8,-13.4 -6.8,2.1 -13.2,4.4 -19.7,5.9 -5.2,1.2 -5.8,4.4 -6.1,8.8 -0.3,5.3 -1.3,10.5 -1.9,15.8 -0.5,5.1 -0.7,10.2 -1.1,15.6 z m -28.6,-23.7 c 0,-2.7 0,-5 0,-7.2 0.1,-3 1.6,-4.2 4.3,-2.9 5.2,2.6 10.2,5.5 15.3,8.3 1.9,1 2.3,2.6 2,4.7 -0.8,4.9 -1.3,9.8 -1.9,14.7 0,0.3 -0.1,0.8 0.1,1 1.6,1.5 3.3,3 4.8,4.3 1.3,-12.5 2.6,-24.8 4,-37.1 -2.1,-1.3 -4,-2.6 -6.3,-4 -0.2,1.2 -0.3,2 -0.5,2.8 -0.4,1.9 -1.7,2.8 -3.4,2 -6.1,-2.7 -12.5,-5.1 -17.6,-9.7 -0.7,-0.7 -1.1,-1.9 -1.3,-2.9 -0.2,-0.8 0.1,-1.7 0.1,-2.5 -1.1,-0.6 -2,-1 -3.2,-1.6 -0.2,1.1 -0.5,2.2 -0.5,3.2 0.1,7.1 0.4,14.2 0.5,21.3 0,2.5 1.2,4.1 3.6,5.6 z m 53.8,-25 c 0,-0.2 0.1,-0.4 0.1,-0.5 -2.1,-0.8 -4.1,-1.7 -6.2,-2.5 -3.6,-1.4 -7.3,-2.6 -10.9,-4 -3.5,-1.4 -6.8,-3.2 -10.2,-4.7 -2.2,-1 -4.3,-1.4 -6.7,-0.8 -2.9,0.7 -5.9,1 -8.8,1.5 -1.5,0.2 -3,0.3 -4.9,0.5 4.2,3.8 8.5,6.5 13.5,8.2 3.1,1 3.3,1.4 3.3,4.5 0,0.5 0.3,1.1 0.6,1.3 1.7,1.2 3.4,2.3 5.2,3.3 0.6,0.3 1.6,0.5 2.3,0.2 4.4,-1.4 8.7,-2.9 13.1,-4.3 3.2,-1.1 6.4,-1.9 9.6,-2.7 z m -49.6,-7.3 c -0.4,2 -0.8,3.6 -1,5.2 -0.1,0.6 0.2,1.5 0.6,1.8 4.1,3.6 9.3,5.4 14.3,7.8 0.3,-1.7 0.5,-3.1 0.8,-4.4 0.3,-1.3 -0.2,-1.9 -1.4,-2.5 -3.1,-1.4 -6.2,-3.1 -9.2,-4.8 -1.3,-0.7 -2.5,-1.9 -4.1,-3.1 z m -3.5,-2.7 c -1.1,0.4 -1.8,0.7 -2.7,1 0.8,0.8 1.4,1.3 2.3,2.1 0.2,-1.2 0.3,-2 0.4,-3.1 z"
   id="path2534" />
		<path
   d="m 351.1,95.1 c -7.2,0.4 -14.3,0.7 -21.3,1.1 -1.3,0.1 -1.8,0.8 -1.8,2.3 0.1,3.4 0.1,6.8 0.1,10.2 0,2.9 -0.3,3.2 -3.1,3 -3.2,-0.2 -6.5,-0.4 -9.7,-0.8 -0.8,-0.1 -1.6,-0.8 -2.1,-1.5 -3.6,-5 -7.1,-10.1 -10.5,-15.2 -0.7,-1.1 -1.4,-2.6 -1.3,-3.9 0.2,-5.9 0.6,-11.7 1,-17.6 0,-0.4 0.2,-0.7 0.2,-1 0.2,-2.8 0.6,-3.2 3.5,-3.6 3.6,-0.4 7.2,-1 10.8,-1.3 6.6,-0.6 13.1,-1.2 19.7,-1.8 0.6,0 1.1,-0.1 1.9,-0.1 0,-1.8 -0.1,-3.6 0,-5.3 0.1,-2.6 0.3,-5.2 0.5,-7.8 0.1,-1.7 0.9,-3.1 2.7,-3.4 3.6,-0.6 7.2,-1.3 10.9,-1.6 0.9,-0.1 2.3,1 2.7,1.9 0.9,2.2 1.4,4.6 1.8,7 0.3,1.8 -0.6,2.8 -2.5,2.9 -4,0.4 -8,0.8 -12.2,1.3 0,1.7 0,3.3 0,5.1 0.8,0 1.6,0 2.3,0.2 1,0.2 2.1,0.4 3,0.9 5,2.9 9.9,6.1 14.9,8.9 3.2,1.8 5,3.7 4.8,7.7 -0.4,8.5 -0.3,17 -0.3,25.5 0,3.7 -0.8,4.6 -4.5,4.5 -3,0 -5.9,-0.3 -8.9,-0.4 -2.1,0 -2.4,-1.3 -2.4,-2.9 0.1,-4.1 0.1,-8.2 0.1,-12.3 -0.2,-0.5 -0.2,-1 -0.3,-2 z m 12.1,-14.6 c -0.8,0 -1.7,0 -2.5,0 -7.1,-0.1 -14.2,-0.3 -21.3,-0.3 -6.4,0 -12.7,0.3 -19.1,0.4 -1.9,0 -2.5,0.9 -2.5,2.6 -0.2,7.2 -0.4,14.3 -0.6,21.5 0,0.7 0.1,1.5 0.1,2.3 2.3,0.2 4.4,0.4 6.7,0.6 0.1,-1.2 0.1,-2.2 0.1,-3.2 0,-2.8 -0.1,-5.5 0.1,-8.3 0.1,-1.1 0.9,-2.6 1.8,-2.9 2.1,-0.8 4.4,-1.3 6.6,-1.4 6.1,-0.3 12.2,-0.2 18.3,-0.4 3.4,-0.1 4,0.4 4,3.8 0,3.9 0,7.8 0.1,11.7 0,0.6 0.6,1.6 1,1.6 2.3,0.2 4.6,0.1 7.1,0.1 0.1,-9.2 0.1,-18.4 0.1,-28.1 z m -25,-11.2 c 0.1,-0.2 0.2,-0.4 0.4,-0.6 -9.8,0.1 -19.5,1.1 -29.4,3.1 1.8,1.5 3.5,2.7 5,4.2 1.3,1.3 2.5,2 4.4,1.3 1.5,-0.5 3.2,-0.7 4.8,-0.7 9.4,0 18.8,0.1 28.2,0.1 1.7,0 3.5,0 5.8,0 -0.8,-0.6 -1.1,-0.8 -1.4,-1 -3.4,-2.1 -6.7,-4.2 -10.1,-6.2 C 345.1,69 344,69 343,68.7 c 0.1,0.2 0.2,0.5 0.3,0.7 -0.8,0.9 -1.6,1.8 -2.4,2.6 -0.9,-0.9 -1.8,-1.8 -2.7,-2.7 z m -31.7,5.2 c -0.3,0.1 -0.6,0.2 -0.9,0.3 -0.2,5.3 -0.3,10.5 -0.5,15.8 0,0.3 0.1,0.6 0.2,0.8 2.5,3.4 5.1,6.9 7.6,10.3 0.3,-0.2 0.4,-0.3 0.4,-0.3 0.4,-6.6 0.7,-13.2 1.1,-19.9 0,-0.2 -0.2,-0.5 -0.4,-0.7 -2.4,-2 -5,-4.2 -7.5,-6.3 z m 46.3,-19.9 c -0.7,-5 -0.8,-4.3 -4.7,-4 -0.7,0.1 -1.4,0.2 -2.1,0.3 -3.4,0.5 -4,1.3 -3.4,5.2 3.3,-0.5 6.7,-1 10.2,-1.5 z"
   id="path2536" />
		<path
   d="m 346.8,130.6 c 4.4,0.6 8.9,0.9 13.3,1.8 7.5,1.6 14.9,3.5 22.3,5.3 2.4,0.6 3.5,2.3 4,4.5 0.7,3.3 1,6.6 1.7,9.8 1.1,5.2 2.5,10.3 3.6,15.5 0.3,1.3 0.4,3.1 -0.3,4.2 -5.1,8.8 -11.1,16.9 -17.8,24.6 -1,1.2 -2.3,1.4 -3.7,0.8 -8.6,-4 -18.3,-4.4 -27.2,-7.5 -3.7,-1.3 -7.3,-2.8 -10.7,-4.6 -1.1,-0.6 -1.9,-2.6 -1.9,-3.9 0.3,-9.8 0.5,-19.7 4.3,-29 2.6,-6.3 5.5,-12.6 8.1,-18.9 0.9,-2.1 2.3,-2.8 4.3,-2.6 z m 23.7,61.9 c 0.3,-6 0.7,-12.3 0.9,-18.6 0.1,-3.2 0.2,-6.5 0.1,-9.8 0,-0.6 -0.6,-1.6 -1.1,-1.7 -5.4,-1.5 -10.8,-3 -16.2,-4.1 -5.1,-1.1 -10.3,-1.6 -15.5,-2.5 -1.2,-0.2 -1.9,0 -2.1,1.3 -0.9,7.7 -1.9,15.4 -2.7,23.2 -0.1,0.6 0.6,1.7 1.3,2 6.5,3.6 13.7,4.9 20.7,6.8 4.7,1.2 9.5,2.2 14.6,3.4 z m 10.9,-50.8 c -0.4,-0.3 -0.5,-0.4 -0.6,-0.5 -10.9,-3.3 -22.1,-5.5 -33.5,-6.7 -0.5,-0.1 -1.4,0.5 -1.7,1.1 -1.1,1.9 -2.1,3.9 -3,5.9 -1.5,3.3 -2.9,6.7 -4.5,10.3 1.5,0.4 2.6,0.8 3.7,0.9 9.2,1 18.2,2.6 27,5.5 2.2,0.7 3.5,0.3 4.3,-1.9 0.5,-1.4 1.5,-2.6 2.2,-3.8 2.2,-3.7 4.2,-7.3 6.1,-10.8 z m -6.8,46.9 c 0.2,0.1 0.4,0.3 0.6,0.4 4.2,-6.2 8.5,-12.5 12.6,-18.8 0.3,-0.5 0.1,-1.5 0,-2.2 -1.2,-5.3 -2.4,-10.6 -3.6,-15.9 -0.4,-1.8 -0.5,-3.6 -0.9,-5.8 -2.6,4.3 -5,8.1 -7,12 -0.8,1.5 -0.9,3.3 -1,5 -0.1,1.6 0.2,3.3 0.2,4.9 -0.2,6.8 -0.6,13.6 -0.9,20.4 z"
   id="path2538" />
		<path
   d="m 412.6,166.1 c 7.4,0.4 13.3,-2.4 18.1,-7.6 2.3,-2.5 3.7,-5.5 3.6,-9.1 0,-1.3 0.3,-2.6 1.9,-2.6 1.7,0 1.9,1.4 1.9,2.7 -0.1,5.5 -2.7,9.8 -6.7,13.5 -5,4.4 -10.8,6.7 -17.4,6.9 -0.7,0 -1.3,0.8 -2,1.3 -0.5,0.4 -1,1.2 -1.4,1.1 -2.5,-0.4 -5.3,-0.5 -7.5,-1.6 -2.2,-1 -2,-4.3 0.1,-5.4 2.1,-1.2 4.4,-2.1 6.7,-2.6 2.3,-0.5 2.4,1.7 2.7,3.4 z"
   id="path2540" />
		<path
   d="m 315,130.1 c 0,8 2.3,14.9 8.6,20 1,0.8 1.6,1.7 0.9,2.9 -0.7,1.1 -1.9,1.2 -3,0.4 -1,-0.7 -1.9,-1.5 -2.7,-2.4 -5.1,-5.5 -7.5,-12.1 -7.7,-19.5 0,-0.9 -0.8,-1.7 -1.1,-2.6 -0.3,-1 -1.1,-2.3 -0.7,-3 1,-2 2.4,-3.8 3.9,-5.4 1.2,-1.3 3,-0.8 3.6,0.9 0.7,2.1 1.3,4.2 1.6,6.4 0.4,2.2 -1.5,2.3 -3.4,2.3 z"
   id="path2542" />
		<path
   d="m 394.1,59.4 c -6.8,-3.2 -13.7,-3.1 -20.7,-0.6 -0.8,0.3 -1.4,1.3 -2.2,1.6 -0.7,0.3 -2,0.5 -2.4,0.1 -0.5,-0.4 -0.7,-1.9 -0.3,-2.4 0.9,-1.1 2.1,-2.3 3.4,-2.8 7.6,-2.9 15.3,-3.2 22.9,0.3 1.4,0.7 2.7,1.8 4.5,0.6 0.4,-0.3 2.1,0.5 2.5,1.1 0.9,1.5 1.4,3.3 1.8,5 0.4,1.8 -0.9,3 -2.8,2.5 -1.4,-0.4 -2.8,-0.8 -4.3,-1.3 -2.7,-0.8 -2.9,-1.1 -2.4,-4.1 z"
   id="path2544" />
	</g><g
   id="g2582">
		<g
   id="g2570">
			<path
   d="m 238.8,49.8 c -0.2,-4.6 -0.8,-9 -5.1,-11.7 -2.3,-1.4 -4.7,-2.6 -7.2,-3.5 -5.4,-2 -11,-3 -16.9,-2.7 -6.2,0.3 -12.5,0 -18.7,0.4 -6.1,0.4 -12.2,0.3 -18.1,-1.1 -6.6,-1.5 -13.2,-1.4 -19.9,-1 -3.9,0.2 -5.2,1.2 -5.7,5.1 -1.2,8.1 -2.3,16.3 -3.4,24.4 -0.1,0 -0.2,0 -0.2,0 -1.3,6.8 -2.9,13.5 -3.8,20.3 -0.7,5.4 -1.4,10.9 -2,16.3 1.3,-0.4 2.7,-0.5 4,-0.2 0.6,-5.2 1.2,-10.5 1.8,-15.7 0.9,-7.7 2.8,-15.2 4.1,-22.8 1.2,-6.8 2.2,-13.7 3.1,-20.6 0.3,-2.1 0.9,-2.9 3.2,-3.1 6.8,-0.4 13.6,-0.1 20.3,1.5 5.3,1.3 10.7,1.1 16,0.8 7.2,-0.3 14.4,-0.4 21.6,-0.4 7,0 13.6,1.9 19.6,5.5 2,1.2 3.2,3.1 3.2,5.4 0.2,6 0.4,12 0.3,18 -0.2,9.9 -0.6,19.8 -1,29.7 -0.5,12 -1,24 -1.7,36 -0.6,11.4 -1.1,22.9 -2.2,34.3 -0.7,7 -2.3,14 -4.1,20.8 -1.2,4.6 -2.3,4.8 -7,4.5 -1,-0.1 -1.9,-0.2 -3.1,-0.3 0.1,-4 0.2,-7.8 0.4,-11.6 0,-0.1 0,-0.3 0,-0.4 0.3,-8 -1.4,-9.7 -9.3,-10.2 -7.9,-0.5 -15.8,-1 -23.6,-2.7 -2.6,-0.5 -5.1,-1 -7.7,-1.4 -3.2,0.6 -6.4,0.7 -9.1,-0.5 -1,0.2 -2,0.4 -3.1,0.5 -2.1,0.3 -3.9,0.1 -5.4,-0.5 -3.7,0.8 -7.5,1.5 -11.4,1.4 -0.1,0 -0.2,0 -0.3,0 0,0.1 0,0.2 0,0.4 -0.3,4.8 -0.4,9.6 -0.6,14.4 -5.2,0.7 -9.5,-2.9 -9.5,-8.3 0,-2.2 0.1,-4.4 0.1,-6.6 -1.3,-0.1 -2.7,-0.4 -3.8,-1 0,2.6 -0.1,5.3 0,7.9 0,5.6 3,9.6 7.9,11.1 2.8,0.8 5.7,1.2 8.5,1.6 7,0.8 14.1,1.3 21.1,2.4 6.6,1 13.2,2.8 19.8,4 4.4,0.8 9,1.2 13.5,1.8 5.9,0.7 11.8,1.5 17.7,2.1 3.3,0.3 5.9,-1.3 7.5,-4.2 0.9,-1.6 1.7,-3.3 2,-5.1 1.6,-9.1 3.5,-18.1 4.3,-27.3 1.1,-13.4 1.1,-26.9 1.8,-40.3 0.5,-9.8 1,-19.6 1.7,-29.5 0.5,-12.7 0.9,-25.3 0.4,-37.9 z m -50.3,136.1 c -1.4,-0.2 -1.7,-1 -1.6,-2.4 0.1,-2.5 0,-4.9 0,-8.1 6,0.7 11.8,1.3 17.5,2 0.4,0.1 1.2,0.5 1.2,0.9 0.4,3.3 0.7,6.7 1.1,10.4 -6.3,-1 -12.2,-1.9 -18.2,-2.8 z M 212,189 c -0.2,0.1 -0.4,0.2 -0.6,0.3 -0.3,-0.5 -0.9,-1 -1,-1.5 -0.4,-3.6 -0.7,-7.2 -1,-10.8 -0.1,-1.8 -1.1,-2.7 -2.9,-3.1 -6.7,-1.4 -13.5,-1.9 -20.3,-1.9 -2.7,0 -3.4,0.9 -3.3,3.7 0.1,2.9 0.1,5.7 0.2,8.8 -2.4,-0.5 -4.4,-0.8 -6.4,-1.2 1.4,-2.6 1,-3.5 -2,-4 -5.2,-1 -10.3,-2 -15.5,-2.9 -0.8,-0.2 -1.7,-0.3 -2.5,-0.3 -2.9,0 -3.6,1.1 -2.2,3.8 -1.8,0 -3.3,0 -5.2,0 0.2,-4.7 0.3,-9.4 0.5,-14 0,-1.3 0.6,-1.5 1.9,-1.5 11.9,0 23.5,2.6 35.1,5 6.7,1.4 13.4,1 20,1.9 0.3,0 0.6,0 0.8,0 4.2,0.3 4.8,0.8 4.7,5 0.1,4.2 -0.1,8.5 -0.3,12.7 z"
   id="path2548" />
			<path
   d="m 218.1,127.9 c -0.2,-1.4 -1.6,-3.3 -2.8,-3.6 -4.6,-1.2 -9.4,-2.6 -14.1,-2.4 -4.5,0.2 -9,0.1 -13.5,-0.1 -0.1,0.1 -0.1,0.3 -0.2,0.4 0,0.3 0.1,0.7 0.1,1 0.3,0.8 0.6,1.6 0.8,2.5 4,0.2 7.9,0.2 12,0.1 4.3,-0.2 8.6,1.1 12.9,1.9 0.5,0.1 1.2,1 1.2,1.5 0.3,5.8 0.9,11.7 0.5,17.5 -0.4,5.7 -3.7,8.3 -9.3,8.5 -5.5,0.2 -10.9,0.3 -16.4,0.3 -0.3,1.4 -0.9,2.7 -2,3.8 6.2,0 12.5,-0.1 18.7,-0.3 6.6,-0.3 11.3,-4.2 12.5,-9.9 1.6,-7.1 0.9,-14.2 -0.4,-21.2 z"
   id="path2550" />
			<path
   d="m 220.9,103.9 c -0.1,-1.3 0,-2.7 0,-4 -0.1,-4.4 -0.2,-8.8 -0.4,-13.2 -0.1,-2.5 -1.6,-4.4 -3.9,-5 -3,-0.8 -6.1,-1.5 -9.2,-1.7 -7.6,-0.3 -15.3,-0.3 -22.9,-0.4 -5.5,-0.1 -11.1,0.3 -16.5,-0.2 -5,-0.5 -9.8,-0.7 -14.8,0.3 -3.9,0.8 -4.1,0.9 -4.5,4.7 0,0.5 -0.2,1 -0.2,1.5 -0.1,3.2 -0.3,6.4 -0.5,9.6 1.2,-0.2 2.5,-0.3 3.8,-0.3 0.1,-3.1 0.3,-6.3 0.4,-9.5 0.1,-1.4 0.9,-2.1 2.1,-2.2 3.1,-0.3 6.2,-0.7 9.3,-0.7 5.4,0 10.9,0.3 16.3,0.5 4.2,0.2 8.3,0.5 12.5,0.6 4.2,0.1 8.3,-0.2 12.5,0 3.2,0.1 6.3,0.6 9.4,1 1.7,0.2 2.4,1.4 2.4,3 0.1,4 0.2,7.9 0.3,11.9 0,1.3 0,2.5 0,3.8 0.2,3.3 -0.9,6.2 -2.9,8.6 -0.6,0.8 -1.9,1.5 -2.9,1.5 -3.9,-0.1 -7.8,-0.2 -11.6,-0.7 -4.2,-0.6 -8.3,-1.1 -12.5,-1.1 0.3,1.3 0.6,2.7 0.8,4.2 3.4,0.2 6.8,0.3 10.1,0.5 3.7,0.3 7.3,0.9 11,1.1 2.8,0.1 5.8,-0.4 7.7,-2.8 2.8,-3.1 4.5,-6.7 4.2,-11 z"
   id="path2552" />
			<path
   d="m 213.3,41.2 c 2.9,0.3 5.9,0.6 8.8,0.8 1.9,0.2 3.3,1 3.5,3 0.2,1.5 0.4,3.1 0.3,4.6 -0.7,6.8 -1.4,13.5 -2.2,20.2 -0.4,2.8 -1.3,3.3 -4.2,3.1 -7.7,-0.5 -15.4,-0.8 -23.1,-1.2 -0.8,0 -1.7,0.2 -2.5,0.4 -1,0.2 -1.9,0.5 -2.9,0.6 -5.2,0.6 -7.1,-0.8 -7,-6 0.1,-6.6 0.5,-13.3 1,-19.9 0.1,-1.6 0.9,-3.3 1.6,-4.8 0.6,-1.4 1.9,-1.9 3.5,-1.9 4.2,0 8.3,-0.2 12.5,-0.2 3.6,0 7.2,0.3 10.7,0.5 0,0.3 0,0.6 0,0.8 z m 6.9,27.9 c 0.4,-3 0.8,-6 1,-9 0.4,-3.9 0.6,-7.8 1,-11.6 0.1,-1.8 -0.3,-2.7 -2.4,-2.7 -2.2,0 -4.3,-0.6 -6.5,-0.9 -3,-0.4 -6,-1 -9,-1 -4.4,-0.1 -8.9,0.2 -13.3,0.4 -0.6,0 -1.5,0.9 -1.5,1.5 -0.6,7 -1.1,14.1 -1.7,21.1 -0.2,2 0.9,2.5 2.6,2.3 0.8,-0.1 1.5,-0.4 2.3,-0.4 2.2,-0.2 4.3,-0.5 6.5,-0.4 6.8,0.1 13.7,0.4 21,0.7 z"
   id="path2554" />
			<path
   d="m 156.5,48 c -0.5,-0.7 -1.4,-1.6 -1.3,-2.2 0.1,-0.7 1.1,-1.7 1.9,-1.8 1.7,-0.2 3.4,0 5.1,0.1 4.4,0.3 8.7,0.6 13.1,1.2 0.8,0.1 1.4,1.2 2.1,1.9 -0.6,0.7 -1.2,1.7 -1.9,1.9 -1.5,0.2 -3.1,0 -4.6,-0.1 -4.6,-0.5 -9.3,-1 -13.9,-1.5 -0.2,0.1 -0.4,0.3 -0.5,0.5 z"
   id="path2556" />
			<path
   d="m 158.4,56.6 c -1,-0.2 -2.1,-0.1 -2.9,-0.6 -0.7,-0.5 -1.1,-1.5 -1.6,-2.3 0.8,-0.5 1.7,-1.5 2.3,-1.3 5.3,1.5 10.7,1 16,0.7 1.3,-0.1 2.8,0 2.9,1.7 0.1,1.9 -1.4,2 -2.8,2 -4.6,0.1 -9.3,0.2 -13.9,0.3 0,-0.1 0,-0.3 0,-0.5 z"
   id="path2558" />
			<path
   d="m 157.2,174.1 c -1.4,-0.4 -2.8,-0.7 -2.6,-2.4 0.3,-1.6 1.6,-1.5 2.9,-1.4 4.9,0.3 9.7,0.5 14.6,0.7 1.3,0.1 2.7,0.4 2.6,2.1 -0.1,1.6 -1.4,1.8 -2.6,1.7 -5.1,-0.3 -10.1,-0.5 -14.9,-0.7 z"
   id="path2560" />
			<path
   d="m 211.9,145.4 c -0.2,-3 -0.3,-5.9 -0.5,-8.9 -0.1,-1.8 -0.4,-3.6 -0.8,-5.4 -0.4,-2.2 -1.9,-3.1 -4,-3 -1.4,0 -2.9,0.3 -4.2,0.1 -4.6,-0.7 -9.1,-1 -13.6,-0.6 0.2,1.2 0.3,2.5 0.4,3.8 0.9,-0.1 1.8,-0.2 2.7,-0.2 4.7,0.1 9.3,0.4 13.9,0.8 0.5,0 1.2,0.6 1.3,1 0.3,1.2 0.4,2.4 0.4,3.6 0.2,2.9 0.2,5.8 0.4,8.7 0.2,2.5 0.1,2.6 -2.5,2.6 -3.2,0 -6.4,-0.1 -9.5,-0.2 -1.7,0 -3.4,-0.1 -5.3,-0.1 0.3,1.4 0.3,2.6 0.1,3.8 1.3,0 2.5,0 3.8,0 4,0.1 7.9,0.3 11.9,0.2 4.5,-0.2 5.8,-1.8 5.5,-6.2 z"
   id="path2562" />
			<path
   d="m 192.6,109.3 c -0.7,-0.1 -1.4,-0.3 -2.1,-0.4 -4.4,-0.8 -5.4,-1.9 -5.2,-6.4 0.2,-4.4 0.7,-8.9 1.1,-13.3 0.2,-2.2 1.5,-3.6 3.5,-3.6 6,0 12,-0.1 18,0.4 3.5,0.3 4.8,1.8 4.9,5.3 0.2,5.1 0.1,10.3 -0.1,15.4 -0.1,2.7 -1.1,3.3 -3.8,3.2 -5.4,-0.1 -10.9,-0.3 -16.3,-0.4 0,0 0,-0.1 0,-0.2 z m 3,-3.5 c 2.5,0.1 7,0 11.4,0.3 1.8,0.1 2.3,-0.4 2.3,-2 0,-3.8 -0.1,-7.6 0,-11.4 0,-2.2 -1,-3.3 -3.2,-3.3 -4.9,-0.1 -9.9,-0.1 -14.8,-0.1 -0.4,0 -1.2,0.8 -1.2,1.3 -0.4,3.2 -0.8,6.4 -0.9,9.7 -0.3,4.7 -0.2,4.7 6.4,5.5 z"
   id="path2564" />
			<path
   d="m 169,90 c 2.9,0.4 5.9,0.8 8.8,1.3 1.2,0.2 2.3,0.7 2.1,2.2 -0.2,1.6 -1.5,1.7 -2.8,1.5 -5.6,-0.9 -11.1,-1.9 -16.7,-2.9 -0.4,-0.1 -1,-0.1 -1.2,-0.4 -0.6,-0.7 -1.1,-1.5 -1.7,-2.3 0.8,-0.4 1.7,-1.3 2.5,-1.2 3,0.4 6,1.1 9,1.6 0,0.1 0,0.2 0,0.2 z"
   id="path2566" />
			<path
   d="m 168.2,95.9 c 4.1,0.2 7.5,1.3 10.3,3 0,-1 -1,-1.5 -2,-1.7 -5.5,-1.1 -11,-2.1 -16.5,-3.2 -1.2,-0.2 -2.3,-0.1 -2.7,1 4.1,0.3 7.9,0.8 10.9,0.9 z"
   id="path2568" />
		</g>
		<g
   id="g2580">
			<path
   d="m 101,163.4 c 6.4,-4.2 12.7,-8.2 19,-12.4 0.6,-0.4 1,-1.5 1,-2.3 0.2,-10.7 0.2,-21.4 0.6,-32.1 0.1,-3.6 -0.1,-6.4 -3.8,-8.1 -2.1,-0.9 -3.9,-2.5 -6.1,-4 -0.5,1.2 -0.9,2.2 -1.3,3.2 -1.7,4 -4.5,6.1 -9,6 -14.3,-0.4 -28.6,-0.5 -42.9,-0.9 -2.2,-0.1 -4.5,-0.7 -6.5,-1.6 -3.3,-1.6 -4.5,-4.7 -4.8,-8.2 -1.3,-12 -1,-24.1 -0.6,-36.1 0.1,-3.3 0,-6.6 -0.3,-9.9 -0.6,-6.7 3.1,-11.1 9.8,-11 12.5,0.2 25.1,0.3 37.6,0.8 3.4,0.1 6.9,1.1 10.1,2.1 3.9,1.2 5.8,4.5 6.3,8.4 0.8,6.2 1.5,12.4 2,18.6 0.5,6.4 0.7,12.9 1.1,19.3 0,0.4 0.1,0.9 -0.1,1.3 -1.3,3.4 0.6,5.1 3.2,6.6 1.9,1.1 3.7,2.4 5.2,3.4 1.8,-3 3.4,-5.8 5.1,-8.6 1.2,-1.9 3.1,-2.7 5.4,-3 9.7,-1.7 19.4,-0.7 29.1,-0.3 4.5,0.2 9,0 13.4,0.6 7.7,1 12.8,6.2 14.4,13.9 2.8,13.4 3.4,27 3.4,40.6 0,4.2 -0.4,8.4 -3.9,11.5 -2.3,2.1 -4.9,3 -7.9,3.2 -9.7,0.7 -19.3,1.7 -29,2.1 -5.9,0.3 -11.9,0.4 -17.8,-0.4 -5.9,-0.8 -10.4,-4 -11.3,-10.6 0,-0.3 -0.2,-0.5 -0.4,-1.1 -1.7,1.1 -3.3,2 -4.8,3.1 -4.6,3 -9.1,6 -13.7,9 -1.3,0.8 -1.5,1.8 -1.1,3.2 2.3,9.2 2.8,18.5 1,27.8 -1,5.1 -3.3,7.2 -8.4,7.9 -1.8,0.3 -3.7,0.3 -5.5,0.5 -8.8,1.2 -17.7,2.2 -26.6,2 -4.6,-0.1 -9.3,0.8 -14,0.9 -6.9,0 -12.6,-3.8 -13.8,-11.2 -1.8,-10.6 -2.6,-21.4 -2.5,-32.2 0.1,-4.1 0,-8.2 -0.3,-12.3 -0.5,-5.9 4,-10.5 9.6,-13.3 3.9,-2 8.2,-1.2 12.3,-1.5 4.3,-0.3 8.6,-0.5 12.8,-1.3 7.5,-1.5 15,-1.1 22.4,0.4 4.6,0.9 7.6,3.8 8.4,8.7 0.9,5.7 2.1,11.4 3.2,17.3 z m 54,-65.3 c 0,-0.2 0,-0.4 0,-0.6 -7.3,0.4 -14.7,0.7 -22,1.1 -1.8,0.1 -3,0.9 -4,2.3 -2.4,3.3 -3.8,6.9 -3.5,11.1 0.1,1.2 0,2.4 -0.1,3.6 -0.3,8.8 -0.9,17.6 -0.9,26.3 0,4.8 1,9.7 1.9,14.5 0.3,1.4 1.6,2.8 2.7,3.8 2.6,2.3 5.8,2.7 9.2,2.7 14.2,-0.1 28.3,-0.8 42.4,-2.3 4.1,-0.5 6.4,-2.5 7.2,-6.5 0.2,-1.2 0.5,-2.4 0.5,-3.6 0,-13.7 -0.5,-27.3 -3.4,-40.8 -1.3,-6.2 -5,-10 -11.3,-10.7 -6.2,-0.7 -12.4,-0.7 -18.7,-0.9 z M 36.1,166.7 c -0.2,10 1,19.8 2.4,29.6 0.8,5.7 4.7,8.7 10.3,8.6 4.7,-0.1 9.3,-1 14,-0.8 9,0.3 17.8,-0.9 26.6,-2 1.8,-0.2 3.5,-0.3 5.3,-0.5 2.7,-0.2 4.2,-1.8 4.8,-4.3 1.4,-6.1 1.5,-12.3 0.6,-18.4 -1.7,-10.8 -4.1,-21.5 -6.1,-32.3 -0.5,-2.9 -2.3,-4.7 -4.9,-5.2 -6.3,-1.4 -12.8,-2.1 -19.2,-0.8 -6.3,1.3 -12.6,2.2 -19,1.7 -5.1,-0.4 -9.5,1 -12.7,5 -1,1.3 -1.9,3.1 -2,4.7 -0.2,4.7 -0.1,9.7 -0.1,14.7 z m 44.4,-57.5 c 0,0.2 0,0.5 0,0.7 6.9,0 13.7,0 20.6,0 3.7,0 4.7,-0.6 6,-4.1 2.1,-5.5 2.6,-11.2 2.2,-16.9 -0.4,-6.4 -1,-12.7 -1.6,-19.1 -0.4,-4.2 -0.9,-8.3 -1.5,-12.4 -0.4,-2.5 -1.6,-4.5 -4.2,-5.1 -2.9,-0.7 -5.8,-1.6 -8.7,-1.7 -12.4,-0.4 -24.9,-0.5 -37.4,-0.7 -4.3,-0.1 -6.1,2.2 -5.9,6.5 0.2,4 0.4,8 0.3,12 -0.4,11.4 -0.6,22.8 0.6,34.2 0.4,4.2 2.2,6 6.4,6.5 1.1,0.1 2.3,0.2 3.4,0.2 6.6,-0.1 13.2,-0.1 19.8,-0.1 z"
   id="path2572" />
			<path
   d="m 150.3,142 c 3.5,0.2 6.6,0.3 9.8,0.5 1,0.1 2.3,0 3.1,0.6 0.7,0.4 1.2,1.6 1.1,2.4 0,0.5 -1.3,1.2 -2.1,1.2 -4.2,-0.1 -8.3,-0.5 -12.5,-0.6 -3.7,-0.1 -4.7,-1.3 -3.2,-4.8 2.4,-5.8 5.1,-11.5 7.7,-17.3 0.7,-1.7 1.5,-3.4 1.8,-5.2 0.2,-1.1 -0.3,-2.5 -0.9,-3.4 -0.9,-1.3 -2.2,-1 -3.1,0.3 -0.2,0.3 -0.4,0.7 -0.6,1.1 -0.5,1.3 -1.2,2.3 -2.7,1.6 -1.3,-0.6 -1.2,-1.9 -0.8,-3.1 1.2,-3.3 3.6,-4.8 6.9,-4.4 2.4,0.3 5.3,3.3 5.1,6 -0.3,2.9 -1.1,5.8 -2.2,8.5 -2.1,5.2 -4.6,10.3 -7,15.5 -0.1,0.2 -0.2,0.5 -0.4,1.1 z"
   id="path2574" />
			<path
   d="m 64.6,157.9 c -1.9,0.1 -3.5,0.2 -5.1,0.3 -0.8,0 -1.7,0.2 -2.3,-0.1 -0.6,-0.3 -1.4,-1.1 -1.4,-1.7 -0.1,-0.5 0.8,-1.6 1.3,-1.6 3.7,-0.4 7.3,-0.7 11,-0.7 1.9,0 2.6,1.8 1.4,3.6 -1,1.7 -2.2,3.2 -3.5,5.1 4,1 6.7,3.1 8.4,6.6 1.6,3.4 2.8,6.8 2.6,10.6 -0.3,4.9 -7.2,11.4 -12.1,11.1 -0.7,0 -1.7,-0.9 -1.8,-1.6 -0.3,-1.3 0.6,-2.2 1.9,-2.3 3.1,-0.2 4.9,-2.2 6.6,-4.4 1.4,-1.8 2.1,-3.8 1.4,-5.7 -1,-3 -2.3,-5.8 -3.9,-8.5 -1.1,-1.8 -3.1,-1.9 -5.1,-1.5 -0.9,0.2 -2.3,-0.1 -2.8,-0.7 -0.5,-0.6 -0.3,-2 0.1,-2.9 0.9,-1.8 2,-3.5 3.3,-5.6 z"
   id="path2576" />
			<path
   d="m 77.1,68.2 c -1.4,1.9 -2.4,3.3 -3.5,4.8 -0.8,1.1 -1.9,2 -2.9,0.9 -0.5,-0.5 -0.6,-2.2 -0.1,-2.9 1.8,-3 3.8,-5.8 5.9,-8.5 0.5,-0.7 1.8,-1.3 2.4,-1.1 0.8,0.3 1.6,1.5 1.7,2.3 0.4,3.5 0.6,7.1 0.9,10.6 0.4,6.1 0.7,12.2 1.1,18.2 0.1,1.3 0.2,2.8 -1.5,3 -1.9,0.3 -2.2,-1.3 -2.3,-2.6 -0.5,-7.5 -1,-15 -1.5,-22.5 0,-0.5 -0.1,-1.1 -0.2,-2.2 z"
   id="path2578" />
		</g>
	</g><g
   id="g2588">
		<g
   id="g2586">
			<path
   d="m 319.9,145 c 1.3,0.6 2.6,1.1 4,1.4 0.7,0.1 1.5,0.2 2.2,0.3 0.5,0 1,-0.1 1.4,-0.5 0.3,-0.3 0.5,-0.8 0.5,-1.3 -0.1,-0.8 -0.4,-1.5 -0.6,-2.2 -0.2,-0.7 -0.4,-1.4 -0.6,-2.1 -0.3,-0.8 -0.5,-1.7 -1.5,-2 -0.9,-0.2 -1.7,0.4 -2.3,0.9 -1.2,0.9 -2.1,2 -2.8,3.3 -0.3,0.6 -0.2,1.4 0.4,1.7 0.6,0.3 1.4,0.2 1.7,-0.4 0.2,-0.4 0.5,-0.8 0.7,-1.2 0,0 0.1,-0.1 0.1,-0.1 -0.2,0.2 0,0.1 0,0 0.1,-0.1 0.1,-0.2 0.2,-0.3 0.2,-0.2 0.3,-0.4 0.5,-0.5 0.2,-0.2 0.3,-0.3 0.5,-0.5 0.2,-0.2 -0.1,0.1 0.1,0 0.1,-0.1 0.2,-0.2 0.3,-0.2 0.1,-0.1 0.3,-0.1 0.3,-0.2 -0.1,0.1 -0.5,0 -0.4,0 -0.3,0 -0.4,-0.1 -0.6,-0.3 0.1,0.1 0,0 0,-0.1 0,0 0,0.1 0,0.1 0,0.1 0.1,0.3 0.1,0.4 0.4,1.1 0.7,2.3 1.1,3.4 0,0.1 0.1,0.3 0.1,0.4 0,0 0,0.1 0,0.1 0.1,0.1 0,-0.2 0,-0.1 0,0.2 0.1,-0.4 0.1,-0.4 0.1,-0.1 0.2,-0.1 0.4,-0.2 0.4,-0.2 0.5,-0.2 0.3,-0.2 -0.1,0 -0.3,0 -0.5,0 -0.3,0 -0.5,0 -0.8,-0.1 0.2,0 0,0 -0.1,0 -0.1,0 -0.3,0 -0.4,-0.1 -0.6,-0.1 -1.2,-0.3 -1.8,-0.5 -0.3,-0.1 -0.6,-0.2 -0.8,-0.3 -0.1,-0.1 0,0 0,0 -0.1,0 -0.2,-0.1 -0.3,-0.1 -0.2,-0.1 -0.3,-0.1 -0.5,-0.2 -0.6,-0.3 -1.4,-0.2 -1.7,0.4 -0.1,0.5 0,1.4 0.7,1.7 z"
   id="path2584" />
		</g>
	</g><g
   id="g2594">
		<g
   id="g2592">
			<path
   d="m 436,140.1 c 0.5,-0.8 1,-1.5 1.6,-2.3 0.1,-0.2 0.3,-0.4 0.4,-0.6 0.1,-0.1 0.1,-0.2 0.2,-0.3 0,-0.1 0.3,-0.3 0.1,-0.1 0,0 0,0 0.1,-0.1 -0.4,0.3 -0.8,0.4 -1.1,0.1 -0.1,-0.1 -0.1,-0.1 0,0 0,0 0.1,0 0.1,0.1 0.2,0.1 0.3,0.3 0.4,0.4 0.3,0.3 0.5,0.6 0.8,0.9 -0.2,-0.2 0,0.1 0.1,0.1 0.1,0.1 0.1,0.1 0.2,0.2 0.1,0.2 0.2,0.3 0.3,0.5 0.2,0.3 0.4,0.7 0.6,1 0.1,0.2 0.2,0.4 0.3,0.6 -0.1,-0.2 0,0 0,0.1 0,0.1 0.1,0.2 0.1,0.3 0.4,-0.5 0.8,-1.1 1.2,-1.6 -2.1,-0.2 -4.2,-0.4 -6.3,-0.6 -0.7,-0.1 -1.3,0.6 -1.3,1.3 0,0.7 0.6,1.2 1.3,1.3 2.1,0.2 4.2,0.4 6.3,0.6 0.8,0.1 1.5,-0.9 1.2,-1.6 -0.7,-1.9 -1.8,-3.7 -3.3,-5.1 -0.5,-0.5 -1.2,-0.9 -1.9,-0.7 -0.7,0.2 -1.1,0.9 -1.5,1.5 -0.6,0.9 -1.2,1.8 -1.9,2.7 -0.4,0.5 -0.1,1.4 0.4,1.7 0.5,0.4 1.2,0.2 1.6,-0.4 z"
   id="path2590" />
		</g>
	</g><g
   id="g2600">
		<g
   id="g2598">
			<path
   d="m 369,50.5 c 0.2,0.2 0.5,0.4 0.7,0.7 0.1,0.1 0.2,0.2 0.3,0.3 0.1,0.1 0.1,0.1 0.2,0.2 0,0 0.1,0.1 0.1,0.1 0.1,0.1 0.1,0.1 0,0 -0.1,-0.1 -0.1,-0.1 0,0 0,0 0,0 0,0.1 0,0.1 0.1,0.1 0.1,0.2 0.1,0.1 0.2,0.3 0.3,0.4 0.2,0.3 0.3,0.5 0.5,0.8 0.2,-0.6 0.5,-1.2 0.7,-1.8 -0.6,0.2 -1.2,0.4 -1.9,0.6 -0.1,0 -0.2,0 -0.3,0 -0.1,0 -0.4,0 0,0 -0.2,0 -0.3,0 -0.5,0.1 -0.1,0 -0.1,0 -0.2,0 -0.1,0 -0.3,0 0,0 0.1,0 0.1,0 0,0 0.1,0 0.2,0.1 0.3,0.1 0.2,0.2 0.4,0.5 0.3,0.7 0,0.2 0,0 0,0 0,-0.1 0.1,-0.1 0.1,-0.2 0.1,-0.2 0.1,-0.3 0.2,-0.5 0.1,-0.3 0.3,-0.7 0.4,-1 0.3,-0.7 0.6,-1.3 0.8,-2 -0.6,0.2 -1.2,0.5 -1.8,0.7 -0.3,-0.2 0,0 0,0 0.1,0.1 0.2,0.1 0.2,0.2 0.2,0.1 0.3,0.3 0.5,0.4 0.3,0.3 0.6,0.6 0.8,0.9 0,0 0.1,0.1 0.1,0.1 -0.1,-0.2 -0.1,-0.2 -0.1,-0.1 0.1,0.1 0.1,0.2 0.2,0.2 0.1,0.2 0.2,0.3 0.3,0.5 0.2,0.3 0.4,0.7 0.6,1.1 0.3,0.6 1.2,0.8 1.7,0.4 0.6,-0.4 0.7,-1.1 0.4,-1.7 -0.8,-1.7 -2.1,-3.2 -3.6,-4.4 -0.3,-0.2 -0.8,-0.2 -1.1,-0.1 -0.4,0.2 -0.6,0.4 -0.7,0.8 -0.3,0.8 -0.6,1.6 -1,2.3 -0.4,0.9 -1,1.9 -0.5,2.9 0.6,1.1 1.9,0.9 2.9,0.7 0.8,-0.1 1.5,-0.3 2.3,-0.6 0.4,-0.2 0.6,-0.3 0.8,-0.7 0.2,-0.4 0.1,-0.7 -0.1,-1.1 -0.6,-1.2 -1.5,-2.4 -2.5,-3.3 -0.5,-0.4 -1.3,-0.5 -1.8,0 -0.2,0.7 -0.3,1.5 0.3,2 z"
   id="path2596" />
		</g>
	</g><g
   id="g2692">
		<g
   id="g2606">
			<g
   id="g2604">
				<path
   d="m 803.8,38.4 c -4.4,0.9 -9.1,1.9 -13,4.3 -3.8,2.4 -5.6,6 -6,10.5 -0.2,2.9 0.1,5.9 0.3,8.8 0.2,3.1 0.4,6.3 0.6,9.4 0.4,6.2 0.8,12.4 1.3,18.6 1.9,24.9 4.2,49.8 6.8,74.7 0.7,6.3 0.8,13.2 3.6,19 2.3,4.7 7.8,7.5 12.8,8.1 1,0.1 1.9,-0.9 1.9,-1.9 0,-1.1 -0.9,-1.8 -1.9,-1.9 -4,-0.5 -8.1,-3 -9.8,-6.7 -2.2,-4.9 -2.3,-10.7 -2.9,-15.9 -1.2,-11.7 -2.4,-23.4 -3.5,-35.1 -2.2,-23.5 -4,-47 -5.4,-70.6 -0.3,-4.6 -1,-10.1 3.1,-13.3 3.6,-2.7 8.6,-3.6 12.9,-4.5 2.5,-0.4 1.5,-4 -0.8,-3.5 z"
   id="path2602" />
			</g>
		</g>
		<g
   id="g2612">
			<g
   id="g2610">
				<path
   d="m 810.2,191.8 c 6.2,0.1 12.1,-1.7 18,-3.1 3.1,-0.7 6.2,-1.3 9.4,-1.4 3.3,-0.2 6.5,-0.1 9.8,-0.1 13.2,-0.2 26.4,-1.2 39.5,-3 4.7,-0.6 11,-1.8 11.1,-7.7 0.1,-2.4 -3.7,-2.4 -3.8,0 0,1.7 -1.3,2.5 -2.7,3 -2.1,0.7 -4.4,1 -6.6,1.2 -6.2,0.8 -12.5,1.4 -18.7,1.9 -6.3,0.5 -12.5,0.7 -18.8,0.8 -6.1,0.1 -12.1,0 -18.2,1.3 -6.3,1.3 -12.5,3.6 -19,3.4 -2.4,-0.1 -2.4,3.7 0,3.7 z"
   id="path2608" />
			</g>
		</g>
		<g
   id="g2618">
			<g
   id="g2616">
				<path
   d="m 804.8,42 c 14.1,-2.6 28.4,-4.3 42.7,-4.9 7.1,-0.3 14.3,-0.4 21.4,-0.2 1.6,0 3.2,0 4.8,0.2 1.6,0.3 2.4,1.2 3,2.6 1.3,2.9 2.2,6.2 3.1,9.3 1.9,6.6 3.4,13.4 4.3,20.2 1,7 1.2,13.9 1.5,21 0.3,7.1 1.5,14.1 2.5,21.1 1.1,7 1.3,14.1 1.6,21.2 0.7,14.7 4.4,29.1 4.5,43.9 0,2.4 3.8,2.4 3.8,0 0,-7.2 -0.9,-14.4 -1.9,-21.6 -0.9,-6.1 -1.9,-12.2 -2.3,-18.4 -0.5,-7.4 -0.5,-14.9 -1.4,-22.3 -0.9,-7.2 -2.4,-14.2 -2.8,-21.5 -0.4,-7.3 -0.5,-14.6 -1.4,-21.8 -0.9,-7.1 -2.3,-14.1 -4.2,-21 -1,-3.4 -2,-6.9 -3.3,-10.2 -1,-2.8 -2.5,-5.3 -5.6,-6 -1.6,-0.4 -3.3,-0.3 -4.9,-0.4 -1.9,-0.1 -3.9,-0.1 -5.8,-0.1 -3.7,0 -7.5,0 -11.2,0.1 -16.6,0.4 -33.1,2.2 -49.3,5.2 -2.5,0.4 -1.5,4.1 0.9,3.6 z"
   id="path2614" />
			</g>
		</g>
		<g
   id="g2624">
			<g
   id="g2622">
				<path
   d="m 792.7,52.4 c 0,13.4 1,26.8 2,40.1 1.3,18 2.9,36.1 4.6,54.1 0.9,9.6 2,19.2 3.1,28.8 0.1,1 0.8,1.9 1.9,1.9 0.9,0 2,-0.9 1.9,-1.9 -2,-17.6 -3.8,-35.2 -5.3,-52.8 -1.5,-16.8 -2.8,-33.7 -3.7,-50.5 -0.3,-6.6 -0.7,-13.1 -0.7,-19.7 0,-2.5 -3.8,-2.5 -3.8,0 z"
   id="path2620" />
			</g>
		</g>
		<g
   id="g2630">
			<g
   id="g2628">
				<path
   d="m 795.5,54 c 9.1,-4.1 19.5,-5 29.3,-6 10.7,-1.1 21.3,-1.6 32,-2.1 5.2,-0.2 10.5,-1.7 15.7,-0.8 2.4,0.4 3.4,-3.2 1,-3.6 -4.8,-0.9 -9.5,0 -14.3,0.5 -5.5,0.5 -11,0.4 -16.4,0.8 -10.9,0.6 -21.9,1.6 -32.7,3.3 -5.7,0.9 -11.3,2.3 -16.5,4.7 -0.9,0.4 -1.1,1.8 -0.7,2.6 0.6,0.9 1.7,1 2.6,0.6 z"
   id="path2626" />
			</g>
		</g>
		<g
   id="g2636">
			<g
   id="g2634">
				<path
   d="m 871.3,43.8 c 2.9,7.1 3.9,14.7 4.7,22.3 0.8,8 1.6,16.1 2.4,24.1 1.6,16.1 3.2,32.3 5.1,48.4 1.1,9.2 2.3,18.3 3.5,27.4 0.1,1 1.4,1.6 2.3,1.3 1.1,-0.3 1.4,-1.3 1.3,-2.3 -4.4,-32.3 -7.5,-64.7 -10.7,-97.1 -0.8,-8.5 -1.7,-17.1 -5,-25.1 -0.4,-0.9 -1.2,-1.6 -2.3,-1.3 -0.9,0.3 -1.7,1.4 -1.3,2.3 z"
   id="path2632" />
			</g>
		</g>
		<g
   id="g2642">
			<g
   id="g2640">
				<path
   d="m 804.2,177.3 c 5.7,0 11.4,-0.9 17,-2.1 2.3,-0.5 4.4,-0.9 6.8,-1 2.2,-0.1 4.3,-0.1 6.5,-0.3 1.2,-0.1 2.3,-0.3 3.4,-0.6 0.8,-0.3 1.7,-0.7 2.5,-0.8 1.4,-0.2 2.9,0.1 4.3,0.1 1.6,0.1 3.3,0.1 4.9,0.1 6.5,0 12.9,-0.6 19.4,-1.2 6.9,-0.6 13.9,-1.2 20.4,-3.4 2.3,-0.8 1.3,-4.4 -1,-3.6 -5.8,2 -11.9,2.7 -18,3.2 -6.3,0.6 -12.7,1.1 -19.1,1.3 -3.1,0.1 -6.2,0 -9.3,-0.2 -1.1,-0.1 -2.2,0 -3.3,0.3 -1,0.3 -1.9,0.7 -2.9,0.9 -2,0.5 -4.3,0.3 -6.4,0.4 -2.2,0.1 -4.3,0.2 -6.5,0.6 -6.2,1.2 -12.4,2.5 -18.7,2.6 -2.4,-0.1 -2.4,3.7 0,3.7 z"
   id="path2638" />
			</g>
		</g>
		<g
   id="g2648">
			<g
   id="g2646">
				<path
   d="m 841.8,177.2 c 0.1,2.2 0.6,4.9 2.6,6.3 1.3,0.9 3,0.7 4.5,0.4 1.4,-0.3 2.9,-0.6 4.3,-1 0.6,-0.1 1.2,-0.7 1.3,-1.3 0.3,-1.6 0.6,-3.3 0,-4.9 -0.7,-1.8 -2.2,-3 -4,-3.4 -2.9,-0.8 -6.3,0.2 -8.1,2.6 -0.4,0.4 -0.6,0.8 -0.6,1.3 0,0.5 0.2,1 0.5,1.3 0.7,0.6 2,0.8 2.7,0 0.2,-0.2 0.3,-0.4 0.5,-0.6 0.1,-0.1 0.2,-0.2 0.3,-0.3 0.1,-0.1 0.1,-0.1 -0.1,0.1 0.1,-0.1 0.1,-0.1 0.2,-0.1 0.2,-0.1 0.4,-0.3 0.6,-0.4 0.1,-0.1 0.2,-0.1 0.3,-0.2 -0.3,0.2 -0.2,0.1 0,0 0.2,-0.1 0.5,-0.2 0.7,-0.2 0,0 0.4,-0.1 0.4,-0.1 -0.3,0 -0.3,0 -0.1,0 0.1,0 0.1,0 0.2,0 0.3,0 0.5,0 0.8,0 0,0 0.1,0 0.1,0 0.2,0 0.2,0 -0.1,0 0,0 0.4,0.1 0.4,0.1 0.2,0.1 0.5,0.1 0.7,0.2 0.4,0.1 -0.3,-0.2 0,0 0.1,0.1 0.3,0.1 0.4,0.2 0.1,0 0.2,0.1 0.2,0.2 -0.2,-0.1 -0.2,-0.2 -0.1,-0.1 0.1,0.1 0.2,0.2 0.3,0.3 0.1,0.1 0.1,0.1 -0.1,-0.1 0,0.1 0.1,0.1 0.1,0.2 0.2,0.4 0,-0.2 0.1,0.1 0,0.1 0.1,0.3 0.1,0.4 0,0 0,0.1 0,0.1 0,0.2 0,0.2 0,-0.1 0,0 0,0.4 0,0.4 0,0.1 0,0.3 0,0.4 0,0.1 0,0.3 0,0.4 0,0.4 0.1,-0.3 0,0.1 -0.1,0.3 -0.1,0.7 -0.2,1 0.4,-0.4 0.9,-0.9 1.3,-1.3 -1.2,0.3 -2.5,0.6 -3.7,0.8 -0.3,0.1 -0.5,0.1 -0.8,0.2 -0.1,0 -0.4,0.1 -0.5,0.1 0.1,0 0.1,0 0.2,0 -0.1,0 -0.2,0 -0.2,0 -0.1,0 -0.3,0 -0.4,0 -0.1,0 -0.2,0 -0.2,0 -0.1,0 -0.1,0 0.1,0 0,0 -0.5,-0.2 -0.2,0 0.2,0.1 -0.1,-0.1 -0.1,-0.1 -0.2,-0.1 0.3,0.3 0.1,0.1 0,-0.1 -0.1,-0.2 -0.2,-0.2 0.1,0.1 0.2,0.4 0.1,0.1 0,-0.1 -0.1,-0.2 -0.1,-0.2 -0.1,-0.1 -0.1,-0.2 -0.1,-0.3 -0.2,-0.3 0.1,0.3 0,0.1 -0.1,-0.2 -0.1,-0.4 -0.2,-0.6 -0.1,-0.4 -0.2,-0.8 -0.3,-1.3 0,-0.1 -0.1,-0.4 0,-0.1 0.1,0.3 0,0 0,-0.1 0,-0.2 0,-0.4 0,-0.6 0,-1 -0.8,-1.9 -1.9,-1.9 -0.9,0.2 -1.9,1 -1.8,2 z"
   id="path2644" />
			</g>
		</g>
		<g
   id="g2654">
			<g
   id="g2652">
				<path
   d="m 806.5,91.9 c 1.5,7.6 3.4,15.1 5.5,22.6 1.1,3.7 2.2,7.4 3.4,11.1 0.5,1.5 0.9,3.1 1.9,4.4 1,1.3 2.5,2.1 4.1,2.4 3.5,0.6 6.6,-1.2 10,-1.9 3.5,-0.7 7.1,-0.3 10.6,-0.4 3.9,0 7.9,-0.3 11.8,-0.7 3.3,-0.3 7.4,0 9.9,-2.6 2.2,-2.3 2.7,-5.8 3.4,-8.8 0.9,-3.8 1.6,-7.6 2.3,-11.4 0.7,-3.8 1.3,-7.6 1.8,-11.4 0.4,-3.4 0.7,-6.8 -0.3,-10.1 -1.7,-6.2 -7.3,-10 -12.6,-13.1 -3.1,-1.8 -6.2,-3.5 -9.5,-4.7 -3.5,-1.3 -7.2,-1.6 -11,-1.5 -7.4,0.2 -14.9,1.9 -20.7,6.8 -2.8,2.4 -5.2,5.4 -7.1,8.5 -1.9,3 -3.5,6.4 -3.7,10 -0.1,2.4 3.6,2.4 3.8,0 0.2,-2.8 1.6,-5.5 3,-7.8 1.5,-2.5 3.3,-4.8 5.3,-6.8 4.3,-4.3 10.1,-6.2 16.1,-6.8 3.1,-0.3 6.4,-0.4 9.5,0.1 3.2,0.6 6.1,1.9 9,3.4 4.7,2.5 10.2,5.3 13.1,9.9 3.3,5.4 1.3,12.7 0.3,18.5 -0.6,3.5 -1.2,7 -2,10.5 -0.6,3.1 -1.2,6.3 -2.1,9.3 -0.3,1.1 -0.8,2.3 -1.7,3 -1.2,0.9 -3,0.8 -4.4,0.9 -3.6,0.3 -7.2,0.6 -10.8,0.8 -3.3,0.1 -6.7,0 -10,0.1 -1.6,0 -3.2,0.2 -4.8,0.5 -1.7,0.3 -3.3,1 -5,1.5 -1.3,0.4 -2.9,0.7 -4.2,0.2 -1.4,-0.6 -1.8,-2.2 -2.2,-3.5 -1.2,-3.7 -2.4,-7.4 -3.4,-11.1 -2.2,-7.6 -4.1,-15.3 -5.6,-23.1 -0.6,-2.2 -4.2,-1.2 -3.7,1.2 z"
   id="path2650" />
			</g>
		</g>
		<g
   id="g2660">
			<g
   id="g2658">
				<path
   d="m 813.4,91 c 0.5,2.2 1.2,4.3 2.1,6.4 0.7,1.8 1.6,4.3 4,4.2 1,0 2,-0.6 3,-1 1.1,-0.5 2.2,-1 3.4,-1.5 2,-0.9 4,-1.8 6.1,-2.5 8.1,-2.8 16.9,-2.2 24.5,1.8 1.1,0.6 2.3,0 2.8,-1.1 1,-2.6 1.9,-5.1 2.7,-7.7 0.7,-2.2 2.3,-5.2 1.3,-7.4 -0.9,-2.1 -3.7,-2.9 -5.6,-3.7 -2.4,-1.1 -4.9,-2.2 -7.4,-3.1 -4.9,-1.7 -10.3,-2.7 -15.5,-2.4 -4.8,0.3 -8.7,2.7 -12.4,5.6 -3.9,3 -7.5,6.7 -8.8,11.6 -0.6,2.3 3,3.3 3.6,1 0.9,-3.5 3.4,-6.2 6.1,-8.5 2.8,-2.4 6.3,-5 10,-5.7 4.2,-0.8 9,0 13.1,1.1 4.4,1.2 8.7,3.1 12.7,5.2 1,0.5 0.8,0.6 0.5,1.7 -0.4,1.2 -0.8,2.5 -1.1,3.7 -0.8,2.6 -1.7,5.2 -2.7,7.7 0.9,-0.4 1.8,-0.7 2.8,-1.1 -7.2,-3.9 -15.7,-5.1 -23.7,-3.2 -4.2,0.9 -8.1,2.8 -11.9,4.5 -0.9,0.4 -2.2,0.7 -2.9,1.3 -0.5,0.1 -0.5,0.2 0.2,0.4 -0.1,-0.1 -0.2,-0.3 -0.2,-0.4 -0.1,-0.4 -0.4,-0.8 -0.6,-1.2 -0.9,-2.1 -1.6,-4.2 -2.1,-6.4 -0.9,-2.6 -4.6,-1.7 -4,0.7 z"
   id="path2656" />
			</g>
		</g>
		<g
   id="g2666">
			<g
   id="g2664">
				<path
   d="m 836.8,92.2 c 0.5,-3.5 1.3,-6.9 2.3,-10.2 -1.2,0 -2.4,0 -3.6,0 1.3,3.5 2.5,7 3.8,10.5 0.3,0.9 1.3,1.6 2.3,1.3 0.9,-0.3 1.7,-1.3 1.3,-2.3 -1.3,-3.5 -2.5,-7 -3.8,-10.5 -0.3,-0.8 -0.9,-1.4 -1.8,-1.4 -0.8,0 -1.6,0.6 -1.8,1.4 -1,3.3 -1.8,6.8 -2.3,10.2 -0.1,1 0.2,2.1 1.3,2.3 0.9,0.2 2.2,-0.2 2.3,-1.3 z"
   id="path2662" />
			</g>
		</g>
		<g
   id="g2672">
			<g
   id="g2670">
				<path
   d="m 899.1,131.5 c -0.4,2.3 -0.6,4.6 -0.7,6.9 -0.1,2.1 0.5,3.9 2.8,4.3 2.3,0.4 4.7,0.3 7,0.5 2.4,0.1 4.8,0.3 7.2,0.4 9.6,0.5 19.2,0.9 28.8,1.1 2.4,0.1 4.8,0.1 7.2,0.1 2.2,0 4.3,0 5.4,-2.2 0.9,-1.9 1.1,-4.3 1.4,-6.3 0.2,-1.9 0.4,-4 -1.1,-5.5 -1.4,-1.3 -3.5,-1.4 -5.3,-1.6 -2.5,-0.3 -4.9,-0.6 -7.4,-0.9 -4.7,-0.5 -9.4,-0.9 -14,-1.1 -5.3,-0.3 -10.6,-0.3 -15.9,-0.2 -4.8,0.1 -9.7,0.6 -14,2.9 -2.1,1.2 -0.2,4.4 1.9,3.2 3.2,-1.7 6.8,-2.2 10.3,-2.3 4,-0.2 8,-0.1 12,0 8.2,0.2 16.5,0.8 24.6,1.8 1,0.1 2,0.3 2.9,0.4 0.6,0.1 1.5,0.1 2,0.4 0.5,0.3 0.4,0.8 0.3,1.3 -0.1,1 -0.2,2.1 -0.4,3.1 -0.1,0.7 -0.3,1.5 -0.5,2.2 -0.2,0.9 -0.1,1.1 -1.1,1.1 -2.1,0 -4.3,-0.1 -6.5,-0.1 -8.3,-0.2 -16.5,-0.5 -24.8,-0.8 -4.6,-0.2 -9.3,-0.5 -13.9,-0.7 -1.2,-0.1 -2.3,-0.1 -3.5,-0.2 -0.5,0 -1,-0.1 -1.5,-0.1 -0.2,0 -0.5,0 -0.7,0 0.2,0.5 0.3,0.5 0.3,0.1 0.1,-0.3 0,-1.1 0,-1.4 0,-0.6 0.1,-1.3 0.1,-1.9 0.1,-1.1 0.2,-2.2 0.4,-3.3 0.7,-2.5 -2.9,-3.5 -3.3,-1.2 z"
   id="path2668" />
			</g>
		</g>
		<g
   id="g2678">
			<g
   id="g2676">
				<path
   d="m 909.1,127.6 c 0,-5.3 0,-10.6 0.1,-15.9 0,-5.1 -0.1,-10.2 0.1,-15.4 0.2,-4.5 0.8,-9 2.7,-13.1 1.6,-3.4 3.9,-6.3 6.7,-8.8 5.5,-4.8 12.9,-7.4 20.1,-6.7 0.7,0.1 1.7,0.1 2,0.8 0.4,0.9 0.3,2.3 0.4,3.2 0.2,2.6 0.4,5.3 0.6,7.9 0.4,5.2 0.8,10.4 1.3,15.6 0.5,5.8 0.9,11.7 1.4,17.5 0.4,5.2 1.1,10.9 -1,15.8 -0.4,0.9 -0.3,2 0.7,2.6 0.8,0.5 2.2,0.3 2.6,-0.7 2.1,-4.8 2.1,-10 1.7,-15.2 -0.4,-5.6 -0.9,-11.2 -1.4,-16.9 -0.5,-5.7 -0.9,-11.4 -1.4,-17 -0.2,-2.8 -0.5,-5.6 -0.7,-8.4 -0.2,-2.3 0.1,-5.4 -1.5,-7.2 -1.5,-1.7 -4,-1.8 -6.1,-1.9 -2,-0.1 -4.1,0.1 -6.1,0.5 -4,0.7 -7.9,2.3 -11.4,4.5 -7.4,4.7 -12.4,12.2 -13.8,20.9 -1,6.1 -0.7,12.3 -0.8,18.5 0,6.5 -0.1,12.9 -0.1,19.4 0.1,2.4 3.9,2.4 3.9,0 z"
   id="path2674" />
			</g>
		</g>
		<g
   id="g2684">
			<g
   id="g2682">
				<path
   d="m 922.2,78.2 c -2.9,4.1 -5.3,8.5 -7.1,13.2 -1.7,4.4 -2.9,9.4 -2.3,14.2 0.3,2.2 1.2,4.5 3.4,5.5 1.9,0.9 4.2,0.5 5.9,-0.6 4.3,-2.8 4,-8.7 4.3,-13.3 0.3,-6.2 1,-12.5 -0.8,-18.5 -0.7,-2.3 -4.3,-1.3 -3.6,1 1.2,4.4 1.1,8.9 0.9,13.4 -0.1,2.3 -0.3,4.6 -0.4,7 -0.1,1.9 -0.1,3.9 -1,5.7 -0.6,1.2 -1.8,2.4 -3.3,2.2 -1.5,-0.2 -1.7,-2.2 -1.8,-3.4 -0.2,-4.1 0.8,-8.2 2.2,-12 1.7,-4.4 4.1,-8.5 6.7,-12.3 1.5,-2.2 -1.7,-4.1 -3.1,-2.1 z"
   id="path2680" />
			</g>
		</g>
		<g
   id="g2690">
			<g
   id="g2688">
				<path
   d="m 932,66 c 0.5,-2.4 0.8,-4.9 0.9,-7.4 -0.6,0.6 -1.3,1.3 -1.9,1.9 1.5,0 3.1,0 4.6,-0.1 0.8,0 1.5,0 2.3,0 0.4,0 0.8,0 1.3,0 0.1,0 0.3,0 0.4,0 -0.3,0 0.2,0.2 -0.1,-0.1 -0.1,0 -0.2,-0.1 -0.2,-0.1 -0.1,-0.1 0,-0.1 0,0 0,0 0.2,0.4 0.1,0.2 0.1,0.3 0.3,0.7 0.4,1 0.2,0.7 0.5,1.3 0.6,2 0.4,1.4 0.6,2.7 0.7,4 0.1,1 0.8,1.9 1.9,1.9 1,0 2,-0.9 1.9,-1.9 -0.1,-1.7 -0.4,-3.5 -0.9,-5.1 -0.2,-0.8 -0.5,-1.7 -0.8,-2.5 -0.3,-0.8 -0.6,-1.7 -1.3,-2.3 -1.4,-1.3 -3.6,-0.8 -5.3,-0.8 -1.8,0 -3.6,0 -5.5,0.1 -1.1,0 -1.8,0.9 -1.9,1.9 -0.1,2.2 -0.4,4.3 -0.8,6.4 -0.2,1 0.3,2 1.3,2.3 0.9,0.2 2.1,-0.4 2.3,-1.4 z"
   id="path2686" />
			</g>
		</g>
	</g>
<g
   aria-label="PEHD"
   transform="matrix(0.94114539,0.40256065,-0.45910785,0.86615868,-3.6403753,2.4269169)"
   id="text3253"
   style="font-size:33.5044px;stroke-width:2.79203"><path
     d="m 612.28364,-146.65843 h -0.0335 q 0,-0.067 0.0335,-0.13402 0.0335,-0.067 0.0335,-0.13402 0,-0.067 0,-0.10051 0.0335,-0.067 0.0335,-0.13402 h 0.0335 q 0.33504,-0.83761 1.07214,-0.93812 h 0.20103 q 1.47419,0 3.45095,1.34018 1.34017,0.90461 2.14428,2.44582 0.80411,1.5412 0.80411,3.24992 0,1.13915 -0.36855,2.07728 -0.33505,0.90462 -0.93813,1.67522 -0.56957,0.7706 -1.34017,1.44069 -0.7706,0.63658 -1.64172,1.23966 l -0.63658,0.43556 q -0.067,0.26803 -0.067,1.60821 v 1.97676 l 0.067,3.88651 q -0.70359,0.73709 -1.30667,0.73709 -0.50257,0 -0.80411,-0.36855 -0.30154,-0.36854 -0.36855,-0.8041 -0.0335,-0.26804 -0.10051,-1.97676 -0.0335,-1.70872 -0.0335,-4.5566 0,-0.67009 -0.0335,-1.30667 0,-0.63658 0,-1.20616 0,-3.61847 -0.10051,-4.92515 -0.067,-1.50769 -0.10051,-2.71385 -0.0335,-1.20616 -0.0335,-2.07727 0,-0.23453 0,-0.40206 0,-0.16752 0.0335,-0.33504 z m 2.44582,2.34531 q 0.067,0.67008 0.067,1.37368 0.0335,0.67009 0.0335,1.34017 0,0.30154 0,0.56958 0,0.26803 0.0335,0.46906 0.10052,0.7706 0.10052,1.44069 0,0.67009 0,1.13915 0,0.46906 0,0.63658 0,0.16752 -0.0335,0.40205 1.03864,-0.67008 1.84274,-1.70872 0.80411,-1.07214 0.80411,-2.2783 0,-3.18292 -2.88138,-4.45608 v 0.43555 q 0,0.10052 0,0.26804 0,0.13402 0.0335,0.36855 z"
     style="font-weight:bold;font-family:PreciousPlastic;-inkscape-font-specification:'PreciousPlastic, Bold'"
     id="path3499" /><path
     d="m 622.03341,-143.47551 q 0,-2.71386 0.13402,-2.98189 0.36855,-0.56958 0.93812,-0.63659 0.56957,-0.10051 1.57471,-0.10051 h 0.23453 q 0.20102,-0.0335 0.43555,-0.0335 0.23454,0 0.50257,0 h 0.53607 q 0.36855,0 0.7371,0.0335 0.36855,0 0.63658,0.13402 0.30154,0.13401 0.46906,0.40205 0.20103,0.26803 0.20103,0.7371 h 0.067 q -0.23453,0.40205 -0.67009,0.63658 -0.43556,0.23453 -0.93812,0.33504 -0.50257,0.10052 -1.03864,0.13402 -0.50257,0 -0.93812,0 -0.13402,0 -0.26804,0.0335 -0.13402,0 -0.26803,0 l 0.0335,3.31693 q 0.0335,1.40719 0.067,2.41232 0.0335,0.97163 0.0335,1.47419 v 0.30154 q 1.60822,0.0335 1.60822,1.17265 0,0.7036 -0.50257,1.00514 -0.46906,0.26803 -1.03864,0.30154 v 0.53607 q -0.0335,0.16752 -0.0335,0.36854 0,0.16753 0,0.43556 0,0.80411 0,1.67522 0.0335,0.83761 0.10051,1.80924 0.0335,0.36855 0,0.70359 0,0.33505 0.067,0.53607 0.0335,0.10052 0.0335,0.30154 0.16752,0.0335 0.40205,0.067 0.26803,0 0.63658,0 1.5412,0 2.01027,0.20103 0.50256,0.20102 0.50256,0.87111 v 0.067 q 0,0.36855 -0.50256,1.27317 l -2.34531,-0.0335 h -0.30154 q -0.90462,0 -1.37368,0 -0.46906,-0.0335 -0.7371,-0.10051 -0.23453,-0.067 -0.33504,-0.23453 -0.10052,-0.20103 -0.23453,-0.50257 -0.067,-0.16752 -0.13402,-1.34017 -0.0335,-1.17266 -0.10051,-2.84788 -0.0335,-1.70872 -0.10052,-3.68548 -0.0335,-1.97676 -0.067,-3.75249 0,-1.80924 -0.0335,-3.18292 0,-1.37368 0,-1.84274 z"
     style="font-weight:bold;font-family:PreciousPlastic;-inkscape-font-specification:'PreciousPlastic, Bold'"
     id="path3501" /><path
     d="m 630.40949,-126.6228 v -9.38123 q 0,-3.85301 0.0335,-6.16481 0.0335,-2.34531 0.10052,-3.18292 l -0.067,-0.0335 0.10051,-0.30154 q 0.0335,-0.0335 0.0335,-0.13402 l 0.0335,0.0335 q 0.33504,-0.63658 0.97163,-0.63658 0.67009,0 0.97163,0.67009 0.20102,0.43556 0.20102,4.38907 v 3.21643 h 4.18805 v -0.60308 q 0,-0.43556 -0.067,-1.37368 -0.067,-0.93813 -0.13401,-2.44582 -0.067,-1.20616 -0.10052,-1.74223 -0.0335,-0.36855 -0.067,-0.56958 0,-0.23453 0,-0.30154 0,-0.46906 0.20103,-0.97162 0.23453,-0.50257 0.90462,-0.50257 0.53607,0 0.90462,0.46906 0.36855,0.46906 0.67009,6.26532 0.13401,2.61335 0.23453,4.69062 0.13401,2.04377 0.20102,3.65198 0.10052,2.11078 0.16752,3.31693 0.067,1.20616 0.067,1.57471 v 0.13402 q 0,0.26803 -0.0335,0.33504 v 0.10052 q -0.30154,0.8041 -0.97163,0.8041 -0.30154,0 -0.53607,-0.16752 -0.23453,-0.16752 -0.40205,-0.40205 -0.16752,-0.26804 -0.26804,-0.53607 -0.10051,-0.30154 -0.16752,-0.53607 -0.067,-0.40206 -0.10051,-1.40719 -0.0335,-1.00513 -0.067,-2.51283 -0.0335,-1.27317 -0.067,-2.37881 -0.0335,-1.10565 -0.10051,-2.37881 h -4.45609 l -0.0335,3.98702 q -0.067,4.95865 -0.30154,5.29369 -0.20103,0.26804 -0.43556,0.36855 -0.20103,0.067 -0.53607,0.067 -0.40205,-0.0335 -1.07214,-0.70359 z"
     style="font-weight:bold;font-family:PreciousPlastic;-inkscape-font-specification:'PreciousPlastic, Bold'"
     id="path3503" /><path
     d="m 643.71077,-147.69707 q 1.90975,0 3.45095,0.97163 1.54121,0.97163 2.61335,2.47933 0.67008,1.03863 1.07214,2.17778 0.43555,1.10565 0.67008,2.2783 0.23454,1.13915 0.30154,2.34531 0.067,1.20616 0.067,2.41232 0,1.07214 -0.0335,1.80923 -0.0335,0.7036 -0.10051,1.03864 -0.33505,1.40718 -0.93813,2.57984 -0.56957,1.17265 -1.44069,2.01026 -0.87111,0.80411 -2.04376,1.27317 -1.17266,0.46906 -2.68036,0.46906 h -0.23453 q -1.40718,-0.0335 -1.67522,-1.07214 -0.10051,-0.40205 -0.13402,-1.44069 -0.0335,-1.03864 -0.10051,-2.64685 -0.0335,-1.07214 -0.067,-2.41231 0,-1.34018 -0.16752,-2.94839 -0.0335,-0.53607 -0.10051,-2.14428 0,-1.07214 -0.0335,-2.14428 -0.0335,-1.07214 -0.10051,-2.14429 -0.10051,-2.07727 -0.10051,-2.98189 0,-0.60308 0.067,-0.97162 0.067,-0.36855 0.23453,-0.56958 0.20102,-0.23453 0.53607,-0.30154 0.36855,-0.067 0.93812,-0.067 z m 0.53607,2.57984 q 0.16752,0.90462 0.20103,3.0154 0.0335,1.03863 0.067,2.2783 0.0335,1.20615 0.067,2.61334 0.0335,1.40718 0.0335,2.17779 0.0335,0.7706 0.0335,0.93812 0.067,2.01026 0.16753,3.48446 0.10051,1.47419 0.20102,2.3453 1.70873,-0.43555 2.71386,-1.37368 1.03863,-0.97162 1.5747,-2.68035 0.20103,-0.67009 0.20103,-2.91488 0,-1.37368 -0.23453,-2.98189 -0.20103,-1.64172 -0.80411,-3.08241 -0.56957,-1.47419 -1.60821,-2.54633 -1.00513,-1.10565 -2.64684,-1.44069 0,0.067 0,0.10051 0.0335,0.0335 0.0335,0.067 z"
     style="font-weight:bold;font-family:PreciousPlastic;-inkscape-font-specification:'PreciousPlastic, Bold'"
     id="path3505" /></g></svg>
