<?xml version="1.0" encoding="UTF-8" standalone="no"?>
<svg
   xmlns:dc="http://purl.org/dc/elements/1.1/"
   xmlns:cc="http://creativecommons.org/ns#"
   xmlns:rdf="http://www.w3.org/1999/02/22-rdf-syntax-ns#"
   xmlns:svg="http://www.w3.org/2000/svg"
   xmlns="http://www.w3.org/2000/svg"
   version="1.1"
   id="Calque_1"
   x="0px"
   y="0px"
   viewBox="0 0 1000 666"
   style="enable-background:new 0 0 1000 666;"
   xml:space="preserve"><metadata
   id="metadata122"><rdf:RDF><cc:Work
       rdf:about=""><dc:format>image/svg+xml</dc:format><dc:type
         rdf:resource="http://purl.org/dc/dcmitype/StillImage" /><dc:title></dc:title></cc:Work></rdf:RDF></metadata><defs
   id="defs120">
	
	
	
</defs>
<style
   type="text/css"
   id="style2">
	.st0{fill:#1E1E1C;}
	.st1{fill:#1E1E1C;stroke:#1E1E1C;stroke-width:0.25;stroke-miterlimit:10;}
	.st2{fill:#1E1E1C;stroke:#1E1E1C;stroke-width:0.15;stroke-miterlimit:10;}
</style>

<g
   id="g1068"><g
     id="g68">
	<g
   id="Calque_1_1_">
		<path
   id="path4"
   d="M643.2,139c0-3.6-0.6-7.2-1.8-10.5c-0.8-1.4-2.6-1.9-4-1.1c-1,0.4-2,0.9-3,1.4c-4.5-8.1-8.9-16.1-13.4-24.2    c-3.3-6.1-8.4-16-16.7-15.7c-7.5,0.4-12.3,10.1-15.9,15.5c-5.2,7.8-9.8,15.9-13.7,24.4c-1.9,3.8,4,7.4,5.7,3.3    c3.1-6.7,6.5-13.1,10.4-19.3c2-3.3,4.1-6.4,6.3-9.6c1.6-2.2,4-7.1,7-7.7c3-0.6,6.4,4.5,8,6.8c2.1,3.2,3.8,6.5,5.6,9.8l11.2,20.2    l-1.2,0.8c-1.2,0.4-2.1,1.3-2.6,2.5c-0.7,1.8,0.1,3.9,1.8,4.8c3.2,2.5,6.6,4.9,10,7.2c1.7,1.1,4.2,2.2,5.9,0.3    C644.6,146,643.4,141.4,643.2,139z"
   class="st0" />
		<path
   id="path6"
   d="M670.3,192.4c-3.8-8.9-8.5-17.3-12.7-25.9c-1.9-3.8-7.6-0.5-5.7,3.3c3.4,6.8,6.8,13.7,10.1,20.5    c1.8,3.1,3.2,6.5,4.1,10c0.5,1.6,0.5,3.3,0,4.9c-0.8,1.6-2.6,1.8-4.2,2.2c-12.4,3.2-25.2,5-38,5.4c-0.1,0-0.3,0-0.4,0l-0.2-2.5    c0.3-1.3-0.1-2.6-0.9-3.6c-1.3-1.5-3.5-1.9-5.2-0.9c-4.2,1.5-8.3,3.3-12.2,5.4c-1.7,0.9-3.5,2.7-2.5,4.9c1,2.1,5.9,4,8.3,5.1    c3,1.7,6.2,3,9.6,3.6c2,0,2.7-1.2,3-3c0.1-0.8,0.2-1.7,0.2-2.5h0.2c7.7-0.1,15.3-0.8,22.9-2c3.7-0.7,7.4-1.4,11.1-2.3    c3.9-0.4,7.7-1.6,11.1-3.4C675.3,207.4,672.8,198.1,670.3,192.4z"
   class="st0" />
		<path
   id="path8"
   d="M572.8,209.8c-6.7,0.1-13.4-0.4-20-1.5c-3-0.3-5.9-0.8-8.9-1.5c-3.2-0.9-3.3-3-2.1-5.7c2.8-5.6,6-11,9.5-16.2    c3.4-5.7,6.7-11.3,10.1-16.9l1.5,0.6c0.9,0.7,2.1,1,3.3,0.9c2.3-0.3,3.2-2,3.4-4.1c0.3-4.1,0.3-8.2,0.2-12.3c0-1.9-0.3-4.4-2.6-5    c-2.3-0.5-5.2,2.3-7,3.7c-3.3,2.2-6.2,4.9-8.7,8c-0.9,1.2-0.7,3,0.6,3.9c0.1,0.1,0.3,0.2,0.4,0.3c0.8,0.6,1.7,1.1,2.6,1.5    c-4.1,6.9-8.2,13.7-12.3,20.7c-3.2,5.4-9.3,12.5-8.5,19.4s8.1,7.9,13.7,8.9c8.1,1.5,16.3,2.2,24.5,2.2    C576.9,216.3,577,209.7,572.8,209.8z"
   class="st0" />
		<path
   id="path10"
   d="M610.6,164.6c-0.6-0.6-1.9-1.8-3.8-3.4l-1.3-1.1l-0.8-0.7l0.8-0.9c2.5-3,3.8-6.8,3.7-10.6    c0-1.1-0.1-2.3-0.3-3.4c-0.2-3.3-2-6.2-4.8-7.8c-1.2-0.5-2.5-0.8-3.8-0.8c-0.7,0-1.4,0.1-2.1,0.3c-1.7,0.6-2.6,1.6-2.6,2.8    c0,0.6,0.3,1.2,0.9,1.5c0.7,0.4,1.6,0.5,2.5,0.3c0.6-0.2,1.3-0.3,1.9-0.3c0.9,0,3.5,0,3.5,7.4c0.1,1.4,0,2.9-0.4,4.3    c-0.6,2-1.9,3.8-3.7,4.9c-1.6,1-2.3,1.9-2.3,3c0,1,1,2,3.4,3.3c5.1,2.1,8.4,7.1,8.3,12.6c0.4,5-2.8,9.7-7.7,11.1    c-1.3,0.3-2.6,0.5-4,0.4c-2.6,0-3.3,0.3-3.7,0.7c-0.8,0.8-0.9,2-0.1,2.8c0,0,0.1,0.1,0.1,0.1c0.6,0.7,1.4,1.2,2.3,1.2h2.6    c1.6,0,3.2-0.4,4.6-1.1h0.1c3-1.3,5.6-3.2,7.7-5.7c1.8-2.7,2.6-5.8,2.4-9C614.6,172.1,613.3,167.9,610.6,164.6z"
   class="st1" />
		<path
   id="path12"
   d="M576,234.6c-2.1-1.7-4.7-2.7-7.3-3h-0.5c-1.1,0.2-2,1.1-2.1,2.2c-0.1,0.7-0.1,1.5,0,2.2c0,2.6,0,6.1,0.3,10.5    c0,2.6,0.2,8.1,0.3,16.4c0.1,13.5,0.2,14.1,0.3,14.4c0.1,0.6,0.3,1.1,0.7,1.5c0.4,0.4,1,0.7,1.5,0.7c0.8-0.1,1.6-0.4,2.2-1.1    l0.3-0.4v-8.4v-4.2c0-3,0-3.6,0-3.6c0.5-0.5,1-0.9,1.6-1.2c1.1-0.7,2.2-1.5,3.3-2.4c1.6-1.2,3-2.7,4.1-4.4    c0.9-1.5,1.5-3.1,1.8-4.8c0.1-0.8,0.2-1.5,0.2-2.3c0-2.4-0.6-4.8-1.7-6.9C579.8,237.7,578.1,235.9,576,234.6z M577.7,247.2    c0,0.6-0.1,1.3-0.2,1.9c-0.7,2.3-2.1,4.4-4,5.9l-2.1,1.6c0-1.4-0.2-3.8-0.4-8.4c0-1.2,0-3-0.2-5.3c-0.2-2.4,0-3.9-0.2-4.3v-1.7    h0.4c3,1.2,5.2,3.6,6.2,6.6C577.6,244.6,577.8,245.9,577.7,247.2z"
   class="st0" />
		<path
   id="path14"
   d="M614.9,238.4c-0.3,0.6-0.6,1.3-0.7,2c-0.4,1.6-0.8,3.1-1.3,4.6c-4.1,13.4-6.9,22.3-8.4,26.6    c-0.5-1.4-1.5-4-3.4-8.9c-8.7-23.2-9.2-23.6-9.5-24c-0.4-0.5-1-0.8-1.7-0.8c-1.1,0-2,0.8-2.1,1.9c0,0.1,0,0.2,0,0.3    c0.2,1.3,0.6,2.5,1.2,3.7c0.2,0.5,0.6,1.5,1.1,3l1.1,3c2.7,7.7,5.3,14.5,7.7,20.3c3.7,8.9,4.2,9.5,4.6,9.8    c0.4,0.3,0.9,0.5,1.4,0.5c1,0,1.8-0.7,2.2-1.6c0.3-0.6,1.1-2.2,9.7-30.8c1-2.6,1.7-5.4,2.1-8.2c0-0.6-0.2-1.2-0.6-1.7    c-0.9-0.9-2.3-0.9-3.2,0C615,238.3,615,238.4,614.9,238.4z"
   class="st0" />
		<path
   id="path16"
   d="M638.3,275.2c-1.3-0.1-2.7-0.4-3.9-0.9c-0.9-0.5-1.7-1.2-2.3-2.1c-2.5-4.6-3.6-9.8-3.1-15    c-0.1-3.6,0.2-7.1,0.9-10.6c0.6-2.5,1.7-4.9,3.3-6.9c0.7-1.1,1.7-1.9,3-2.2c2.1-0.5,2.6-1.5,2.6-2.3c0-0.6-0.4-1.2-0.9-1.5    c-0.4-0.4-1-0.6-1.6-0.7h-0.4c-0.4,0-0.8,0-1.2,0c-2.6,0.8-4.7,2.6-5.9,5.1c-2.4,3.8-3.8,8.2-4.1,12.7c-0.2,2-0.3,4.1-0.2,6.1    c-0.1,2.2-0.1,4.4,0,6.6c0.4,4.4,2,8.6,4.6,12.2c2.3,2.7,5.7,4.2,9.2,4.2h0.4c2,0,2.7-1.2,2.7-2.2    C641.1,276.5,640.7,275.5,638.3,275.2z"
   class="st0" />
	</g>
	<g
   id="Calque_1_3_">
		<path
   id="path19"
   d="M400.7,185c-3.2-0.7-6.4-1-9.6-0.8c-1.7,0-5.9,0-8-0.2c3.5-4.9,6.7-10.1,9.7-15.4c3.1-4.4,5.9-9.1,8.3-14    c0.7-2.3,1-4.8,1.1-7.2v-1.2c0-5.6-2.2-9.4-6.5-11.1c-1.4-0.6-3-0.8-4.5-0.7c-2.5-0.1-4.9,0.4-7.1,1.6l0,0c-0.6,0.4-1,1.1-1.1,1.8    c0,0.7,0.3,1.7,2.5,1.7c0.7,0,1.4-0.1,2.1-0.4c0.4-0.2,0.8-0.3,1.3-0.3c0.4,0,0.8-0.1,1.1-0.4h0.4c1,0,2,0.1,3,0.4    c1.2,0.2,2.3,0.9,3,2c0.9,1.8,1.3,3.9,1.2,5.9c0,2.4-0.4,4.7-1.1,6.9c-2.8,5.7-6.1,11.1-9.8,16.3c-10.2,15.2-10.2,15.5-10.2,15.9    c-0.1,1.2,0.7,2.2,1.9,2.5c0.7,0.2,4.3,0.3,11.8,0.5h3h5.7c0.8,0.1,1.6,0,2.3-0.3c0.3-0.2,1.4-0.8,1.3-1.8S401.2,185.2,400.7,185z    "
   class="st1" />
		<path
   id="path21"
   d="M363.3,207.2c-6.5,0.1-13-0.2-19.4-0.9c-3.4-0.4-6.7-0.9-10.1-1.5c-2.3-0.4-3,0-2.3-2.4    c0.4-1.5,0.9-2.9,1.4-4.3c4.2-10,8.9-19.7,14.1-29.1c1.8,0.7,3.6,1.2,5.5,1.6c1,0.2,2-0.4,2.3-1.4c0-0.1,0-0.3,0.1-0.4    c0.2-4.5,0-9.1-0.3-13.6c-0.2-2.4-0.2-6.2-3-7.3c-2.7-1.1-4.1,1.6-5.4,3.3c-0.7,0.9-1.4,1.8-2,2.7s-2.3,2.6-3.4,3.9    c-1.1,1.2-2,2.5-2.7,3.9c-0.4,0.6-0.5,1.3-0.2,2c0.5,0.6,1.1,1.1,1.7,1.5l1.5,1c-2.7,5.1-5.3,10.2-7.7,15.3    c-3.3,6.7-7.7,14-8.9,21.5c-1.2,8.1,7.6,8.2,13.5,9.1c8.3,1.2,16.7,1.8,25.1,1.7c1.8-0.1,3.2-1.7,3.1-3.5    C366.1,208.7,364.9,207.4,363.3,207.2z"
   class="st0" />
		<path
   id="path23"
   d="M455.4,192c-3-7.3-5.9-14.5-8.9-21.8c-1.6-3.9-8-2.2-6.4,1.8l6.8,16.8c1.1,2.7,2.2,5.3,3.2,8    c0.5,1.4,2.5,6.3,1.1,7.6c-1.2,0.4-2.4,0.7-3.6,0.7l-4.2,0.7c-3.5,0.5-6.9,0.9-10.4,1.2c-5.7,0.4-11.5,0.6-17.2,0.4    c-0.2-2.3,0-5.7-2.1-7.2c-2.1-1.6-4.6-0.2-6.7,0.9c-3.9,2.2-7.7,4.5-11.3,7.1c-0.4,0.2-3.9,2-1.3,5c2.3,1.4,4.7,2.7,7.1,3.8    c3.5,2,7.2,3.4,11,4.4c1.7,0.3,3.4-0.8,3.7-2.6c0,0,0,0,0-0.1c0.2-1.5,0.3-3.1,0.1-4.6c7.2,0.2,14.4-0.1,21.5-0.9    c3.6-0.4,7.2-0.9,10.8-1.6c2.9-0.1,5.7-1.1,7.9-3C460.5,204,457.2,196.3,455.4,192z"
   class="st0" />
		<path
   id="path25"
   d="M434.6,140.6c-0.5-3.9-1.6-7.8-3.3-11.3c-0.7-1.4-2.3-1.9-3.7-1.2c-0.2,0.1-0.4,0.3-0.6,0.4    c-0.4,0.2-0.7,0.6-1.1,0.9c-0.4,0-0.8,0.1-1.2,0.2c-4.8-8.7-9.8-17.2-15.1-25.6c-4.3-6.6-10-19.9-19.9-13.9    c-6.4,3.9-11,11.8-14.9,18c-4.5,7.1-8.7,14.4-12.7,21.8c-2.1,3.7,3.6,7.1,5.7,3.3c6.5-11.8,13.1-24.5,22.2-34.5    c1-1.2,2.7-3.2,4.4-3.5c2.2-0.4,3.7,3.2,4.7,4.7c2.6,3.8,5.1,7.7,7.6,11.6c4.5,7.2,8.7,14.4,12.8,21.8c-1.6,1.4-2.7,3.4-3,5.5    c-0.8,2.4,1.4,4,3.2,5.3c2.7,2.1,12.3,9.5,15.5,5.1C436.6,147.2,435.1,142.9,434.6,140.6z"
   class="st0" />
		<path
   id="path27"
   d="M365.3,235.3c-0.6-0.9-1.9-1.1-2.7-0.5l0,0c-0.7,0.7-1,1.6-0.9,2.6c0,0.5,0,2.4,0.4,5.7    c0.3,4.4,0.4,7.3,0.4,8.5v1.7h-10v-7.4c0-8.7-0.2-9.2-0.4-9.6c-0.3-0.7-1-1.2-1.8-1.2c-1,0-1.8,0.6-2.1,1.6c0,0.3-0.2,0.6-0.2,21    v20.7l0.3,0.3c0.5,0.6,1.3,1,2.1,1c0.6-0.1,1.2-0.4,1.5-0.9c0.2-0.4,0.4-0.6,0.5-11.3v-9.2h10.6c0,0.4,0,1,0,1.8    c0,1.9,0.2,4.9,0.3,9c0.1,4.2,0.2,7.4,0.4,8.5c0,1.2,0.6,2.3,1.5,3c0.3,0.2,0.7,0.3,1.1,0.4c0.2,0,0.4,0,0.5,0    c0.6-0.2,1-0.7,1.2-1.2v-0.3c0-0.4,0-0.7,0-1.1c0-1.9-0.5-11.4-1.5-29.1C366,236.3,365.7,235.7,365.3,235.3z"
   class="st0" />
		<path
   id="path29"
   d="M390,239.6c-0.7-1-1.5-1.9-2.4-2.7c-0.9-0.9-1.9-1.7-3-2.4c-2.3-1.5-5-2.3-7.7-2.4c-0.6,0-1.1,0-1.7,0.2    c-0.7,0.1-1.3,0.6-1.6,1.3c-0.2,0.8-0.3,1.6-0.3,2.4c0,1.9,0,5.4,0.4,10.8c0.4,5.4,0.4,8.6,0.4,9.9c-0.1,7,0.3,14,1.1,21    c0.2,0.9,1,1.9,3.3,2h0.5c7.9,0.1,14.6-5.9,15.3-13.8c0.3-2.1,0.4-4.1,0.3-6.2c0-2.5-0.1-5-0.3-7.4    C393.8,247.7,392.4,243.5,390,239.6z M389.5,265.8c-0.7,4.6-4.3,8.2-8.9,8.9c-0.5,0.1-1,0.2-1.5,0.2c-0.5-4.4-0.7-8.8-0.8-13.2    c0-0.4,0-2.7,0-6.9s-0.2-7.7-0.3-10.8c-0.1-3.1-0.3-5.3-0.4-6.5c0-0.4,0-0.7,0-0.9c0.6,0.1,1.1,0.2,1.7,0.4l0,0    c2.3,0.7,4.4,2,5.9,3.8c2.9,4.1,4.5,9,4.6,14.1c0,1.7,0.1,3,0.1,4.3C390.1,261.4,390,263.6,389.5,265.8z"
   class="st0" />
		<path
   id="path31"
   d="M409.8,234.1c-2.1-1.7-4.7-2.7-7.3-3H402c-1.1,0.2-2,1.1-2.1,2.2c-0.1,0.7-0.1,1.5,0,2.2    c0,2.6,0,6.1,0.3,10.5c0,2.6,0.2,8.1,0.3,16.4c0.1,13.5,0.3,14.1,0.3,14.4c0.1,0.6,0.3,1.1,0.7,1.5c0.4,0.4,1,0.7,1.5,0.7    c0.8-0.1,1.6-0.4,2.2-1.1l0.3-0.4l-0.1-8.4v-4.2c0-3,0.1-3.6,0-3.6c0.5-0.5,1-0.9,1.6-1.2c1-0.7,2.2-1.5,3.3-2.4    c1.6-1.2,3-2.7,4.1-4.4c0.9-1.5,1.6-3.1,1.8-4.8c0.1-0.8,0.2-1.5,0.2-2.3c0-2.4-0.6-4.8-1.7-6.9    C413.5,237.3,411.9,235.4,409.8,234.1z M411.5,246.7c0,0.6-0.1,1.3-0.2,1.9c-0.7,2.3-2.1,4.4-4,5.9c-0.8,0.7-1.5,1.2-2.1,1.6    c0-1.4-0.2-3.8-0.4-8.4c0-1.2-0.1-3-0.2-5.3c0-2.4-0.1-3.9-0.2-4.3v-1.7h0.4c3,1.2,5.2,3.6,6.2,6.6    C411.4,244.1,411.6,245.4,411.5,246.7z"
   class="st0" />
		<path
   id="path33"
   d="M432.8,275.1c-1.2-0.2-2.4-0.3-3.6-0.4h-2.6c-0.2-1.2-0.2-2.4-0.3-3.7c-0.1-3-0.2-5.4-0.2-7.8    c0-0.8,0-1.7,0-2.5v-0.8c1,0,2.5-0.3,3-1.3c0.2-0.4,0.4-0.8,0.4-1.2c0-0.8-0.4-2.2-3.4-2.2l0,0l0,0c0-0.2,0-1.8-0.2-9.5V238h0.3    c1-0.1,2-0.2,3-0.1c4.1,0,5-0.3,5.3-1c0.8-0.8,0.7-2.1-0.1-2.8c0,0-0.1-0.1-0.1-0.1c-0.6-0.5-1.3-0.5-3.6-0.5c-1.2,0-2.3,0-3.3,0    h-1.1H425c-0.6,0-1.1,0-1.7,0l-0.4,0.1c-0.3,0.1-0.5,0.2-0.8,0.4c-0.2,0.2-0.4,0.4-0.6,0.6v0.3c-0.3,2.1-0.4,4.2-0.2,6.3    c0,6.2,0,13.7,0.3,22.4c0.2,13.3,0.5,13.8,0.6,14.2c0.3,0.8,1,1.4,1.8,1.5c1.5,0.1,3,0.1,4.4,0l0,0h4.9l0.3-0.6    c0.6-1,0.8-1.6,0.6-2.2C434.1,275.7,433.5,275.2,432.8,275.1z"
   class="st0" />
	</g>
	<g
   id="Calque_1_4_">
		<path
   id="path36"
   d="M786.3,209.7c-6.7,0.3-13.4,0-20.1-0.9c-4.9-0.6-15.6,0-13.3-7.9c1.2-2.9,2.7-5.7,4.5-8.3    c1.6-2.7,3.2-5.5,4.7-8.2c2.5-4.6,4.9-9.4,7.2-14.1c1.8,0.8,3.8,0.9,5.7,0.5c2.5-0.9,2.7-3,2.8-5.3c0.3-4,0.8-8.1,0.8-12    c0.1-1.3-0.4-2.5-1.2-3.5c-0.2-0.6-0.6-1-1.2-1.1c-3-0.8-5.3,1.6-7.4,3.3c-2.8,2.1-5.5,4.3-7.9,6.8c-1.4,1.5-3.4,3.6-2.3,5.9    c1.1,1.6,2.7,2.7,4.5,3.3c-3,5.9-5.8,11.6-8.9,17.2c-3.1,5.6-9.3,12.7-8,20.1c1.3,7.4,7.7,8.5,13.7,9.3c8.8,1.4,17.7,1.9,26.6,1.7    C790.5,216.1,790.5,209.5,786.3,209.7z"
   class="st0" />
		<path
   id="path38"
   d="M850.4,134.6c0-1.9-0.2-3.8-0.7-5.7c0-0.3,0-0.6-0.2-0.9c-1.5-3.1-4.3-1.9-6.7-0.6c-2.7-6.8-6-13.5-9.8-19.8    c-3.5-5.9-8-15.1-14.8-17.7c-7.5-3-12.4,4.2-16.1,9.5c-5.5,7.4-9.8,15.7-14.5,23.7c-0.8,1.6-0.2,3.6,1.4,4.5    c1.5,0.8,3.3,0.3,4.3-1.1c3.6-6.3,7.1-12.6,11-18.8c1.7-2.8,3.6-5.6,5.7-8.2c2.2-3,4.2-5.1,7.6-2.3c4.7,3.9,8.1,10.9,11.1,16.1    c3.2,5.6,6,11.4,8.4,17.4c-1.9,1-3.5,2.5-4.6,4.3c-1.6,3.3,1.8,5.7,4,7.5c1.7,1.5,3.6,2.9,5.5,4.2c1.4,1.3,3,2.2,4.8,2.6    c3.4,0.2,3.8-4.7,3.9-7.1C850.7,139.7,850.6,137.1,850.4,134.6z"
   class="st0" />
		<path
   id="path40"
   d="M881.5,190.9c-3.2-7.4-6.9-14.6-11.2-21.5c-1-1.5-3.1-1.9-4.6-0.9c-1.4,0.9-1.9,2.8-1.1,4.3    c3.4,5.5,6.5,11.3,9.3,17.1c1.3,2.9,2.4,5.8,3.4,8.9c0.6,2.1,2.7,7.3,1,9c-1.7,1.8-6.4,1.2-8.3,1.3c-3.3,0.2-6.7,0.5-10,0.7    c-6.9,0.4-13.8,0.4-20.7,0c0.5-2.6-0.2-5.2-2-7.2c-2.7-2-7.2,1-9.7,2.2c-2.5,1.2-8.1,3.1-9.7,5.9c-1.6,2.8,0.6,4.3,2.7,5.4    c4.1,2.1,8.3,3.9,12.6,5.5c4.9,1.7,6.2-1.3,6.3-5.2c8.5,0.5,17,0.4,25.5-0.1c5.7-0.4,15.5,0.6,19.2-4.9S883.7,196.2,881.5,190.9z"
   class="st0" />
		<path
   id="path42"
   d="M827.2,174.8c-0.3-0.3-0.9-0.6-4.6-0.6l0,0h-3v-2.4c0-2.8-0.4-3.6-0.7-4l0,0c-0.8-0.8-2.1-0.8-3,0    c-0.3,0.3-0.5,0.8-0.6,4v2.3h-1.2c-0.6,0.1-1.2,0.1-1.7,0c-1.9,0.2-3.9-0.1-5.7-0.8c0,0,0-0.1,0-0.8c0-0.6,0-0.5,0-0.9    s0-1,0.1-1.8c0.1-0.8,0-1.5,0.2-2.2c0.4-5.2,0.9-12.2,1.2-20.7l0.3-7.8l-0.6-0.4c-0.9-0.9-1.6-1.3-2.1-1.3c-1.3,0-1.6,1.7-1.7,2.3    c-0.2,1.1-0.4,3.4-0.6,6.9c0,2.5-0.3,4.4-0.4,5.9l0,0c-0.8,10.3-1.1,17-1.1,20.2c-0.1,1,0,2,0.4,3c0.9,1,2.1,1.6,3.4,1.8    c2.8,0.5,5.6,0.9,8.5,1h1v2c0,5.4,0.5,6.6,0.9,7.1c0.4,0.4,0.9,0.7,1.5,0.7h0.7c0.8-0.2,1.4-1,1.4-1.8v-8h2.3    c1.3,0,2.6-0.1,3.9-0.4c0.7-0.3,1.2-0.8,1.5-1.4C827.9,176.1,827.8,175.3,827.2,174.8z"
   class="st1" />
		<path
   id="path44"
   d="M783.2,275.5h-1.4c0-1.8-0.3-7.7-0.4-23.8c-0.1-14.3-0.2-14.5-0.4-14.8c-0.3-1-1.1-1.6-2.1-1.7    c-0.5,0-0.9,0.3-1.2,0.6c-0.5,0.4-0.6,0.5-0.6,18.6c0,21,0.2,22,0.3,22.3c0.1,1.3,0.7,2.4,1.8,3.2c0.2,0,0.4,0.2,3.3,0.4h2.1    c0.6,0,1.1-0.1,1.6-0.4c0.6-0.4,1-1,1.1-1.8c0-0.7-0.3-1.3-0.8-1.7C785.6,275.7,784.4,275.3,783.2,275.5z"
   class="st0" />
		<path
   id="path46"
   d="M809.3,240.2c-0.7-1-1.5-1.9-2.4-2.7c-0.9-0.9-1.9-1.7-3-2.4c-2.3-1.5-5-2.3-7.7-2.4c-0.6,0-1.1,0-1.7,0.2    c-0.7,0.1-1.3,0.6-1.6,1.3c-0.2,0.8-0.3,1.6-0.3,2.4c0,1.9,0,5.5,0.4,10.8c0.4,5.3,0.4,8.6,0.4,9.9c-0.1,7,0.2,14,1.1,21    c0.2,0.9,1,1.9,3.3,2h0.5c7.9,0.1,14.6-5.9,15.3-13.8c0.3-2.1,0.4-4.1,0.3-6.2c0-2.5-0.1-5-0.3-7.4    C813,248.3,811.6,244,809.3,240.2z M808.9,266.4c-0.7,4.6-4.3,8.2-8.9,8.9c-0.5,0.1-1,0.2-1.5,0.2c-0.5-4.4-0.7-8.8-0.8-13.2    c0-0.4,0-2.7,0-6.9c0-4.1-0.2-7.7-0.3-10.8c0-2.2-0.2-4.3-0.5-6.5c0-0.4,0-0.7,0-0.9c0.6,0.1,1.1,0.2,1.7,0.4l0,0    c2.3,0.7,4.4,2,5.9,3.8c2.9,4.1,4.5,9,4.6,14.1c0,1.7,0.1,3,0.1,4.3C809.5,261.9,809.3,264.2,808.9,266.4z"
   class="st0" />
		<path
   id="path48"
   d="M829.1,234.6c-2.1-1.7-4.7-2.7-7.3-3h-0.5c-1.1,0.2-2,1.1-2.1,2.2c-0.1,0.7-0.1,1.5,0,2.2    c0,2.5,0,6.1,0.3,10.5c0,2.6,0.2,8.1,0.3,16.4c0.1,13.5,0.3,14.1,0.3,14.4c0.1,0.6,0.3,1.1,0.7,1.5c0.4,0.4,1,0.7,1.5,0.7    c0.8-0.1,1.6-0.4,2.2-1.1l0.3-0.4l-0.1-8.4v-4.2c0-3,0-3.6,0-3.6c0.5-0.5,1-0.9,1.6-1.2c1-0.7,2.2-1.5,3.3-2.4    c1.6-1.2,3-2.7,4.1-4.4c0.9-1.5,1.5-3.1,1.8-4.8c0.1-0.8,0.2-1.5,0.2-2.3c0-2.4-0.6-4.8-1.7-6.9    C832.7,237.8,831.1,236,829.1,234.6z M830.7,247.2c0,0.6-0.1,1.3-0.2,1.9c-0.7,2.3-2.1,4.4-4,5.9c-0.8,0.7-1.5,1.2-2.1,1.6    c0-1.4-0.2-3.8-0.4-8.4c0-1.2,0-3-0.2-5.3c-0.2-2.4,0-3.9-0.2-4.3v-1.7h0.4c3,1.1,5.2,3.6,6.2,6.6    C830.6,244.7,830.8,245.9,830.7,247.2z"
   class="st0" />
		<path
   id="path50"
   d="M852,275.6c-1.2-0.2-2.4-0.3-3.6-0.4h-2.6c-0.2-1.2-0.2-2.4-0.3-3.7c0-2.8-0.2-5.4-0.2-7.8c0-0.8,0-1.7,0-2.5    v-0.8c1,0,2.5-0.3,3-1.3c0.2-0.4,0.4-0.8,0.4-1.2c0-0.8-0.4-2.2-3.4-2.2l0,0l0,0c0-0.2,0-1.5-0.2-9.5v-7.7h0.3c1-0.1,2-0.2,3-0.1    c4.1,0,5-0.3,5.3-1c0.8-0.8,0.8-2,0-2.8c-0.1-0.1-0.1-0.1-0.2-0.2c-0.4-0.4-1.2-0.7-3.5-0.7c-1.2,0-2.3,0-3.3,0h-1.1h-1.1    c-0.6,0-1.1,0-1.7,0l-0.4,0.1c-0.3,0.1-0.6,0.2-0.8,0.4c-0.2,0.2-0.4,0.4-0.5,0.6v0.3c-0.5,2.1-0.7,4.3-0.6,6.5    c0,6.2,0,13.8,0.2,22.4c0.3,13.3,0.5,13.8,0.7,14.2c0.3,0.8,1,1.4,1.8,1.5c1.5,0.1,3,0.1,4.4,0l0,0h4.9l0.3-0.6    c0.6-1,0.8-1.6,0.6-2.2C853.3,276.3,852.7,275.8,852,275.6z"
   class="st0" />
	</g>
	<g
   id="Calque_1_6_">
		<path
   id="path53"
   d="M150.5,214c-7,0.8-14,1.2-21,1.2c-4.8,0-12.6,0-12.1-6.7c0.5-3.4,1.4-6.7,2.7-9.9c1-3.1,2.1-6.3,3.2-9.4    c1.9-5.4,4-10.8,6.2-16c2.3,1.1,5.1,0.8,7.1-0.8c1.1-1.4,1.6-3.3,1.4-5.1c0-3.4,0.2-6.8,0.2-10.2c0-2.7-0.8-7.1-4.7-5.6    c-2.3,1.3-4.3,3.1-5.9,5.1c-1.3,1.3-2.5,2.7-3.6,4.1c-1.2,1.3-2.2,2.7-3.1,4.1c-2,3.2-0.4,4.9,2.6,5.9c-2.5,6.1-4.9,12.2-7.1,18.5    c-1.5,4.2-3,8.5-4.2,12.7c-1.5,3.6-1.8,7.6-0.9,11.3c2,5.9,8.2,8,13.8,8.5c8.5,0.5,16.9,0.1,25.3-1    C154.7,220.1,154.8,213.5,150.5,214z"
   class="st0" />
		<path
   id="path55"
   d="M218,143.9c0-0.4,0-0.7,0-1.1c0.1-0.7,0.1-1.5,0-2.2c0-3-0.2-6.1-0.5-9.2c-0.2-2.5-0.4-5.4-3-6.6    c-2.2-0.8-4.6-0.4-6.4,1.1c-3.7-5.9-7.4-11.8-11.2-17.7c-4.6-6.8-10.3-15.7-18.7-18.3c-9-2.7-14.3,4.6-18.6,11.2    c-5.6,8.9-10.6,18.1-15.1,27.5c-1.8,3.8,3.9,7.2,5.7,3.3c3.6-7.6,7.5-15,11.8-22.3c3.5-5.8,8.4-17.4,16.7-12.3    c6.8,4.1,11.2,12.1,15.2,18.5c2.8,4.4,5.7,8.9,8.5,13.3c-0.6,0.4-1.3,0.9-1.8,1.4c-1.8,1.3-2.6,3.5-2.2,5.7    c0.8,2.7,4.1,4.1,6.3,5.4c2.2,1.3,7.6,5.3,10.8,4.8c0.8,0.1,1.6-0.3,2-1c0-0.1,0-0.2,0-0.3C217.8,144.8,218,144.3,218,143.9z"
   class="st0" />
		<path
   id="path57"
   d="M242.9,192.9c-3.4-8.2-7.3-16.2-11.8-23.9c-1-1.5-3.1-1.9-4.6-0.9c-1.4,0.9-1.9,2.8-1.1,4.3    c3.6,6.1,6.9,12.3,9.7,18.8c1.5,3.4,3,6.8,4.1,10.3c0.6,1.4,1.2,2.9,1.6,4.5c0.4,2.1,0,2.7-1.8,3.8c-6.4,2.9-13.4,4.5-20.5,4.5    c-6.1,0.4-12.3,0.4-18.5,0.5c0-4.7-0.8-9.8-6.5-7.5c-3.8,1.7-7.4,3.9-10.7,6.5c-1.8,1.3-5.2,3.2-4,5.9c0.1,0.3,0.3,0.5,0.4,0.7    c0.3,0.7,0.9,1.2,1.6,1.4c2.5,1.6,5.2,2.7,8.1,3.3c2.4,0.9,6.3,3.4,8.9,1.8c1.6-1.4,2.3-3.5,2-5.6c7.9-0.2,15.8,0,23.6-0.9    c4.1-0.4,8.1-1.2,12-2.4c3.7-0.8,7.1-2.5,10-5C250.4,207.6,245.2,198.5,242.9,192.9z"
   class="st0" />
		<path
   id="path59"
   d="M180,166c-0.2-25.8-0.3-26.3-0.3-26.6l0,0c-0.5-2.1-1.7-2.5-2.7-2.5h-0.5h-0.2h-0.2c-0.3,0-0.6,0.1-3.5,3    c-1.3,1.2-2.6,2.6-3.7,4c-0.4,0.6-0.7,1.2-0.7,2c-0.1,1,0.6,2,1.7,2.1c0.1,0,0.2,0,0.4,0c0.6,0,1.4-0.3,3.5-2.7    c0.7-0.7,1.1-1.2,1.4-1.6c0,2.3,0,8.5,0.2,23.3l0.3,24.6l0.7,0.8c0.4,0.5,0.9,0.8,1.5,0.8c0.3,0,0.7-0.1,0.9-0.4    c0.8-0.6,1.3-1.6,1.3-2.6L180,166z"
   class="st1" />
		<path
   id="path61"
   d="M158.5,234.7c-2.1-1.7-4.7-2.7-7.3-3h-0.5c-1.1,0.2-2,1.1-2.1,2.2c-0.1,0.7-0.1,1.5,0,2.2    c0,2.6,0,6.1,0.3,10.5c0,2.6,0.2,8.1,0.3,16.4c0,13.5,0.2,14.1,0.3,14.4c0.1,0.6,0.3,1.1,0.7,1.5c0.4,0.4,1,0.7,1.5,0.7    c0.8-0.1,1.6-0.4,2.2-1.1l0.3-0.4l-0.1-8.4v-4.2c0-3,0-3.6,0-3.6c0.5-0.5,1-0.9,1.6-1.2c1.1-0.7,2.2-1.5,3.3-2.4    c1.6-1.2,3-2.7,4.1-4.4c0.9-1.5,1.5-3.1,1.8-4.8c0.1-0.8,0.2-1.5,0.2-2.3c0-2.4-0.6-4.8-1.7-6.9    C162.2,237.9,160.6,236.1,158.5,234.7z M160.2,247.3c0,0.6-0.1,1.3-0.2,1.9c-0.7,2.3-2.1,4.4-4,5.9l-2.1,1.6    c0-1.4-0.2-3.8-0.4-8.4c0-1.2-0.1-3-0.2-5.3c0-2.4,0-3.9-0.2-4.3v-1.7h0.4c3,1.1,5.3,3.6,6.2,6.6    C160.1,244.8,160.3,246.1,160.2,247.3z"
   class="st0" />
		<path
   id="path63"
   d="M177.6,238.3c4.1,0,5-0.3,5.4-1c0.8-0.8,0.7-2-0.1-2.8c-0.1-0.1-0.1-0.1-0.2-0.2c-0.4-0.4-1-0.4-3.4-0.4    c-1.2,0-2.3,0-3.3,0h-1.1h-1.1c-0.6,0-1.1,0-1.7,0l-0.4,0.1c-0.3,0.1-0.6,0.2-0.8,0.4c-0.2,0.2-0.4,0.4-0.5,0.6l-0.1,0.3    c-0.3,2.1-0.3,4.2-0.2,6.3c0,6.2,0,13.7,0.2,22.4c0.3,13.3,0.5,13.8,0.7,14.2c0.3,0.8,1,1.4,1.8,1.5c1.5,0.1,3,0.1,4.4,0l0,0h5    l0.3-0.6c0.5-0.6,0.7-1.4,0.6-2.2c-0.2-0.8-0.8-1.4-1.6-1.5c-1.2-0.1-2.4-0.1-3.6-0.1h-2.6c0-0.5-0.1-1.6-0.3-3.7    c0-3-0.2-5.4-0.2-7.8c0-1.2,0-2,0-2.5v-0.8c1,0,2.5-0.3,3-1.3c0.2-0.4,0.3-0.8,0.3-1.2c0-0.8-0.4-2.2-3.4-2.2h-0.2l0,0    c0-0.2,0-1.8-0.2-9.5v-7.7h0.3C175.6,238.5,176.6,238.4,177.6,238.3z"
   class="st0" />
		<path
   id="path65"
   d="M209.1,235.8c-0.4-0.4-1.2-0.6-2.6-0.6s-3,0-4.3,0c-3.9-0.1-7.7,0.1-11.6,0.5c-0.9,0.2-1.6,1-1.5,2    c0,0.8,0.4,1.5,1.1,1.8c1.5,0.4,3,0.6,4.6,0.4h2.5v12.8c0,6.2,0,12.5,0,19c0,7,0.2,7.3,0.5,7.6c0.4,0.6,1.1,1,1.8,0.9    c0.3,0,1.2,0,1.6-0.6c0.4-0.6,0.5-0.5,0.6-21c0-12.4,0-17.2,0-18.9h0.7l3.5-0.2c0.8,0,1.6-0.1,2.4-0.3c0.7-0.3,1.2-0.8,1.4-1.5    C210,237.1,209.7,236.3,209.1,235.8z"
   class="st0" />
	</g>
</g><g
     id="g1004"><g
       id="Calque_1_2_">
		<path
   style="fill:#1e1e1c;stroke:#1e1e1c;stroke-width:0.15000001;stroke-miterlimit:10"
   id="path70"
   d="m 292.1,452.4 c -1.4,-2.2 -3.3,-4.1 -5.6,-5.5 -1.7,-0.9 -3.5,-1.4 -5.3,-1.5 h -0.6 v -12.5 h 0.7 c 1,-0.1 2,-0.2 3,-0.2 3,0 4.3,-0.8 4.3,-2.3 0.1,-1 -0.5,-2 -1.4,-2.3 -1.4,-0.2 -2.8,-0.3 -4.2,-0.1 -1.6,-0.1 -3.1,0 -4.7,0.2 -1.1,0.2 -2,0.9 -2.3,1.9 -0.1,0.4 -0.4,0.9 -0.5,9.2 v 4.5 c 0,3.7 0.3,4.8 0.8,5.3 0.5,0.6 1.7,1.1 3.7,1.3 2.4,0 4.6,1 6.3,2.7 2.4,2.5 3.7,5.8 3.5,9.3 0,1 0,1.8 0,2.4 -1,8.3 -4.9,13.4 -12.1,15.9 -1.6,0.5 -3.6,1.4 -3.6,3.1 0,0.7 0.4,1.4 1.1,1.7 0.5,0.3 1.1,0.5 1.7,0.6 2.2,-0.2 4.2,-0.9 6.1,-1.9 5.3,-2.7 9.2,-7.4 11,-13.1 0.8,-2.5 1.2,-5.1 1.2,-7.8 -0.3,-3.9 -1.2,-7.6 -3.1,-10.9 z"
   class="st2" />
		<path
   style="fill:#1e1e1c"
   id="path72"
   d="m 257.1,500.6 c -6.9,0.1 -13.8,-0.1 -20.7,-0.8 -3,-0.3 -7.8,0 -10.3,-2.3 -2,-2.5 -2.6,-5.8 -1.6,-8.9 2,-6.7 4.7,-13.2 8.1,-19.4 2,-4.2 4,-8.4 6.2,-12.6 l 0.6,0.3 c 2,1.1 4.5,2.3 6.2,0.7 1.1,-0.7 1.9,-1.9 2.1,-3.3 0.7,-3.3 4,-22.2 -4.1,-19.6 -3.9,1.8 -7.4,4.4 -10.3,7.6 -2.2,2 -5.5,4.2 -3.9,7.6 0.8,1.5 2,2.7 3.5,3.5 -2.7,5.6 -5.5,11.1 -8.1,16.8 -3.3,7 -8.1,15.5 -7.2,23.6 0.8,7.3 5.9,11.2 12.8,12.1 8.8,1.1 17.7,1.6 26.6,1.4 1.9,0 3.4,-1.5 3.5,-3.4 0.1,-1.7 -1.5,-3.3 -3.4,-3.3 z"
   class="st0" />
		<path
   style="fill:#1e1e1c"
   id="path74"
   d="m 324.1,419.3 c -1.9,-2.6 -4.7,-1.7 -7.1,-0.6 -7.8,-14.1 -14.1,-29.8 -27.2,-39.9 -3,-2.4 -6.6,-4.9 -10.6,-3 -4,1.9 -6.6,6.8 -9.1,10.2 -6.1,8.5 -11.4,17.6 -15.9,27.1 -1.8,3.8 3.9,7.2 5.7,3.3 3.7,-7.9 8,-15.5 12.9,-22.7 2.2,-3.9 4.8,-7.6 7.9,-10.8 3,-2.5 7.2,2.7 9.4,4.9 9.2,9.3 14.4,21.8 20.7,33.3 -1.9,0.7 -3.5,1.9 -4.6,3.6 -0.7,1.3 -0.4,3 0.7,4 1.1,3.1 5.1,5.5 7.2,7.7 2.1,2.3 5.1,6.1 8.5,4.5 3.4,-1.6 2.7,-6.4 3,-9.1 0.1,-3.5 0.9,-9.3 -1.5,-12.5 z"
   class="st0" />
		<path
   style="fill:#1e1e1c"
   id="path76"
   d="m 350.5,483.1 c -3.5,-8.3 -7.5,-16.4 -11.8,-24.4 -2,-3.7 -7.7,-0.4 -5.7,3.3 3.6,6.7 7,13.4 10,20.4 1.6,3.5 3,7 4.5,10.5 0.4,1 0.9,1.5 0.4,2.4 -0.4,0.9 -2.4,1.2 -3,1.4 -2,0.7 -4,1.1 -6.1,1.4 -11.1,1.5 -22.5,1.4 -33.7,2.2 -0.3,-3.5 -1.5,-6.7 -4.7,-7.1 -3.2,-0.4 -6.2,1.9 -8.6,3.2 -2.4,1.3 -6.8,3.2 -8.2,5.9 -3.3,6.6 9.5,8.6 13.2,9.5 2.4,0.5 5.6,1.8 7.5,-0.6 0.8,-1.3 1.1,-2.9 0.9,-4.5 6.1,-0.4 12.3,-0.7 18.4,-1.1 7.7,-0.4 16.1,-0.3 23.4,-3 3.3,-1.2 7.8,-3.2 7.9,-7.3 0.5,-3.7 -2.8,-8.6 -4.4,-12.2 z"
   class="st0" />
		<path
   style="fill:#1e1e1c"
   id="path78"
   d="m 277.4,520.8 c -2.1,-1.7 -4.7,-2.7 -7.3,-3 h -0.5 c -1.1,0.2 -2,1.1 -2.1,2.2 -0.1,0.7 -0.1,1.5 0,2.2 0,2.6 0,6.1 0.3,10.5 0,2.6 0.2,8.1 0.3,16.5 0.1,13.4 0.2,14.1 0.3,14.4 0.1,0.6 0.3,1.1 0.7,1.5 0.4,0.4 0.9,0.7 1.5,0.7 0.8,0 1.6,-0.4 2.2,-1.1 l 0.3,-0.4 -0.1,-8.4 v -4.2 c 0,-3 0.1,-3.6 0,-3.6 0.5,-0.5 1,-0.9 1.6,-1.2 1.1,-0.7 2.2,-1.6 3.3,-2.4 1.6,-1.2 2.9,-2.7 4,-4.3 0.9,-1.5 1.5,-3.1 1.8,-4.8 0.1,-0.8 0.2,-1.5 0.2,-2.3 0,-2.4 -0.6,-4.8 -1.7,-6.9 -1.2,-2.2 -2.8,-4 -4.8,-5.4 z m 1.7,12.6 c 0,0.6 0,1.3 -0.2,1.9 -0.7,2.3 -2.1,4.3 -4,5.8 l -2.1,1.6 c 0,-1.3 -0.2,-3.8 -0.4,-8.4 0,-1.2 0,-3 -0.2,-5.3 -0.2,-2.4 0,-3.9 -0.2,-4.3 V 523 h 0.4 c 3,1.2 5.2,3.6 6.2,6.6 0.4,1.3 0.5,2.5 0.5,3.8 z"
   class="st0" />
		<path
   style="fill:#1e1e1c"
   id="path80"
   d="m 303.7,526.2 c -1.1,-2.2 -2.7,-4 -4.7,-5.4 -2.1,-1.7 -4.7,-2.7 -7.3,-3 h -0.5 c -1.1,0.2 -2,1.1 -2.1,2.2 -0.1,0.7 -0.1,1.5 0,2.2 0,2.6 0,6.1 0.3,10.5 0,2.6 0.2,8.1 0.3,16.5 0,13.4 0.2,14.1 0.3,14.4 0.1,0.6 0.3,1.1 0.7,1.5 0.4,0.4 0.9,0.7 1.5,0.7 0.8,0 1.6,-0.4 2.2,-1.1 l 0.3,-0.4 -0.3,-8.3 v -4.3 c 0,-3 0.1,-3.6 0,-3.6 0.5,-0.5 1,-0.9 1.6,-1.2 1.1,-0.7 2.2,-1.6 3.3,-2.4 1.6,-1.2 3,-2.7 4.2,-4.3 0.9,-1.5 1.5,-3.1 1.8,-4.8 0.1,-0.8 0.2,-1.5 0.2,-2.3 -0.1,-2.4 -0.7,-4.8 -1.8,-6.9 z m -3,7.2 c 0,0.6 0,1.3 -0.2,1.9 -0.7,2.3 -2.1,4.3 -4,5.8 l -2.2,1.6 c 0,-1.3 -0.2,-3.8 -0.4,-8.4 0,-1.2 0,-3 -0.2,-5.3 -0.2,-2.4 0,-3.9 -0.2,-4.3 V 523 h 0.4 c 3,1.2 5.3,3.7 6.3,6.8 0.4,1.2 0.5,2.4 0.5,3.6 z"
   class="st0" />
	</g><g
       id="Calque_1_5_">
		<path
   style="fill:#1e1e1c"
   id="path83"
   d="m 756.5,430.9 c 0.5,-4 0.2,-8 -0.9,-11.8 -1.3,-3.1 -4.7,-2.4 -8.2,-0.6 -4.1,-7.3 -8.7,-14.3 -13.7,-21 -4.9,-7.2 -10.7,-13.8 -17.2,-19.7 -5.9,-4.6 -13.2,-5.2 -17.9,1.3 -2.3,3.8 -4.3,7.7 -5.9,11.8 l -6.8,13.7 c -1.8,3.8 3.8,7.2 5.7,3.3 3.4,-7.1 6.8,-14.2 10.3,-21.3 1.4,-3 3.1,-6.8 6.9,-5.7 3.3,1.5 6.1,3.8 8.2,6.7 9.6,10.5 17.9,22 24.8,34.4 l -3,2.3 c -0.4,0.3 -0.6,0.7 -0.6,1.2 -0.3,0.7 -0.4,1.6 -0.2,2.4 0.8,3 5.2,5.2 7.5,6.8 2.3,1.6 6.4,5.5 9,4.3 2.8,-1.3 2,-6.1 2,-8.1 z"
   class="st0" />
		<path
   style="fill:#1e1e1c"
   id="path85"
   d="m 778.7,483.9 c -1.2,-8.7 -5.9,-17.2 -8.9,-25.3 -1.5,-3.9 -7.9,-2.2 -6.4,1.8 2.6,6.7 5.6,13.4 7.8,20.3 2,6.2 1.8,13.8 -5.9,15 -6.1,0.7 -12.2,0.9 -18.3,0.7 -5.5,0 -11,0 -16.4,-0.5 0,-1.2 0.1,-2.5 0.1,-3.7 0,-2.4 -0.3,-4.3 -3,-4.5 -3.7,-0.3 -7.8,1.8 -11.1,3.1 -2.4,0.9 -7.3,1.8 -8.2,4.8 -0.9,2.9 1.2,3.7 3,4.8 3.9,2.4 8,4.6 12.2,6.7 1.9,0.9 4.2,2.1 5.7,0 0.7,-1.4 1.1,-2.9 1,-4.4 6.9,0.5 13.8,0.6 20.7,0.4 6.5,-0.2 14.8,0.8 20.7,-2.4 5.9,-3.2 7.9,-10.5 7,-16.8 z"
   class="st0" />
		<path
   style="fill:#1e1e1c"
   id="path87"
   d="m 688.8,496.7 c -6.4,0.8 -12.9,1 -19.3,0.4 -4.4,-0.5 -13.8,-1.8 -16,-6.2 -1.4,-2.6 1.7,-7.5 2.7,-10 l 4.3,-10.6 6.2,-15.6 c 2.4,1 5.3,2.1 7,0.2 1.7,-2 1.4,-7.1 1.3,-9.7 -0.1,-2.7 0,-8.2 -2,-10.9 -0.6,-1 -1.8,-1.5 -3,-1.3 -0.5,-0.1 -1.1,0 -1.5,0.4 -3.3,2.7 -6.3,5.7 -8.9,9.1 -1.3,1.7 -4.4,4.7 -3.2,7.2 1.1,1.5 2.6,2.5 4.3,3 -2.8,6.6 -5.5,13.3 -8.2,20 -1.7,4.3 -3.8,8.7 -5.2,13.1 -1.2,3.1 -0.8,6.6 1,9.3 3.7,5.2 11.8,7.3 17.7,8.3 7.6,1 15.3,1 22.9,0 4.1,-0.5 4.2,-7.1 -0.1,-6.7 z"
   class="st0" />
		<path
   style="fill:#1e1e1c;stroke:#1e1e1c;stroke-width:0.25;stroke-miterlimit:10"
   id="path89"
   d="m 726,424.9 c -0.8,-0.4 -1.7,-0.6 -2.5,-0.5 h -1.6 -2.9 -3.5 c -6.2,0.2 -6.8,0.3 -7,0.3 h -0.4 c -0.7,0.2 -1.3,0.8 -1.4,1.6 -0.2,0.8 0.1,1.6 0.6,2.2 0.2,0.2 0.5,0.3 0.8,0.3 h 7 6.1 c -0.6,1.6 -2.6,6.1 -8.1,17.7 -3.8,8 -6.7,14.3 -8.6,18.9 -1.2,2.3 -2.1,4.8 -2.6,7.4 0,2.4 1.6,2.7 2.3,2.7 1.7,0 2.5,-2.3 2.7,-3 0.5,-1.8 1.2,-3.6 1.9,-5.3 1.9,-4.6 3.4,-8 4.3,-9.9 3,-6.1 5.9,-12.3 8.7,-18.4 4.8,-11 4.9,-11.8 5,-12.2 -0.1,-0.7 -0.4,-1.4 -0.8,-1.8 z"
   class="st1" />
		
		
		
		
		
	<g
   aria-label="AUTRES"
   style="font-style:normal;font-weight:normal;font-size:67.56177521px;line-height:1.25;font-family:sans-serif;letter-spacing:0px;word-spacing:0px;fill:#000000;fill-opacity:1;stroke:none;stroke-width:1"
   id="text959"><path
     d="m 645.40923,562.27765 q 0,-0.33781 0.0676,-0.8783 0.0676,-0.54049 0.20269,-1.21611 0.27024,-1.55392 1.14855,-6.013 0.8783,-4.45908 2.36466,-11.82331 1.4188,-7.16155 2.22954,-11.28282 0.8783,-4.18883 1.01342,-4.66176 0.27025,-1.14855 1.48636,-2.09441 1.21612,-1.01343 2.43223,-1.01343 0.94586,0 1.48636,0.54049 0.54049,0.5405 1.55392,3.31053 1.01342,2.77003 2.16197,8.03985 0.27025,1.14855 0.5405,2.2971 0.33781,1.14855 0.67562,2.49979 0.81074,3.24296 1.82416,7.16155 1.08099,3.85102 2.2971,8.71546 1.62149,6.48594 1.62149,7.63449 0,0.94586 -0.67562,1.62148 -0.60806,0.67562 -1.55392,0.67562 -1.4188,0 -2.16198,-1.75661 -0.33781,-0.8783 -1.68904,-4.93201 -1.35124,-4.05371 -2.63491,-11.01257 -0.13513,-0.81074 -0.33781,-1.4188 -0.13512,-0.60805 -0.27025,-0.8783 -1.01342,-0.20268 -5.33738,-0.20268 h -0.40537 q -0.13512,0.54049 -0.27025,1.35123 -0.13512,0.81074 -0.40537,2.02685 -0.27024,1.21612 -0.54049,2.43223 -0.27025,1.21611 -0.47293,2.49978 -0.13513,0.87831 -0.40537,2.22954 -0.20269,1.28368 -0.47294,2.63491 -0.20268,1.35124 -0.54049,2.56735 -0.27025,1.21611 -0.60806,1.89173 -0.67561,1.4188 -2.02685,1.4188 -0.94586,0 -1.62148,-0.67562 -0.67562,-0.74318 -0.67562,-1.68905 z m 8.98572,-21.5522 h 1.89173 q 0.54049,0 0.94586,0 0.47293,0 0.81074,0.0676 -0.0676,-0.20269 -0.13512,-0.40537 -0.0676,-0.20269 -0.13512,-0.47293 l -0.0676,-0.33781 q -0.0676,-0.33781 -0.27024,-0.94587 -0.13513,-0.67562 -0.40537,-1.55392 -0.33781,-0.94586 -0.47294,-1.82417 -0.13512,-0.8783 -0.40537,-1.82416 l -0.20268,-0.81075 q -0.13513,0.5405 -0.27025,1.14855 -0.0676,0.60806 -0.20269,1.28368 -0.47293,1.95929 -0.74317,3.37809 -0.20269,1.41879 -0.33781,2.2971 z"
     style="font-style:normal;font-variant:normal;font-weight:normal;font-stretch:normal;font-family:PreciousPlastic;-inkscape-font-specification:PreciousPlastic;stroke-width:1"
     id="path965" /><path
     d="m 673.31212,525.38892 v -0.13512 q 1.01343,-0.81074 1.89173,-0.81074 0.67562,0 1.08099,0.33781 0.40537,0.33781 0.60806,0.8783 0.27024,0.47293 0.33781,1.08099 0.13512,0.60806 0.20268,1.14855 0.13512,0.74318 0.20269,2.43222 0.0676,1.68905 0.20268,4.39152 0.13513,1.48636 0.20269,3.1754 0.0676,1.68905 0.20268,3.7159 0.33781,4.05371 0.60806,7.02643 0.33781,2.97271 0.8783,4.66176 0.27025,0.8783 0.67562,1.89173 0.47293,1.01342 1.08099,1.89173 0.60805,0.8783 1.41879,1.41879 0.81075,0.5405 1.82417,0.5405 1.08099,0 2.02686,-0.60806 0.94586,-0.67562 1.62148,-1.62148 0.74318,-1.01343 1.14855,-2.16198 0.47293,-1.14855 0.54049,-2.16197 0.0676,-0.81075 0.0676,-2.97272 0.0676,-2.22954 0.20269,-5.94544 0.20269,-7.02642 0.20269,-13.98529 0,-0.20268 0,-0.3378 0.0676,-0.20269 0.0676,-0.33781 v -0.40537 q -0.27025,-0.27025 -0.27025,-1.08099 0,-0.87831 0.54049,-1.48636 0.5405,-0.67562 1.4188,-0.81074 1.21611,0 1.75661,0.47293 0.54049,0.40537 0.94586,1.4188 0.40537,1.01342 0.40537,9.86402 0,15.5392 -0.81074,18.3768 -0.47293,1.62148 -1.35123,3.1754 -0.87831,1.55392 -2.16198,2.77004 -1.21611,1.21611 -2.77003,1.95929 -1.55392,0.67561 -3.37809,0.67561 -3.58078,0 -5.74275,-2.02685 -2.16198,-2.09441 -3.37809,-5.06713 -1.14855,-2.97272 -1.62148,-6.28325 -0.40537,-3.37809 -0.5405,-5.94543 0,-0.40537 -0.0676,-1.75661 -0.0676,-1.35123 -0.20269,-3.04028 l -0.0676,-1.21611 q -0.0676,-0.8783 -0.13512,-1.68905 0,-0.81074 -0.0676,-1.48635 l -0.0676,-1.75661 q -0.0676,-1.89173 -0.20269,-3.37809 -0.0676,-1.55392 -0.0676,-2.43222 0,-1.4188 0.54049,-2.36467 z"
     style="font-style:normal;font-variant:normal;font-weight:normal;font-stretch:normal;font-family:PreciousPlastic;-inkscape-font-specification:PreciousPlastic;stroke-width:1"
     id="path967" /><path
     d="m 699.72868,525.32136 q 0,-1.7566 1.62148,-2.16197 0.60806,-0.13513 3.44565,-0.0676 2.8376,0 7.29667,-0.40537 0.5405,-0.0676 1.21612,-0.0676 0.74318,0 1.35123,0 h 1.35124 q 1.28367,0 2.2971,0.33781 1.08099,0.33781 1.08099,1.89173 v 0.20269 q 0,0.60805 -0.47294,1.14855 -0.47293,0.54049 -1.08098,0.8783 -0.27025,0.13512 -1.08099,0.27025 -0.74318,0.0676 -1.62149,0.13512 -0.8783,0 -1.68904,0.0676 -0.81074,0 -1.21611,0 h -0.40537 v 17.02557 q 0,8.91815 -0.20269,13.98529 -0.13512,4.99957 -0.47293,5.54006 -0.20269,0.33781 -0.60806,0.40537 -0.40537,0.0676 -1.08098,0.0676 -0.40538,0 -0.87831,0 -0.40537,-0.0676 -0.74318,-0.3378 -0.54049,-0.60806 -0.74318,-1.28368 -0.20268,-0.74318 -0.20268,-1.62148 0,-0.94587 0.0676,-2.09442 0.0676,-1.21611 0.0676,-2.83759 0,-2.2971 0,-4.45908 0.0676,-2.22954 0.0676,-4.45908 -0.0676,-2.16197 -0.0676,-4.25639 0.0676,-2.09441 0.0676,-4.18883 l 0.0676,-11.35038 h -1.89172 q -1.68905,0 -2.77004,-0.0676 -1.01342,-0.0676 -1.48636,-0.33781 -1.28367,-0.67561 -1.28367,-1.95929 z"
     style="font-style:normal;font-variant:normal;font-weight:normal;font-stretch:normal;font-family:PreciousPlastic;-inkscape-font-specification:PreciousPlastic;stroke-width:1"
     id="path969" /><path
     d="m 723.51041,552.54876 v -5.67519 q 0,-1.21611 0,-2.16198 0.0676,-1.01342 0.0676,-1.7566 0.20269,-6.89131 0.20269,-14.45822 0.0676,-2.56735 0.20268,-4.32396 0.13512,-1.82417 0.33781,-2.83759 l -0.33781,-0.47293 0.5405,-0.5405 q 0.81074,-0.81074 1.89172,-0.81074 1.01343,0 2.09442,0.40537 1.14855,0.33781 2.22954,0.94587 1.08099,0.60805 2.02685,1.35123 0.94587,0.74318 1.55392,1.4188 2.63491,2.90515 3.51321,5.74275 0.87831,2.83759 0.87831,6.55349 v 0.74318 q 0,1.14855 -0.5405,2.49979 -0.47293,1.35123 -1.28367,2.63491 -0.81074,1.28367 -1.82417,2.2971 -1.01342,1.01342 -2.02685,1.55392 l 0.13512,0.13512 q 0.0676,0 0.0676,0.0676 0,0 0.0676,0 l 0.0676,0.0676 q 1.7566,1.35124 3.37809,4.2564 0.33781,0.60805 1.01342,2.22953 0.67562,1.62149 1.35124,3.44565 0.67562,1.82417 1.14855,3.51322 0.54049,1.62148 0.54049,2.2971 0,0.94586 -0.74318,1.7566 -0.67561,0.74318 -1.62148,0.74318 h -0.27025 q -0.20268,0 -0.47293,-0.13512 -0.20268,-0.13512 -0.54049,-0.27025 v 0.0676 q -0.0676,-0.0676 -0.13513,-0.13512 0,-0.0676 -0.0676,-0.13512 -0.20268,-0.0676 -0.33781,-0.20269 l 0.0676,-0.13512 q -0.94586,-1.48636 -1.95929,-4.86445 -0.40537,-1.35123 -0.94586,-2.83759 -0.5405,-1.55392 -1.35124,-2.97272 -0.74318,-1.4188 -1.7566,-2.56735 -0.94587,-1.21611 -2.22954,-1.89173 v 1.48636 q 0,1.21611 -0.0676,2.56735 0,1.28367 0.13512,2.63491 0.0676,0.8783 0.0676,1.89173 0,1.01342 0,2.02685 v 2.09441 q 0,0.94587 -0.0676,1.62149 0,0.67561 -0.0676,1.01342 -0.13513,0.74318 -0.81074,1.08099 -0.60806,0.27025 -1.28368,0.27025 -1.35123,0 -1.82416,-0.67562 -0.40538,-0.74318 -0.67562,-1.89173 -0.0676,-0.27025 -0.0676,-0.74318 0,-0.47293 0,-1.14855 0,-1.4188 -0.20269,-3.64833 -0.0676,-0.74318 -0.0676,-1.75661 0,-1.01343 0,-2.36466 z m 5.06713,-11.28282 v 0.60806 h 0.13513 l 0.27024,-0.13513 q 0.74318,-0.3378 1.28368,-0.47293 0.54049,-0.13512 0.67561,-0.27025 0.33781,-0.27024 0.81074,-0.81074 0.47294,-0.54049 1.01343,-1.28367 0.74318,-0.94587 0.8783,-1.48636 0.13513,-0.60806 0.13513,-2.02685 0,-3.44565 -1.14855,-5.81032 -1.08099,-2.36466 -3.91858,-4.12126 v 0.67561 q 0,1.21612 -0.0676,2.63491 0,1.35124 0,2.90516 0,2.09441 -0.0676,4.45908 0,2.2971 0,5.13469 z"
     style="font-style:normal;font-variant:normal;font-weight:normal;font-stretch:normal;font-family:PreciousPlastic;-inkscape-font-specification:PreciousPlastic;stroke-width:1"
     id="path971" /><path
     d="m 744.85993,528.90214 q 0,-5.47251 0.27024,-6.013 0.74318,-1.14855 1.89173,-1.28368 1.14855,-0.20268 3.17541,-0.20268 h 0.47293 q 0.40537,-0.0676 0.8783,-0.0676 0.47293,0 1.01343,0 h 1.08099 q 0.74318,0 1.48636,0.0676 0.74318,0 1.28367,0.27025 0.60806,0.27024 0.94586,0.81074 0.40538,0.54049 0.40538,1.48636 h 0.13512 q -0.47293,0.81074 -1.35124,1.28367 -0.8783,0.47293 -1.89173,0.67562 -1.01342,0.20268 -2.09441,0.27025 -1.01343,0 -1.89173,0 -0.27025,0 -0.5405,0.0676 -0.27024,0 -0.54049,0 l 0.0676,6.68861 q 0.0676,2.8376 0.13513,4.86445 0.0676,1.95929 0.0676,2.97272 v 0.60806 q 3.24296,0.0676 3.24296,2.36466 0,1.41879 -1.01342,2.02685 -0.94587,0.54049 -2.09442,0.60806 v 1.08098 q -0.0676,0.33781 -0.0676,0.74318 0,0.33781 0,0.87831 0,1.62148 0,3.37809 0.0676,1.68904 0.20268,3.64833 0.0676,0.74318 0,1.4188 0,0.67562 0.13513,1.08099 0.0676,0.20268 0.0676,0.60805 0.33781,0.0676 0.81074,0.13513 0.5405,0 1.28368,0 3.10784,0 4.0537,0.40537 1.01343,0.40537 1.01343,1.7566 v 0.13513 q 0,0.74318 -1.01343,2.56735 l -4.72932,-0.0676 h -0.60806 q -1.82417,0 -2.77003,0 -0.94587,-0.0676 -1.48636,-0.20268 -0.47293,-0.13513 -0.67562,-0.47293 -0.20268,-0.40538 -0.47293,-1.01343 -0.13512,-0.33781 -0.27025,-2.70247 -0.0676,-2.36466 -0.20268,-5.74275 -0.0676,-3.44565 -0.20269,-7.4318 -0.0676,-3.98614 -0.13512,-7.56692 0,-3.64833 -0.0676,-6.41837 0,-2.77003 0,-3.71589 z"
     style="font-style:normal;font-variant:normal;font-weight:normal;font-stretch:normal;font-family:PreciousPlastic;-inkscape-font-specification:PreciousPlastic;stroke-width:1"
     id="path973" /><path
     d="m 761.88546,562.14253 q 0,-1.21611 0.81074,-1.82417 0.8783,-0.67562 4.66176,-1.48636 3.04028,-0.67561 4.66176,-2.97272 1.62149,-2.2971 1.62149,-5.20225 0,-1.82417 -0.27025,-3.17541 -0.27025,-1.35123 -0.81074,-2.43222 -0.5405,-1.14855 -1.48636,-2.22954 -0.8783,-1.08099 -2.09442,-2.2971 -1.01342,-1.01342 -1.82416,-1.7566 -0.74318,-0.74318 -1.21612,-1.21612 -1.55392,-1.55392 -2.70247,-3.37808 -1.14855,-1.89173 -1.14855,-4.12127 0,-1.68905 0.74318,-3.37809 0.74318,-1.68905 1.95929,-3.04028 1.21612,-1.4188 2.8376,-2.22954 1.62148,-0.8783 3.31053,-0.8783 2.2971,0 2.2971,2.16197 0,1.08099 -0.40537,1.4188 -0.33781,0.33781 -1.9593,0.94587 -1.7566,0.67561 -2.90515,1.95929 -1.14855,1.21611 -1.14855,3.1754 0,0.47293 0.13512,0.94587 0.13512,0.47293 0.27025,0.81074 0,0.0676 0.60805,0.74318 0.67562,0.67561 1.48636,1.48636 0.81074,0.81074 1.62149,1.55392 0.81074,0.74318 1.08098,1.08098 l 0.87831,0.81075 q 1.01342,0.94586 1.68904,1.62148 0.67562,0.67562 0.8783,1.01342 1.28368,2.29711 2.16198,4.79689 0.94587,2.49979 0.94587,5.74275 0,3.51321 -1.9593,6.75618 -1.89173,3.1754 -4.932,4.93201 -0.47294,0.20268 -1.48636,0.54049 -1.01343,0.33781 -2.16198,0.67562 -1.08099,0.27025 -2.16198,0.5405 -1.08099,0.20268 -1.68904,0.20268 -2.2971,0 -2.2971,-2.2971 z"
     style="font-style:normal;font-variant:normal;font-weight:normal;font-stretch:normal;font-family:PreciousPlastic;-inkscape-font-specification:PreciousPlastic;stroke-width:1"
     id="path975" /></g></g><g
       id="Calque_1_7_">
		<path
   style="fill:#1e1e1c;stroke:#1e1e1c;stroke-width:0.25;stroke-miterlimit:10"
   id="path102"
   d="m 515.2,453.5 c -1.1,-2.1 -2.7,-3.8 -4.7,-5.1 -2,-1.5 -4.2,-2.5 -6.6,-3 -0.5,-0.1 -1,-0.1 -1.5,0 -2.7,0.1 -5.2,1.3 -7,3.3 v 0 c 0.2,-3.2 0.6,-6.4 1.2,-9.5 0.6,-3.3 1.4,-6.6 2.5,-9.8 1.9,-4.6 4.3,-6.9 7.2,-6.9 1.3,0.1 2.6,-0.2 3.6,-1 v 0 c 0.4,-0.5 0.6,-1.2 0.3,-1.8 -0.2,-0.7 -0.8,-1.1 -1.5,-1.3 -0.8,-0.2 -1.5,-0.3 -2.3,-0.2 -0.8,0 -1.7,0.1 -2.5,0.2 -4.1,1.2 -7.4,4.3 -8.9,8.2 -2.3,5.7 -3.7,11.6 -4.3,17.7 -0.3,2.8 -0.5,5.6 -0.4,8.5 -0.1,3.1 0.1,6.1 0.5,9.2 0.4,4 2,7.7 4.5,10.8 1.7,1.7 3.9,2.9 6.2,3.5 1,0.3 2.1,0.4 3.2,0.4 3,-0.2 5.7,-1.6 7.6,-4 1.1,-1.2 2,-2.6 2.6,-4.1 0.6,-2 0.9,-4 1,-6.1 0.1,-2.3 0.2,-3.7 0.2,-4.3 0.1,-1.4 -0.3,-3.1 -0.9,-4.7 z m -3.7,5.4 c 0,1.2 -0.1,2.3 -0.3,3.5 -0.2,1.8 -0.5,3.7 -1,5.4 -0.5,1.1 -1.2,2.1 -2.1,3 -0.9,1 -2.1,1.7 -3.5,1.8 -0.7,0 -1.3,-0.1 -1.9,-0.3 -2.5,-0.6 -4.5,-2.4 -5.5,-4.7 -0.6,-1.2 -0.8,-2.4 -0.9,-3.7 0,-0.2 0,-1.2 0.4,-3.9 0.3,-2.5 0.9,-4.9 1.9,-7.2 0.5,-1.2 1.5,-2.1 2.8,-2.5 0.4,-0.1 0.8,-0.2 1.2,-0.2 0.8,0 1.6,0.2 2.3,0.6 1.9,0.7 3.6,1.9 5,3.3 1.1,1.3 1.6,3.1 1.6,4.9 z"
   class="st1" />
		<path
   style="fill:#1e1e1c"
   id="path104"
   d="m 543,419.6 c -0.8,-4.5 -4.6,-3.8 -8.2,-2.1 -3.6,-8.3 -7.9,-16.3 -12.6,-23.9 -2.9,-4.7 -6,-9.3 -9.4,-13.6 -2.2,-3.5 -6.3,-5.4 -10.4,-4.8 -4.2,1 -6.4,5.1 -8.6,8.4 -3,4.6 -6.3,9.1 -9.5,13.6 -6,8 -11.6,16.4 -16.6,25 -2.1,3.7 3.6,7 5.7,3.3 4.1,-7.1 8.6,-14 13.5,-20.5 5.1,-7.1 9.8,-14.5 14.9,-21.5 1.4,-1.8 2.5,-2.6 4.5,-1 1.5,1.4 2.8,3.1 3.9,4.8 2.7,3.8 5.3,7.7 7.7,11.8 4.1,6.8 7.8,13.9 11,21.1 -1.8,0.6 -3.4,1.8 -4.4,3.4 -1,2.5 1.4,4.9 3,6.6 2.2,2.7 4.7,5.1 7.5,7.1 1.6,1.2 4.1,3.3 6.1,1.7 2,-1.6 1.7,-5.7 1.9,-7.8 0.5,-3.7 0.5,-7.7 0,-11.6 z"
   class="st0" />
		<path
   style="fill:#1e1e1c"
   id="path106"
   d="m 565.3,482 c -2.9,-7.9 -6.3,-15.6 -10.2,-23.1 -2,-3.8 -7.7,-0.4 -5.7,3.3 3.2,6.2 6.1,12.6 8.6,19.2 1.1,3 2.2,5.9 3.2,8.9 1.2,3.7 1.1,6.2 -3,7 -6.6,0.9 -13.2,1.3 -19.8,1.4 -5.1,0.3 -10.1,0.8 -15.2,1 0,-0.9 0,-1.8 0,-2.6 -0.2,-2.5 -0.6,-5.9 -3.6,-6.2 -3,-0.3 -7.1,2 -9.9,3.3 -2.8,1.3 -7.6,2.7 -9,5.4 -1.2,2.3 0.4,4.3 2.3,5.3 3.9,1.9 8,3.6 12.1,5 1.9,0.8 5,2.3 6.5,0 v -0.2 0 c 0.1,-0.1 0.1,-0.2 0.2,-0.3 0.4,-1 0.7,-2 0.9,-3.1 6.9,-0.3 13.8,-0.9 20.7,-1.4 4.4,-0.3 8.9,-0.4 13.2,-0.9 3,-0.1 6,-1 8.5,-2.6 6.4,-4.8 2.4,-13.4 0.2,-19.4 z"
   class="st0" />
		<path
   style="fill:#1e1e1c"
   id="path108"
   d="m 475.7,499.6 c -8.1,0.1 -16.1,-0.4 -24.1,-1.7 -3.8,-0.5 -7.4,-1.5 -10.9,-3 -4.6,-2.3 -3.6,-6.5 -1.6,-10.4 3.9,-7.6 8.4,-14.8 12.5,-22.2 1.4,0.8 2.9,1.5 4.5,1.9 1.6,0.7 3.5,0.1 4.2,-1.5 0.2,-0.3 0.3,-0.7 0.3,-1.1 0.7,-2.2 1.1,-4.6 1,-6.9 0.6,-3.3 0.9,-6.6 1.1,-9.9 0.2,-1.4 -0.6,-2.8 -2,-3.2 -1.8,-0.6 -3.8,0.7 -5.3,1.4 -2.9,1.5 -5.8,3.2 -8.5,5.1 -2.6,1.8 -6.6,4 -3.8,7.5 0.9,1.1 1.9,2.1 3,3 -1.7,3.2 -3.5,6.3 -5.3,9.5 -3.6,6.5 -9.9,14.1 -10.1,21.8 -0.3,9.2 8.9,12.1 16.2,13.8 9.5,1.8 19.1,2.7 28.8,2.5 1.8,0 3.3,-1.5 3.3,-3.3 0,-1.8 -1.5,-3.3 -3.3,-3.3 z"
   class="st0" />
		<path
   style="fill:#1e1e1c"
   id="path110"
   d="m 490,520.6 c -2.1,-1.7 -4.7,-2.7 -7.3,-3 h -0.5 c -1.1,0.2 -2,1.1 -2.1,2.2 -0.1,0.7 -0.1,1.5 0,2.2 0,2.6 0,6.1 0.3,10.5 0,2.6 0.2,8.1 0.3,16.4 0.1,13.5 0.3,14.1 0.3,14.4 0.1,0.6 0.3,1.1 0.7,1.5 0.4,0.4 1,0.7 1.5,0.7 0.8,-0.1 1.6,-0.4 2.2,-1.1 l 0.3,-0.4 -0.1,-8.4 v -4.2 c 0,-3 0.1,-3.6 0,-3.6 0.5,-0.5 1,-0.9 1.6,-1.2 1,-0.7 2.2,-1.5 3.3,-2.4 1.6,-1.2 3,-2.7 4.1,-4.4 0.9,-1.5 1.5,-3.1 1.8,-4.8 0.1,-0.8 0.2,-1.5 0.2,-2.3 0,-2.4 -0.6,-4.8 -1.7,-6.9 -1.2,-2.1 -2.8,-3.9 -4.9,-5.2 z m 1.7,12.5 c 0,0.6 -0.1,1.3 -0.2,1.9 -0.7,2.3 -2.1,4.4 -4,5.9 -0.8,0.7 -1.5,1.2 -2.1,1.6 0,-1.4 -0.2,-3.8 -0.4,-8.4 0,-1.2 -0.1,-3 -0.2,-5.3 0,-2.4 0,-3.9 -0.2,-4.3 v -1.7 h 0.4 c 3,1.2 5.2,3.6 6.2,6.6 0.4,1.2 0.6,2.5 0.5,3.7 z"
   class="st0" />
		<path
   style="fill:#1e1e1c"
   id="path112"
   d="m 515.8,540.2 c -1.2,-1.3 -2.5,-2.6 -3.8,-3.8 -2,-1.6 -3.8,-3.4 -5.4,-5.5 -0.3,-0.6 -0.4,-1.3 -0.4,-1.9 0,-1.5 0.5,-2.9 1.5,-4 0.8,-0.8 1.8,-1.5 3,-1.9 0.6,-0.2 1.2,-0.4 1.7,-0.8 0.5,-0.4 0.7,-0.9 0.7,-1.5 0,-1.7 -1.7,-2.4 -3.8,-1.7 -2.1,0.6 -4,1.8 -5.3,3.5 -1.5,1.7 -2.4,4 -2.3,6.3 0,0.4 0,0.9 0,1.3 0.3,2.3 1.5,4.4 3.3,5.9 0.4,0.4 1.8,1.7 4,4 1.1,1.1 2,2.2 3,3.4 0.6,0.8 1,1.7 1.3,2.6 0.6,1.7 0.9,3.6 0.8,5.4 0,0.9 -0.1,1.8 -0.3,2.6 -0.4,1.6 -1.1,3.1 -2.2,4.3 -1.2,1.2 -2.7,2 -4.3,2.4 -4,0.9 -4.7,1.3 -4.9,1.5 -0.5,0.4 -0.8,1 -0.7,1.7 0,0.5 0.1,1 0.4,1.4 0.4,0.6 1.1,0.9 1.8,0.8 0.9,0 1.8,-0.1 2.7,-0.4 l 2.3,-0.7 c 1,-0.3 2,-0.6 3,-1.1 1.2,-0.6 2.2,-1.4 3.1,-2.4 2.7,-2.6 4.3,-6.2 4.3,-10 0,-4.2 -1.2,-8.1 -3.5,-11.4 z"
   class="st0" />
	</g></g></g>
</svg>