<?xml version="1.0" encoding="UTF-8" standalone="no"?>
<svg
   xmlns:dc="http://purl.org/dc/elements/1.1/"
   xmlns:cc="http://creativecommons.org/ns#"
   xmlns:rdf="http://www.w3.org/1999/02/22-rdf-syntax-ns#"
   xmlns:svg="http://www.w3.org/2000/svg"
   xmlns="http://www.w3.org/2000/svg"
   id="svg146"
   xml:space="preserve"
   style="enable-background:new 0 0 1000 435.2;"
   viewBox="0 0 1000 435.2"
   y="0px"
   x="0px"
   version="1.1"><metadata
   id="metadata152"><rdf:RDF><cc:Work
       rdf:about=""><dc:format>image/svg+xml</dc:format><dc:type
         rdf:resource="http://purl.org/dc/dcmitype/StillImage" /><dc:title></dc:title></cc:Work></rdf:RDF></metadata><defs
   id="defs150">
	
	
	
	
	
	
	
	
	
	
	
	
</defs>
<style
   id="style2"
   type="text/css">
	.st0{fill:#FFE87B;}
	.st1{fill:#1E1E1C;}
	.st2{fill:#1E1E1C;stroke:#1E1E1C;stroke-width:0.25;stroke-miterlimit:10;}
	.st3{fill:#1E1E1C;stroke:#1E1E1C;stroke-width:0.15;stroke-miterlimit:10;}
	.st4{fill:#FFFFFF;}
	.st5{stroke:#1E1E1C;stroke-miterlimit:10;}
	.st6{fill:none;stroke:#1E1E1C;stroke-width:3;stroke-linecap:round;stroke-linejoin:round;stroke-miterlimit:10;}
	.st7{stroke:#000000;stroke-width:1.5;stroke-miterlimit:10;}
	.st8{fill:#010202;}
	.st9{stroke:#000000;stroke-miterlimit:10;}
</style>


<g
   id="g1193"><g
     id="Calque_2">
</g><path
     id="path5"
     d="m 631.8,211.6 c 1.2,13.3 2.6,26.6 2.5,40 0,2.4 3.7,2.4 3.8,0 0.1,-13.4 -1.3,-26.7 -2.5,-40 -0.3,-2.3 -4,-2.4 -3.8,0 z" /><g
     id="g13">
		<path
   id="path7"
   d="m 849.9,146.2 c 0,0 -0.1,-0.1 -0.1,-0.1 0,-0.1 -0.1,-0.1 -0.1,-0.2 0,0 0,-0.1 -0.1,-0.1 -0.2,-0.2 -0.4,-0.4 -0.7,-0.5 -9.3,-3.5 -18.5,-7.4 -27.8,-11.1 -4.4,-1.8 -8.8,-3.5 -13.2,-5.2 -4.5,-1.6 -9,-3 -13.5,-4.6 -5.7,-2 -11.3,-4.1 -16.7,-6.9 0,0 0,0 0,0 -0.4,-0.3 -0.9,-0.4 -1.4,-0.2 -12.7,5.1 -25.6,9.6 -38.6,13.8 -1.1,-0.1 -2.1,0.6 -2.2,1.8 -0.4,18.7 -1,37.4 -1.7,56 -9.8,-2.6 -19.9,-4.6 -29.9,-6.4 -6,-1.1 -12,-2 -18.1,-3 -0.6,-0.1 -1.2,0 -1.6,0.3 -0.4,-0.2 -1,-0.1 -1.5,0.2 -16.4,9.7 -32.8,19.3 -49.4,28.6 -1.1,0.6 -1.1,1.9 -0.5,2.7 -0.3,0.9 0,2 1.2,2.2 6.4,1.3 12.9,2.5 19.3,3.8 6.1,1.2 12.2,2.3 18,4.8 5.2,2.2 10.1,5 15.2,7.3 5.4,2.4 10.9,4 16.8,4.4 6.2,0.4 12.5,0 18.6,1.6 0,0.1 0,0.1 0,0.2 0.9,14.6 -0.1,29.3 -2.8,43.7 -10.2,-4 -20.4,-7.9 -30.8,-11.1 -5.4,-1.7 -10.8,-3.1 -16.3,-4.3 -5.5,-1.2 -11,-2.4 -16.3,-4.4 -5.8,-2.2 -11.2,-5.3 -16.6,-8.4 -2.1,-1.2 -4,2 -1.9,3.2 4.9,2.8 9.7,5.5 14.9,7.7 5.2,2.2 10.6,3.6 16.1,4.8 11.3,2.5 22.3,5.7 33.1,9.6 6.1,2.2 12.2,4.6 18.3,7 0.2,0.1 0.3,0.1 0.5,0.1 0.6,0.2 1.3,0.2 1.9,-0.4 13.8,-12.5 27,-25.6 39.7,-39.3 0.1,-0.2 0.2,-0.3 0.3,-0.5 0.5,-0.2 1,-0.5 1.3,-1.2 2.1,-6.3 1.8,-13.1 2.5,-19.6 0.2,-2 0.6,-3.9 1,-5.9 8.4,2.3 16.8,4.9 25.2,7.4 4.3,1.3 8.6,2.5 12.9,3.7 4,1.1 7.9,0.2 11.9,0.3 0.1,0 0.2,0 0.3,0 0.5,0.4 1.2,0.5 1.9,0.1 8.3,-4.9 16.6,-9.8 24.8,-14.8 1.1,0.5 2.7,0 2.7,-1.6 0.1,-8.5 0.9,-16.9 2.2,-25.3 0.6,-4 1.3,-8.1 1.5,-12.1 0.3,-4.1 0.3,-8.3 0.3,-12.4 0,-4.8 0.1,-9.6 0.1,-14.4 0.1,-0.5 -0.3,-1 -0.7,-1.3 z M 804.8,132 c 9.3,3.3 18.5,7.2 27.6,10.9 3.7,1.5 7.4,3 11.1,4.4 -0.6,0.4 -1.2,0.7 -1.8,1.1 -2.1,1.2 -4.2,2.5 -6.3,3.7 -4.2,2.5 -8.3,4.9 -12.5,7.4 -0.1,-0.1 -0.2,-0.2 -0.3,-0.3 -2.1,-1.7 -5.2,-2.2 -7.7,-3 -6.5,-2 -12.9,-4.3 -19.1,-6.9 0.9,-1.4 1.3,-3.1 0.4,-4.7 -1.1,-2.2 -3.8,-3.1 -6.1,-3.3 -2.4,-0.3 -4.9,0.3 -7.3,0.9 -2.6,0.7 -5.1,1.7 -7.7,2.6 0,0 -0.1,0 -0.1,0 -0.3,-0.1 -0.5,-0.1 -0.8,-0.2 -1.1,-0.3 -2.3,-0.6 -3.4,-0.9 -2.1,-0.6 -4.2,-1.2 -6.3,-1.9 -4.2,-1.3 -8.4,-2.8 -12.6,-4.4 -3.1,-1.2 -6.2,-2.5 -9.2,-3.9 11.4,-3.8 22.7,-7.8 33.9,-12.3 9.1,4.6 18.7,7.5 28.2,10.8 z m -5.6,60.9 c -0.5,-3.1 -3.8,-4 -6.4,-4.7 -5.9,-1.8 -12.2,-2.4 -17.7,-5.1 -2.6,-1.3 -5.2,-2.8 -8.2,-2.3 -2.8,0.4 -4.6,2.5 -5.2,5.2 -0.2,1.1 -0.2,5.6 -2.2,5.3 -0.5,-0.1 -1.1,-0.6 -1.6,-0.8 -0.5,-0.2 -1,-0.4 -1.5,-0.7 -1.1,-0.5 -1.8,-0.9 -1.9,-2.1 -0.3,-3.8 -0.3,-7.7 -0.4,-11.5 -0.1,-1.9 -0.1,-3.8 -0.2,-5.7 0,-1 -0.1,-2 -0.1,-2.9 0,-0.4 -0.1,-1.1 0,-1.6 0,0 0.1,0 0.2,0 0.6,0.1 1.1,0.1 1.7,0.3 0.8,0.2 1.6,0.4 2.4,0.6 1.7,0.5 3.3,1.2 4.9,1.8 3.6,1.5 7.1,3.1 10.7,4.6 1,0.4 2.5,0.2 2.8,-1.1 0.8,-4.5 1.3,-9.1 1.4,-13.7 0.1,-2.4 0.1,-4.7 0,-7.1 0,-1 0,-2.3 -0.2,-3.4 3.2,-1.2 6.6,-2.5 9.9,-2.8 1.6,-0.1 3.4,-0.1 4.8,0.8 1.2,0.9 -0.3,2.3 -1,3.1 -0.7,0.8 -0.6,1.7 -0.1,2.4 -0.7,3.3 -1.2,6.6 -1.6,10 -0.4,2.9 -1,6.2 -0.1,9.1 0.9,3 3.3,4.3 5.9,5.7 2.9,1.6 5.7,3.2 8.4,5 2.3,1.5 5.3,2.9 5.3,6 0,1.4 -0.3,2.9 -0.6,4.3 -0.3,1.7 -0.6,3.4 -0.9,5.1 -0.3,1.6 -0.6,3.2 -0.9,4.9 -0.2,0.9 -0.2,2.5 -1.4,2.6 -1.2,0.2 -2.9,-0.6 -4,-1 -0.7,-0.2 -1.4,-0.5 -2.1,-0.8 -0.4,-0.2 -0.8,-0.4 -1.2,-0.6 -0.2,-0.1 -0.4,-0.2 -0.5,-0.3 0,0 0,0 0,0 0,-0.6 0.4,-1.3 0.5,-1.8 0.2,-0.7 0.4,-1.5 0.6,-2.2 0.3,-1.7 0.7,-3.2 0.5,-4.6 z m -81.3,8.3 c 4,0.2 8.1,0.4 12,1.4 1.9,0.5 3.7,1.1 5.4,2.1 1,0.6 3.6,1.9 3,3.3 -0.3,0.8 -1.2,1.5 -1.8,2.1 -0.9,0.9 -1.7,1.8 -2.6,2.7 -1.7,1.8 -3.4,3.6 -5.2,5.3 -1.3,1.3 -2.7,3.4 -4.7,3.4 -2.1,0 -4.4,-0.7 -6.5,-1.2 -0.7,-0.2 -1.6,-0.6 -2.4,-0.7 0.4,-0.4 0.8,-0.9 1.2,-1.3 1.5,-1.7 3.2,-3.3 4.6,-5.1 1.2,-1.5 2.2,-3.6 1.2,-5.4 -1,-1.9 -3.1,-2.1 -5,-2.4 -4.8,-0.9 -9.5,-1.7 -14.3,-2.6 -4.3,-0.8 -9.3,-2.4 -13.6,-0.9 -4,1.4 -6.4,4.9 -9.9,7.1 -0.9,0.6 -1.8,1 -2.9,0.7 -1.1,-0.3 -2.2,-0.9 -3.3,-1.4 -1.1,-0.6 -2.2,-1.2 -3.3,-1.9 -0.5,-0.3 -1,-0.6 -1.5,-1 -0.1,-0.1 -0.2,-0.1 -0.2,-0.2 0.6,-0.3 1.3,-0.5 1.6,-0.7 1,-0.5 1.9,-0.9 2.9,-1.4 1.9,-1 3.8,-2.1 5.6,-3.2 3.5,-2.2 6.6,-5.2 11,-5.1 4.2,0.1 8.2,2 12.4,2.4 2.5,0.2 3.8,-1 5.5,-2.7 1.7,-1.8 3.4,-3.6 5.1,-5.4 0.2,-0.2 0.4,-0.5 0.4,-0.7 3.6,0.7 7.1,1.4 10.7,2.2 -2.3,2.5 -4.6,5 -6.9,7.5 -0.9,1.1 -0.2,3 1.5,3.1 z M 689.6,227 c -5.2,-2.2 -10.1,-5 -15.2,-7.3 -5.7,-2.6 -11.5,-4 -17.7,-5.2 -6.4,-1.2 -12.7,-2.5 -19.1,-3.7 15.7,-8.9 31.4,-18 46.9,-27.2 0.1,0 0.1,-0.1 0.2,-0.1 0,0 0,0 0,0 7.9,1.3 15.9,2.5 23.8,4 -0.9,0.9 -1.8,1.9 -2.7,2.8 -0.6,0.6 -1.1,1.2 -1.7,1.8 -0.8,0.8 -1.1,1.4 -2.3,1.3 -3.2,-0.2 -6.2,-1.5 -9.4,-2 -3.2,-0.6 -6.3,-0.5 -9.3,0.9 -2.9,1.3 -5.5,3.5 -8.2,5.2 -3,1.8 -6.1,3.2 -9.2,4.7 -1.2,0.5 -2.1,1.5 -2.1,2.9 0.1,1.8 1.7,2.7 3,3.6 2.6,1.8 5.7,3.6 8.8,4.5 3.3,1 6.2,-1.1 8.6,-3.1 2,-1.6 3.8,-3.7 6.3,-4.6 3.2,-1.1 6.9,0.1 10.1,0.7 3.6,0.6 7.1,1.3 10.7,1.9 1.8,0.3 3.6,0.6 5.3,1 0.7,0.1 1.4,0.4 2.1,0.4 0.1,0 0.2,0 0.3,0.1 0,0.3 -0.3,0.7 -0.4,0.9 -0.8,1.2 -1.9,2.3 -2.9,3.3 -1.3,1.4 -2.6,2.8 -3.8,4.3 -1,1.2 -1.2,2.8 0,4 1,1.1 2.6,1.4 4,1.8 1.6,0.4 3.3,0.8 4.9,1.1 1.7,0.3 3.5,0.7 5.3,0.2 1.4,-0.4 2.6,-1.3 3.6,-2.3 1.4,-1.3 2.7,-2.7 4,-4.1 1.4,-1.4 2.7,-2.9 4.1,-4.3 1.3,-1.3 2.9,-2.7 3.8,-4.4 1.9,-3.4 -0.9,-6.4 -3.6,-8.2 -4.7,-3 -10.3,-3.8 -15.9,-4.2 1.6,-1.7 3.1,-3.4 4.7,-5.1 0.3,-0.4 0.5,-0.8 0.5,-1.2 6.7,1.6 13.4,3.5 19.9,5.7 5.2,1.8 10.3,3.8 15.3,6.1 -12.2,10.3 -24.8,20.2 -37.7,29.6 -0.1,-0.1 -0.2,-0.1 -0.3,-0.1 -5.8,-1.9 -11.9,-1.8 -17.9,-2 -5.8,-0.3 -11.3,-1.4 -16.8,-3.7 z m 72.4,-4.1 c -0.7,6.1 -0.3,12.3 -2.2,18.2 -0.3,0.1 -0.5,0.2 -0.8,0.5 -11.4,12.3 -23.3,24.2 -35.7,35.6 2.3,-13.4 3,-27 2.3,-40.5 13.3,-9.6 26.2,-19.7 38.7,-30.3 0.3,5.5 -1.7,11.1 -2.3,16.5 z m 43,1.3 c -4.2,-1.2 -8.3,-2.4 -12.5,-3.6 -8.3,-2.5 -16.7,-5 -25,-7.3 0.6,-3.4 0.9,-6.9 0.2,-10.4 -0.1,-0.7 -0.6,-1.1 -1.1,-1.3 -0.1,-0.4 -0.4,-0.8 -0.9,-1.1 -9.1,-4.3 -18.6,-7.7 -28.3,-10.4 0.1,-0.2 0.2,-0.5 0.2,-0.8 0.7,-17.7 1.3,-35.5 1.7,-53.2 6.5,3 13.2,5.7 20,8 3.9,1.3 7.9,2.5 11.9,3.6 0.8,0.2 1.9,0.7 2.7,0.7 0,0 0.1,0 0.2,0.1 0.1,0.5 0.1,1.1 0.1,1.6 0.1,2.1 0.1,4.3 0.1,6.4 -0.1,4.2 -0.4,8.3 -1,12.5 -2.6,-1.1 -5.2,-2.2 -7.9,-3.4 -3.2,-1.4 -6.4,-2.7 -9.9,-3.2 -1.5,-0.2 -3.1,-0.3 -4.3,1 -1,1.1 -1.1,2.6 -1,3.9 0.1,3.7 0.2,7.4 0.4,11.1 0.1,1.8 0.1,3.6 0.2,5.4 0.1,1.8 -0.1,3.8 0.4,5.5 0.8,2.9 3.7,3.6 6,4.9 1.3,0.7 2.6,1.2 4.1,0.7 1.3,-0.4 2.3,-1.5 2.9,-2.6 0.7,-1.2 0.9,-2.6 1.1,-3.9 0.2,-1.2 0.2,-2.8 1.3,-3.5 2.5,-1.6 6.2,1.3 8.4,2.2 3.1,1.3 6.3,2.2 9.5,2.9 3.2,0.7 6.5,1.4 9.6,2.5 0.4,0.2 1.3,0.3 1.6,0.8 0.2,0.4 0.1,1 0,1.4 -0.3,1.7 -0.8,3.4 -1.3,5.2 -0.4,1.5 -0.5,3 0.8,4.2 1.2,1.1 3.2,1.7 4.7,2.3 2.6,1 6.4,2.5 8.9,0.4 1.1,-0.9 1.5,-2.3 1.8,-3.7 0.4,-1.9 0.7,-3.8 1,-5.7 0.3,-1.8 0.6,-3.6 1,-5.3 0.3,-1.7 0.7,-3.4 0.6,-5.2 -0.2,-4 -3,-6 -6,-8.1 -3.4,-2.3 -6.8,-4.3 -10.4,-6.2 -1.2,-0.6 -2.6,-1.3 -3.2,-2.6 -0.7,-1.5 -0.4,-3.4 -0.2,-5 0.4,-3.9 1,-7.9 1.7,-11.7 4.9,2 10,3.9 15,5.6 2.9,1 5.9,1.7 8.8,2.7 0.8,0.3 1.8,0.6 2.1,1.5 0.5,1.2 0.1,2.8 -0.1,4.1 -1.5,12.7 -3.3,25.3 -4.5,38 -0.6,6.6 -1.1,13.1 -1.2,19.7 -1.5,0.1 -2.9,0.2 -4.4,0.3 -2.3,-0.2 -3.9,-0.4 -5.8,-1 z m 41.6,-51.3 c -0.4,8.3 -2.3,16.4 -3.1,24.6 -0.4,4.1 -0.6,8.2 -0.7,12.3 -8.1,4.8 -16.1,9.6 -24.2,14.4 0.4,-12.5 1.7,-24.9 3.2,-37.3 0.8,-6.7 1.7,-13.3 2.5,-20 0.2,-1.3 0.3,-2.7 0.1,-3.9 0.1,0 0.1,0 0.2,-0.1 4.1,-2.4 8.1,-4.8 12.2,-7.2 2,-1.2 3.9,-2.3 5.9,-3.5 1.3,-0.8 2.7,-1.8 4.2,-2.5 0,7.7 0.1,15.5 -0.3,23.2 z" />
		<path
   id="path9"
   d="m 759,328.7 c -0.1,-0.2 -0.2,-0.2 -0.1,0.2 0,0 0.1,0.1 0.1,0.1 0,0 0,0 0,-0.1 0,-0.1 0,-0.2 0,-0.2 z" />
		<path
   id="path11"
   d="m 847.6,298.1 c -1,-2.5 -2.8,-4.5 -4.7,-6.4 -2.4,-2.2 -4.9,-4.4 -7.3,-6.5 -0.7,-0.6 -1.8,-0.7 -2.5,-0.1 -8.3,-0.8 -16.7,-1.5 -25,-2.3 -0.1,0 -0.1,0 -0.2,0 -0.3,-4.6 -0.6,-9.2 -0.9,-13.9 0,0 0,0 0,0 0.1,-0.5 0.1,-1.1 0,-1.7 -0.3,-2.5 -1.9,-4.5 -3.8,-6 0,-0.6 -0.3,-1.3 -0.9,-1.5 -3.7,-1.7 -7.9,-2 -11.9,-0.7 -2.5,0.8 -6.2,2.7 -7.1,5.3 0,0 0,0.1 0,0.1 0,0 0,0 0,0 0,0.1 -0.1,0.3 -0.1,0.4 -1.5,5.9 -2.2,12 -1.9,18 -12.5,0.2 -25,1.5 -37.2,4 -0.9,0.2 -1.3,0.8 -1.3,1.6 -1,1.2 -1.2,3.1 -1.6,4.5 -0.5,2.1 -0.9,4.3 -1.1,6.5 -0.5,4.2 -0.5,8.4 0,12.6 0,0.2 0.1,0.4 0.2,0.6 -0.1,0.3 -0.1,0.6 0,1 0.9,3.2 2.9,5.8 5.1,8 2.6,2.6 5.4,5.1 8.1,7.6 1.6,1.5 4.1,4 6.4,3.5 0.7,0.5 1.6,0.6 2.3,-0.2 0.8,-0.9 2.2,-1.1 3.4,-1.4 1.5,-0.3 2.9,-0.5 4.4,-0.7 3.2,-0.4 6.4,-0.4 9.5,-0.2 0.8,0 1.3,-0.3 1.6,-0.8 1,0 1.8,-0.9 1.8,-1.9 -0.2,-4.9 0,-9.9 0.6,-14.8 3.7,0.8 7.4,1.2 11.2,1.1 4.3,-0.1 8.5,-1 12.7,-2 4,-1 8,-2.2 12.2,-2.4 2,-0.1 4,-0.1 5.9,0.4 1.5,0.3 2.9,0.9 4.4,1.3 1.1,4.4 0.7,8.9 -1.1,13 -0.4,0.9 0.4,2.1 1.3,2.3 0.5,0.1 0.9,0.1 1.3,-0.1 0.5,0.5 1.2,0.7 1.8,0.5 4,-1.4 8.2,-2.3 12.3,-2.7 0.2,0 0.5,-0.1 0.7,-0.2 0.1,0 0.1,0 0.2,0.1 0.9,0.3 2.1,-0.3 2.3,-1.3 1.4,-7.7 1.5,-15.5 0.3,-23.3 -0.1,-0.7 -0.7,-1.2 -1.4,-1.3 z m -14.4,-9.2 c 0.3,0 0.5,0 0.7,-0.1 2,1.8 4,3.5 6,5.3 0.9,0.9 2,1.9 2.7,2.8 0.7,0.9 1.3,2.1 1.7,3.1 -0.3,-0.1 -0.7,-0.1 -1.2,0 -4.7,1.7 -9.7,1.5 -14.6,1 -5.1,-0.5 -10.2,-1 -15.4,-1 -10.5,0.1 -21,1.8 -31.3,3.6 -5.9,1 -11.8,2 -17.8,3 -0.2,0 -0.4,0.1 -0.5,0.2 -0.3,-0.3 -0.5,-0.6 -0.8,-0.9 -1.2,-1.4 -2.4,-2.9 -3.7,-4.3 -2.5,-2.8 -5.1,-5.6 -7.7,-8.3 -1.1,-1.1 -2.2,-2.3 -3.4,-3.4 11.2,-2.1 22.6,-3.2 34.1,-3.3 0.3,0 0.5,-0.1 0.7,-0.1 0.2,0.1 0.4,0.1 0.6,0.1 0.9,0 2,-0.9 1.9,-1.9 -0.4,-4.8 -0.2,-9.6 0.6,-14.3 2,2 4.5,3.4 7.1,4.1 3.4,0.9 7.5,0.9 10.6,-1 0.2,3.7 0.5,7.4 0.7,11.1 0.1,1 0.8,1.9 1.9,1.9 0.3,0 0.7,-0.1 1,-0.3 0.3,0.2 0.6,0.3 1,0.4 8.3,0.8 16.7,1.5 25.1,2.3 z m -45.6,-24.3 c 1.1,-0.9 2.3,-1.5 3.6,-2 2.8,-0.9 5.9,-1 8.6,0.1 0,0.4 0.2,0.8 0.5,1 1.8,1.4 4.3,4.1 1.8,6.1 -2,1.6 -5.2,1.7 -7.6,1.2 -2.6,-0.6 -5,-1.9 -6.8,-4 -0.3,-0.4 -0.9,-0.9 -1,-1.5 0,-0.1 0,-0.1 0.1,-0.2 0,0 0,-0.1 0,-0.1 0.3,-0.2 0.6,-0.4 0.8,-0.6 z m -28.7,64.6 c 0,-0.1 0,-0.2 0,-0.3 -0.3,-0.2 -0.7,-0.3 -0.9,-0.5 -1.9,-1.6 -3.7,-3.4 -5.5,-5.1 -3.3,-3 -7.5,-6.1 -8.7,-10.7 0,-0.1 0,-0.1 -0.1,-0.2 0,-0.2 0.1,-0.3 0,-0.5 -0.4,-3.6 -0.5,-7.3 -0.2,-10.9 0.2,-1.8 0.4,-3.5 0.8,-5.3 0.2,-0.9 0.4,-1.8 0.6,-2.7 0.1,-0.2 0.1,-0.5 0.2,-0.7 0.3,0.3 0.5,0.6 0.7,0.8 0.8,0.8 1.7,1.7 2.5,2.5 1.6,1.7 3.3,3.4 4.8,5.1 1.6,1.8 3.3,3.6 4.9,5.4 0.7,0.8 1.4,1.7 2.1,2.5 0.7,0.8 1.8,1.7 2.2,2.7 0.4,0.8 -0.1,2 -0.3,2.8 -0.3,1.3 -0.5,2.6 -0.8,3.9 -0.5,2.4 -1,4.8 -1.5,7.3 -0.2,1 -0.7,2.2 -0.7,3.3 0.2,0.3 0.3,0.9 0,0.3 0,0 0,-0.1 -0.1,-0.1 0.1,0.2 0,0.3 0,0.4 z m 60.7,-23.5 c -4,0.3 -8,1.2 -11.9,2.2 -4,1 -8,2 -12.1,2.2 -4.4,0.2 -8.8,-0.3 -13.1,-1.4 -1.5,-0.4 -2.4,0.9 -2.3,2 -0.2,0.2 -0.3,0.4 -0.3,0.7 -0.7,5 -1,10 -0.8,15.1 -3.4,-0.2 -6.8,-0.1 -10.2,0.4 -1.8,0.2 -3.6,0.5 -5.3,0.9 -0.2,0 -0.3,0.1 -0.5,0.1 0,-0.3 0.1,-0.6 0.2,-0.8 0.4,-2.1 0.9,-4.2 1.3,-6.3 0.4,-1.8 0.8,-3.5 1.1,-5.3 0.4,-1.8 1,-3.7 0.2,-5.4 10.2,-1.7 20.4,-3.6 30.6,-5 5.2,-0.7 10.4,-1.2 15.6,-1.3 5.2,-0.1 10.3,0.4 15.4,0.9 5.5,0.6 11.2,0.8 16.5,-1 1.1,-0.4 1.4,-1.5 1.2,-2.4 0.1,0 0.2,0.1 0.3,0.1 0.9,6.3 0.8,12.8 -0.3,19 -4.1,0.3 -8.1,1.1 -12.1,2.4 1.2,-4.1 1.3,-8.6 0.3,-12.7 0,-0.1 -0.1,-0.3 -0.2,-0.4 0.1,-1 -0.5,-2 -1.8,-2.1 -2,-0.1 -3.9,-1.2 -5.9,-1.6 -1.8,-0.3 -3.9,-0.4 -5.9,-0.3 z" />
	</g><g
     id="g39">
		<path
   id="path15"
   d="m 227.1,106.2 c 0,-0.1 0,-0.1 0,0 0,-0.1 0,-0.1 0,0 z" />
		<path
   id="path17"
   d="m 222.4,117 c 0.4,0.7 1.1,1.2 1.9,1.4 1.5,0.3 3.1,0.3 4.7,0.5 1,0.1 1.9,-0.9 1.9,-1.9 0,-3.4 0.2,-6.8 0.1,-10.2 0,-1.6 -0.6,-3.3 -2.2,-4.1 -1.3,-0.6 -2.7,-0.5 -4.1,-0.3 -0.7,0.1 -1.2,0.7 -1.3,1.4 -0.9,0.2 -1.6,0.9 -1.6,1.8 0.1,3 0.1,6 0.2,8.9 0,1 0,1.8 0.4,2.5 z m 4.8,-10.8 c 0,0 -0.1,-0.1 0,0 -0.1,-0.1 0,-0.1 0,0 0,0 0,0 0,0 z m -1.1,-0.2 c 0.2,0 0.4,0 0.6,0 0,0 0.1,0 0.1,0 0.1,0 0.1,0 0.1,0 0,0 0.1,0 0.1,0 0,0 0,0 0,0 0,0 0,0 0,0 0,0 0,0 0,0 0,0 0,0 0,0 0,0 0,0 0,0 0,0 0,0 0,0 0,0 0,0 0,0 0,0 0,0.1 0,0.1 0,0 0,0.2 0,0.2 0,0.7 0,1.3 0,2 0,2.1 -0.1,4.3 -0.1,6.4 -0.5,0 -0.9,-0.1 -1.4,-0.1 0,-0.5 0,-1.1 0,-1.6 -0.1,-2.3 -0.1,-4.7 -0.2,-7 0,0 0.1,0 0.1,0 0.4,0.1 0.7,0.1 0.7,0 z" />
		<polygon
   id="polygon19"
   points="" />
		<path
   id="path21"
   d="m 227.2,106.4 c 0,-0.1 0,-0.1 0,0 0,-0.1 0,-0.1 0,0 z" />
		<path
   id="path23"
   d="m 227.2,106.2 c 0,0 0,0 0,0 -0.1,0 -0.1,0 0,0 -0.1,0 -0.1,0 0,0 z" />
		<path
   id="path25"
   d="m 233,159.8 c 0,-0.6 -0.2,-1.1 -0.6,-1.4 0.1,-0.1 0.1,-0.2 0.1,-0.3 0.1,-0.2 0.1,-0.5 0,-0.7 0,-0.2 -0.1,-0.5 -0.2,-0.7 -0.1,-0.1 -0.2,-0.3 -0.3,-0.4 -0.2,-0.2 -0.5,-0.4 -0.8,-0.5 0,0 -0.1,0 -0.1,0 -0.1,-0.1 -0.2,-0.1 -0.3,-0.2 -0.2,-0.1 -0.4,-0.2 -0.7,-0.2 -0.2,-0.1 -0.5,0 -0.7,0 -0.1,0.1 -0.3,0.1 -0.4,0.2 -0.1,0.1 -0.2,0.1 -0.3,0.2 -0.5,-0.3 -1.1,-0.6 -1.6,-0.9 -0.6,-0.5 -1.1,-1 -1.6,-1.6 -0.3,-0.4 -0.9,-0.5 -1.3,-0.5 -0.5,0 -1,0.2 -1.3,0.5 -0.3,0.3 -0.5,0.7 -0.5,1 -0.5,0.3 -0.9,0.8 -0.9,1.6 0.2,20.2 0.4,40.3 0.6,60.5 -0.6,-0.5 -1,-1 -1.4,-1.7 -0.7,-1.4 -0.7,-3 -0.9,-4.6 -0.2,-1.6 -0.5,-3.2 -1.3,-4.6 -0.4,-0.7 -0.9,-1.3 -1.5,-1.8 -0.1,-0.1 -0.3,-0.3 -0.5,-0.4 0.1,-0.7 0.3,-1.3 0.4,-2 0.3,-1.6 0.6,-3.2 0.8,-4.8 0.2,-1.6 0.8,-3.7 -0.1,-5.1 -0.9,-1.5 -2.5,-2 -4.1,-1.9 0,-0.1 0,-0.2 -0.1,-0.2 -0.5,-1.4 -1,-2.8 -1.5,-4.1 -0.3,-0.7 -0.5,-1.5 -0.8,-2.2 -0.3,-0.7 -0.5,-1.4 -1.2,-1.8 -1.3,-0.8 -3.2,-0.1 -4.4,0.5 -1.1,0.5 -2.2,1.3 -3.1,2 -1,0.8 -2,1.8 -2.2,3.2 -0.3,1.5 0.2,2.9 0.9,4.3 0.4,0.7 0.8,1.4 1.2,2.1 -1.9,0.4 -3.8,2.6 -4.7,4.1 -1.7,2.9 -1.4,6.2 -0.7,9.4 0.3,1.5 0.8,3.1 0.8,4.6 0,1.4 -1,1.2 -2.1,1.7 -1.3,0.6 -1.9,1.7 -2.3,3 -0.1,0.4 -0.2,0.8 -0.4,1.2 0,-4.1 0,-8.2 -0.1,-12.3 -0.2,-21.7 -0.7,-43.4 -1.4,-65 -0.4,-12.2 -1,-24.4 -1.6,-36.6 0,0 0,-0.1 0,-0.1 0,-0.1 0,-0.3 0,-0.4 0,-1 -0.8,-1.9 -1.9,-1.9 -1.7,0 -3.5,0 -5.2,0 -1,0 -1.9,0.9 -1.9,1.9 0,0.4 0.2,0.8 0.4,1.1 0.8,22 1.3,44 1.7,65.9 0.4,22.2 0.6,44.4 0.6,66.6 0,12.5 0,25 -0.1,37.4 0,0.8 0.4,1.3 1,1.6 1.2,3.1 3,6 4.9,8.7 2.2,3 4.5,6 6.7,9 0.6,0.8 1.6,1.2 2.6,0.7 0,0 0,0 0,0 0.8,0.2 1.7,-0.1 2.1,-0.8 0.3,-0.7 0.7,-1.2 1.4,-1.6 0.6,-0.4 1.2,-1.4 0.9,-2.1 -1.6,-3.7 -3.3,-7.3 -5.4,-10.8 0.4,0.1 0.8,0.2 1.3,0.3 1.5,0.2 2.9,-0.4 4.1,-1.4 0.5,-0.4 1,-1 1.5,-1.5 0.2,-0.2 0.4,-0.5 0.6,-0.8 0.3,0.3 0.7,0.6 1,0.9 0.7,0.5 1.3,1 2,1.4 1.5,0.9 3.1,1.4 4.8,1.5 1.5,0.1 3.1,-0.2 4.4,-1 0.1,-0.1 0.2,-0.1 0.3,-0.2 -1.5,2.8 -3,5.7 -4.6,8.5 -0.9,1.5 0.6,2.9 1.9,2.8 0.6,0.9 1.3,1.8 1.9,2.7 0.3,0.4 0.6,0.7 1.1,0.9 0.4,0.1 0.8,0.1 1.2,-0.1 0.8,0 1.4,-0.6 1.7,-1.4 2.8,-6.9 6.5,-13.5 10.8,-19.5 0.9,0 1.8,-0.6 1.8,-1.8 -0.1,-28.6 -0.2,-57.2 -0.3,-85.7 0,-8.2 0,-16.3 -0.1,-24.4 z m -18.6,33.5 c 0,0 0,0 0,0 0,0 0,0 0,0 0,0 0,0 0,0 0,0 0,0 0,0 z m 0,0 c 0,0 0,0 0,0 0,0 0,0 0,0 z m -0.3,0 c -0.1,0 0,0 0,0 z m 0,0 c 0.1,0 0.1,0 0,0 0.1,0 0.2,0 0.3,0.1 0,0 0,0.1 0,0.1 -0.1,0.4 -0.1,0.9 -0.1,1.3 -0.2,1.6 -0.4,3.2 -0.7,4.8 -0.1,0.6 -0.2,1.1 -0.3,1.7 -0.5,0.4 -0.9,1.1 -0.9,1.8 0,0 -0.1,0 -0.1,0 -0.8,-0.2 -1.5,-0.5 -2.3,-0.7 -0.7,-0.2 -1.4,-0.5 -2.1,-0.8 -0.1,0 -0.2,-0.1 -0.3,-0.1 0.1,-0.3 0.2,-0.6 0.2,-0.6 0.1,-0.4 0.3,-0.8 0.4,-1.2 0.3,-0.7 0.5,-1.5 0.8,-2.2 0.4,-1.2 0.9,-2.3 1.3,-3.5 1.2,-0.4 2.5,-0.7 3.6,-0.8 0,0.1 0.1,0.1 0.2,0.1 z m -9,-7.1 c 0.7,-0.5 1.7,-1.3 2.7,-1.6 0,0.1 0.1,0.3 0.1,0.4 0.2,0.6 0.4,1.2 0.7,1.8 0.4,1.1 0.8,2.2 1.2,3.3 -0.4,0.1 -0.8,0.2 -1.1,0.4 -0.9,0 -1.6,0.6 -1.9,1.4 -0.2,0.4 -0.3,0.9 -0.5,1.3 -0.1,-0.3 -0.2,-0.6 -0.4,-0.9 -0.6,-1.3 -1.6,-2.5 -2.1,-3.9 -0.2,-1.1 0.4,-1.6 1.3,-2.2 z m -12.3,96.3 c -1.9,-2.6 -3.8,-5.4 -4.9,-8.5 -0.1,-0.4 -0.4,-0.7 -0.7,-0.9 0.2,-22 0.2,-43.9 0,-65.9 -0.2,-22.2 -0.6,-44.4 -1.1,-66.6 -0.3,-12 -0.7,-24 -1.1,-36 0.4,0 0.7,0 1.1,0 1.1,21.3 1.8,42.6 2.3,63.9 0.5,21.7 0.8,43.4 0.7,65.1 0,12.2 -0.1,24.4 -0.4,36.6 0,0.5 0.1,0.8 0.4,1.1 -0.1,0.4 0,0.8 0.2,1.2 3.8,5.2 7,10.7 9.6,16.6 -0.2,0.2 -0.4,0.5 -0.6,0.7 -1.9,-2.4 -3.7,-4.9 -5.5,-7.3 z m 24.7,-10 c -1,1 -1.6,2.2 -3.1,2.5 -2.9,0.6 -5.3,-1.5 -7.4,-3.2 -1.3,-1 -2.8,-1.3 -4,0 -0.8,0.9 -1.5,2 -2.5,2.8 -2.3,1.7 -5,-2.9 -6.2,-4.4 -0.4,-0.5 -1.2,-0.6 -1.8,-0.5 0.1,-3.8 0.1,-7.5 0.2,-11.3 0.8,-0.2 1.4,-0.8 1.6,-1.6 0,0 0.1,0 0.1,0 0.5,-0.2 1,-0.4 1.4,-0.6 0.9,-0.5 1.7,-1.2 2.3,-1.9 1.5,-1.8 1.8,-4 2,-6.2 0.1,-1.3 0.3,-3.7 1.7,-4.2 0.6,-0.3 1.5,0 2.2,0.1 0.9,0.1 1.8,0 2.6,-0.5 2.2,-1.4 1.3,-4.1 1.1,-6.2 -0.1,-2 0,-4 1.4,-5.5 3,-3 7.4,-1.6 9.9,1.2 1.6,1.8 4.2,-0.8 2.7,-2.7 -2.5,-2.9 -6.4,-4.6 -10.2,-3.9 -3.7,0.7 -6.8,3.6 -7.4,7.4 -0.2,1 -0.2,2.1 -0.1,3.1 0.1,1 0.1,2.2 0.3,3.1 -0.3,0 -0.7,0 -0.9,0 -0.9,-0.1 -1.7,-0.1 -2.5,0.1 -1.7,0.5 -2.9,1.9 -3.6,3.5 -0.8,1.8 -0.7,3.6 -1,5.5 -0.3,2.1 -1.3,3.5 -3.3,4.1 0,0 -0.1,0 -0.1,0 0.1,-10.3 0.1,-20.6 0.1,-30.8 0.3,-0.1 0.6,-0.2 0.9,-0.4 1,-0.9 1.8,-1.9 2.4,-3.1 0.3,-0.7 0.5,-2.3 1,-2.7 0.3,-0.3 1,-0.3 1.4,-0.5 0.6,-0.3 1.1,-0.6 1.6,-1.1 0.9,-1 1.2,-2.3 1.2,-3.5 0,-2.8 -1.2,-5.5 -1.3,-8.3 -0.1,-1.3 0.1,-2.7 0.8,-3.9 0.3,-0.5 0.6,-0.9 0.9,-1.3 0.2,-0.2 0.4,-0.4 0.7,-0.6 0.1,-0.1 0.1,-0.1 0.2,-0.2 0.1,0 0.1,0 0.1,-0.1 0.4,0.2 0.8,0.2 1.1,0 0.1,0.3 0.2,0.7 0.3,1 0.1,0.2 0.2,0.4 0.3,0.6 0,0.1 -0.1,0.2 -0.1,0.3 -0.3,0.8 -0.6,1.5 -0.8,2.3 -0.4,2 0.9,3.2 2.6,3.9 1.5,0.6 3,1.1 4.6,1.5 1.3,0.4 3,1.1 4.2,0.4 0.7,0.8 1,1.9 1.2,3.1 0.3,2.2 0.4,4.3 1.3,6.3 0.9,1.8 2.4,3.3 4.2,4.2 0.2,0.1 0.4,0.1 0.5,0.2 0.1,7.5 0.2,15 0.2,22.4 0.1,8.1 0.2,16.3 0.3,24.4 0,0 0,0 0,0 -0.6,1.1 -1.1,2.3 -1.7,3.4 -1.4,0.3 -2.6,0.9 -3.6,1.8 z m 11.6,-3.7 c -4.3,5.7 -7.8,11.9 -10.7,18.5 -0.3,-0.4 -0.5,-0.7 -0.8,-1.1 -0.1,-0.1 -0.1,-0.2 -0.2,-0.3 3.1,-5.5 6,-11.1 8.8,-16.8 0.1,-0.3 0.2,-0.6 0.2,-0.9 0.1,-0.2 0.1,-0.4 0.1,-0.6 -0.3,-29.1 -0.6,-58.2 -0.9,-87.3 -0.1,-7.4 -0.2,-14.8 -0.2,-22.2 1,0.7 2.1,1.2 3.3,1.6 0.2,0.1 0.5,0.1 0.7,0.1 0,0 0,0 0,0 0.1,28.6 0.2,57.2 0.3,85.7 0,7.6 0.1,15.1 0.1,22.7 -0.3,0.2 -0.5,0.4 -0.7,0.6 z" />
		<path
   id="path27"
   d="m 269.4,111.8 c -11.9,14.2 -23.8,28.5 -35.7,42.7 -0.7,0.8 -0.5,1.7 -0.1,2.4 0,0.1 0,0.2 0,0.3 0.1,3.3 0.2,6.6 0.4,10 0,1 0.8,1.9 1.9,1.9 1,0 1.9,-0.8 1.9,-1.9 -0.1,-3.3 -0.2,-6.6 -0.4,-10 0,-0.3 -0.1,-0.6 -0.3,-0.9 11.7,-14 23.3,-27.9 35,-41.9 1.4,-1.8 -1.2,-4.5 -2.7,-2.6 z" />
		<path
   id="path29"
   d="m 191.5,108.9 c -0.5,0.6 -0.7,1.5 -0.2,2.1 3,3.9 7.4,6 12.3,6.4 5.4,0.4 10.6,-1.5 15.3,-4 1,-0.6 1.1,-1.6 0.7,-2.4 -0.8,-16.2 -0.2,-32.5 1.6,-48.6 0.1,-1 -0.9,-1.9 -1.9,-1.9 -1.1,0 -1.8,0.9 -1.9,1.9 -1.8,16.1 -2.4,32.2 -1.6,48.4 -6.4,3.1 -15.6,5 -20.8,-1.1 0.1,-0.3 0.2,-0.6 0.2,-0.9 -0.1,-15.5 -0.3,-30.9 -0.7,-46.3 -0.1,-2.4 -3.8,-2.4 -3.8,0 0.4,15.4 0.6,30.9 0.7,46.3 0.1,0 0.1,0 0.1,0.1 z" />
		<path
   id="path31"
   d="m 276.6,60.8 c -2.2,-0.5 -4.4,-1.2 -6.4,-2.3 -1,-0.5 -2,-1.3 -3.1,-1.7 -1.1,-0.4 -2.4,0 -3.2,0.8 -1.6,1.5 -1.9,4 -2.7,5.9 -0.3,0.8 -0.7,1.6 -1,2.4 0,-0.2 0,-0.4 0,-0.6 -0.1,-1 0,-2.1 -0.4,-3 -0.7,-2.1 -2.8,-2.6 -4.8,-2.5 -2.1,0.1 -4.1,0.6 -6,1.3 -1.8,0.6 -4.3,1.2 -4.7,3.3 -0.8,4.7 -0.6,9.7 0.1,14.4 0.1,1 1.4,1.6 2.3,1.3 0.2,-0.1 0.4,-0.2 0.6,-0.3 1.1,0.1 2.2,0.2 3.4,0.2 -0.6,0.7 -1.2,1.4 -1.9,2.1 -1,1.2 -2.7,2.6 -2.8,4.3 -0.1,1.7 1.5,3 2.6,4 1.2,1.1 2.5,2 3.8,2.8 0.8,0.5 1.8,1.1 2.8,1.2 -1.4,0.4 -2.7,1.2 -3.6,2.5 -1.4,1.9 -1.7,4.4 -1.9,6.7 -0.9,0 -1.8,-0.1 -2.7,-0.1 -1.9,-0.1 -4.5,-0.7 -6.1,0.5 -1.5,1.2 -1.9,3.8 -2.3,5.6 -1.1,4.6 -1.4,9.4 -0.9,14.2 0.1,0.9 0.7,1.8 1.7,1.9 0.2,0.2 0.3,0.4 0.5,0.5 0.9,0.5 2,0.2 2.6,-0.7 0.9,-1.3 2.8,-1.7 4.3,-1.9 1.9,-0.3 4.1,-0.2 5.6,-1.6 1.4,-1.3 1.4,-3.6 1.7,-5.4 0.1,-0.8 0.2,-1.7 0.3,-2.5 0.8,0.2 1.6,0.5 2.4,0.7 0.9,0.2 2,0.6 2.9,0.4 1,-0.2 1.6,-0.8 2.2,-1.5 0.7,-0.8 1.5,-1.6 2.2,-2.5 2.8,-3.1 5.6,-6.3 8.4,-9.4 0.7,-0.8 0.8,-2.4 -0.4,-2.9 -4.5,-2.1 -9.4,-3.9 -14.4,-4.5 -0.4,0 -0.8,0 -1.1,0 0.2,-0.1 0.5,-0.3 0.7,-0.5 0.5,-0.5 0.8,-1.3 1.2,-1.9 0.4,-0.7 0.9,-1.3 1.3,-2 0.9,-1.2 1.9,-2.3 2.9,-3.3 1,-1 2.3,-1.8 3.3,-2.8 1.4,-1.4 1.8,-3.7 0.3,-5.3 -0.6,-0.7 -1.5,-1.1 -2.3,-1.7 -0.9,-0.6 -1.7,-1.2 -2.6,-1.7 -0.2,-0.1 -0.4,-0.2 -0.6,-0.2 0,-0.1 0,-0.2 0,-0.3 0,-0.2 0,-0.5 0,-0.7 1.6,0.7 3.3,0.8 4.8,1.7 0.8,0.5 1.3,1.3 2,1.9 1,0.9 2.6,1.1 3.5,0 0.4,-0.4 0.6,-1 0.8,-1.5 0.3,-0.7 0.6,-1.3 0.9,-2 0.5,-1.2 1.1,-2.4 1.6,-3.6 1.1,-2.4 2.2,-4.8 3.2,-7.2 0.6,-0.8 0.3,-2.2 -1,-2.5 z m -33.5,46.6 c 0,0 0,0 0,0 -0.1,0 0,0 0,0 z m 7.9,1.1 c 0,1 -0.1,1.9 -0.2,2.9 -0.1,1.8 -0.3,3.7 -0.6,5.5 -0.1,0.7 -0.2,1.5 -0.3,2.2 -0.1,0.6 -0.3,0.6 -0.9,0.7 -1.8,0.4 -3.6,0.4 -5.4,1 -0.9,0.3 -1.7,0.7 -2.4,1.2 -0.2,-2.7 -0.1,-5.5 0.4,-8.2 0.3,-1.8 0.7,-3.6 1.2,-5.3 0.1,-0.3 0.3,-0.7 0.4,-1.1 0.3,0 0.9,0 1,0 0.5,0 1,0.1 1.5,0.1 1.7,0.1 3.4,0.1 5.1,0.3 0,0 0.2,0 0.3,0 0,0.2 -0.1,0.5 -0.1,0.7 z m 7.9,-9.9 c 3.1,0.7 6.2,1.6 9.1,2.8 -1.8,2.1 -3.7,4.2 -5.5,6.3 -0.6,0.7 -1.2,1.4 -1.8,2 -0.3,0.3 -0.6,0.7 -0.9,1 -0.2,0.3 -0.7,0.6 -0.9,1 0,0 0,0 0,0.1 0,0 0,0 -0.1,0 -0.3,-0.2 -0.9,-0.2 -1.3,-0.3 -0.9,-0.2 -1.8,-0.5 -2.7,-0.7 -0.1,0 -0.2,0 -0.3,0 0,-0.1 0,-0.2 0,-0.3 0.1,-1.9 0.4,-4.2 -1.4,-5.4 0,-0.2 0.1,-0.3 0.1,-0.5 0.1,-1.7 0.2,-3.6 1.3,-5 1.3,-1.7 2.8,-1.4 4.4,-1 z m 7.6,-38.2 c 0.1,-0.2 0.2,-0.1 0,0 z M 257,77.2 c 0,0 0,-0.1 0,0 0,0 0,0 0,0 z m -0.6,-13.5 c 0,0 0,0 0,0 z m -8.7,4.3 c 0.1,-0.7 0.1,-1.5 0.2,-2.2 0,0 0,-0.1 0,-0.1 0.3,-0.1 0.8,-0.4 0.9,-0.4 1.5,-0.6 3.1,-1.2 4.7,-1.5 0.7,-0.1 1.4,-0.2 2.1,-0.2 0.2,0 0.4,0 0.5,0 0.1,0 0.1,0 0.1,0 0.3,1.5 0.3,3 0.4,4.5 0.1,1.7 0.2,3.4 0.3,5.1 0,0.8 0.1,1.5 0.1,2.3 0,0.3 0,0.7 0,1 0,0 0,0.1 0,0.2 -0.3,0 -0.7,0 -1,0 -1,-0.1 -1.9,-0.1 -2.9,-0.2 -1.8,-0.1 -3.7,-0.3 -5.5,-0.4 -0.1,-2.6 -0.1,-5.4 0.1,-8.1 z M 262,80.3 c 0.4,0.3 0.8,0.5 1.2,0.8 0.1,0.1 0.2,0.1 0.3,0.2 0,0.1 -0.1,0.1 -0.1,0.2 -0.2,0.3 -0.6,0.5 -0.9,0.7 -0.7,0.5 -1.4,1.1 -2,1.7 -1.2,1.1 -2.3,2.4 -3.3,3.7 -0.5,0.7 -1,1.4 -1.5,2.1 -0.2,0.3 -0.4,0.7 -0.6,1.1 0,0 -0.1,0 -0.1,-0.1 -0.3,-0.1 -0.5,-0.3 -0.8,-0.4 -0.6,-0.4 -1.2,-0.7 -1.7,-1.2 -0.4,-0.3 -0.8,-0.7 -1.2,-1 -0.3,-0.3 -0.6,-0.5 -0.9,-0.8 -0.1,-0.1 -0.3,-0.3 -0.4,-0.5 0.1,-0.2 0.3,-0.3 0.3,-0.4 0.5,-0.6 1,-1.1 1.5,-1.7 1.1,-1.2 2.1,-2.4 3.2,-3.7 0.1,-0.1 0.2,-0.2 0.3,-0.4 1.6,0.2 3.4,0.3 4.6,-0.8 0.2,-0.2 0.4,-0.4 0.5,-0.7 0.4,0.4 1,0.8 1.6,1.2 z m 9.3,-11.7 c -0.5,1.1 -1,2.3 -1.5,3.4 -0.2,0.5 -0.5,1.1 -0.7,1.6 0,0 0,0.1 0,0.1 -0.1,-0.1 -0.2,-0.2 -0.2,-0.2 -0.7,-0.6 -1.5,-1.1 -2.3,-1.5 -1.4,-0.6 -3.1,-0.8 -4.4,-1.5 0.8,-1.5 1.6,-3 2.3,-4.6 0.4,-1 0.8,-2 1.2,-3 0.3,-0.8 0.4,-1.7 0.9,-2.4 0,0 0,0 0,0 0.2,0.1 0.3,0.2 0.5,0.3 0.9,0.5 1.7,1 2.6,1.4 1.3,0.6 2.7,1.1 4,1.5 -0.9,1.7 -1.6,3.3 -2.4,4.9 z" />
		<path
   id="path33"
   d="m 225.5,126.9 c -1.5,-0.8 -3.4,-1.4 -5,-0.3 -0.9,0.6 -1.2,1.6 -1.5,2.5 -0.4,1.1 -0.7,2.2 -1.1,3.3 -0.5,1.4 -0.9,2.8 -1.4,4.2 -2.5,-0.3 -5,-0.1 -7.4,0.5 -0.8,-0.2 -1.5,0.2 -2,0.9 -1.3,1.7 -2.5,3.6 -3.6,5.5 -0.5,0.9 -1.1,1.9 -1.6,2.9 -0.5,1.1 -1.2,2.3 -1.3,3.5 -0.1,2.3 1.7,3.8 3.2,5.2 1.6,1.5 3.4,2.9 5.4,3.8 1.1,0.5 2.3,0.1 2.8,-1.1 0.9,-2.7 2.1,-5.2 3.6,-7.6 0.4,-0.7 0.9,-1.3 1.3,-2 1.2,0.8 2.6,1.6 4,1.8 2.2,0.4 3.5,-1.2 4.9,-2.6 1.4,-1.4 2.9,-2.9 4.3,-4.3 1.4,-1.4 3,-2.8 4.3,-4.3 0.6,-0.7 1,-1.7 0.8,-2.6 -0.2,-1 -0.9,-1.7 -1.5,-2.5 -1.1,-1.3 -2.3,-2.6 -3.7,-3.6 -1.4,-1.3 -2.9,-2.4 -4.5,-3.2 z m -3,2.7 c 0,0 -0.1,0 -0.1,0 0,0 0,0 0.1,0 z m -13.3,24.8 c -0.8,-0.5 -1.6,-1.1 -2.3,-1.8 -0.6,-0.6 -1.3,-1.1 -1.9,-1.8 -0.5,-0.5 -0.7,-0.8 -0.4,-1.4 1.3,-3.1 3.1,-6 5.1,-8.7 0,0 0.1,0 0.1,0 1.9,-0.6 4,-0.8 6,-0.6 0.4,0.7 1.2,1 2,0.9 -0.7,0.8 -1.5,1.6 -2.2,2.5 -2.7,3.4 -4.8,7 -6.4,10.9 z M 230,137.9 c -1.4,1.4 -2.8,2.8 -4.2,4.2 -0.7,0.7 -1.5,1.5 -2.2,2.2 -0.3,0.3 -0.6,0.6 -0.8,0.8 -0.3,0.3 -0.7,0.9 -1,1 -0.3,0.1 0.1,0.2 -0.5,0 -0.4,-0.2 -0.8,-0.3 -1.1,-0.5 -0.3,-0.1 -0.5,-0.3 -0.8,-0.5 0.4,-0.5 0.9,-1 1.3,-1.5 1,-1.1 1.7,-2.6 1.3,-4.1 -0.3,-1 -1,-1.6 -1.8,-2 0.4,-1.1 0.8,-2.3 1.1,-3.4 0.3,-0.8 0.6,-1.7 0.8,-2.5 0.2,-0.5 0.3,-1 0.5,-1.5 0,-0.1 0.1,-0.2 0.1,-0.4 0.9,0.4 3.2,1.8 3.5,2 1.4,1 2.7,2.1 3.8,3.3 0.5,0.5 0.9,1.1 1.3,1.6 -0.1,0.1 -0.1,0.1 -0.2,0.2 -0.4,0.3 -0.7,0.7 -1.1,1.1 z" />
		<path
   id="path35"
   d="m 208.7,165.2 c -0.7,-1.8 -1.1,-4.3 -3.2,-5 -1.8,-0.6 -4,0.3 -5.6,1 -1.8,0.8 -3.4,1.9 -4.8,3.2 0,0 0,0 0,0 -0.1,0.1 -0.1,0.1 -0.2,0.2 -0.9,0.8 -0.7,1.9 0,2.6 0.9,3.6 1.9,7.2 2.8,10.8 0.2,0.9 0.4,1.8 0.8,2.6 0.6,1 1.7,1.4 2.8,1.1 1.9,-0.6 3.8,-1.5 5.7,-2.3 1.6,-0.6 4,-1.1 4.9,-2.8 1,-1.8 -0.4,-4 -1,-5.6 -0.8,-1.9 -1.5,-3.9 -2.2,-5.8 z m -4.5,-1.5 c 0.2,0 0.1,0.1 0,0 z m 0,12.8 c -0.7,0.3 -1.3,0.5 -2,0.8 -0.2,0.1 -0.5,0.2 -0.8,0.4 -0.2,-0.6 -0.3,-1.2 -0.5,-1.8 -0.3,-1.2 -0.6,-2.4 -1,-3.5 -0.5,-2 -1,-3.9 -1.5,-5.9 1.5,-1.2 3.2,-2.1 5,-2.5 0.2,0 0.4,-0.1 0.5,-0.1 0,0 0.1,0 0.1,0 0.2,0.4 0.3,0.9 0.5,1.3 0.5,1.4 1.1,2.7 1.6,4.1 0.5,1.4 1.1,2.7 1.6,4.1 0,0.1 0.3,1.1 0.5,1.6 -0.1,0 -0.2,0.1 -0.2,0.1 -1.2,0.4 -2.5,0.9 -3.8,1.4 z" />
		<path
   id="path37"
   d="m 298.1,61.4 c -2.6,-0.7 -5.1,-1.5 -7.7,-2.2 -1.2,-0.3 -2.5,-0.8 -3.7,-0.8 -1.2,0.1 -2.3,0.7 -3.1,1.6 -0.7,0.9 -1.2,1.9 -1.6,2.9 -0.5,1.2 -1,2.4 -1.4,3.6 -0.9,2.5 -1.5,5.1 -1.7,7.7 0,0.5 0.1,0.8 0.3,1.1 0,0.6 0.2,1.2 0.9,1.6 2.1,1.3 4.4,2.4 6.7,3.4 1.2,0.5 2.4,1 3.7,0.6 1.2,-0.4 1.7,-1.5 2.2,-2.6 2.2,-4.7 4.4,-9.5 6.6,-14.2 0.4,-1 0,-2.3 -1.2,-2.7 z m -7.8,13 c -0.4,0.9 -0.8,1.9 -1.3,2.8 -0.4,-0.3 -1,-0.4 -1.4,-0.6 -1.7,-0.7 -3.4,-1.6 -5,-2.5 0.1,-2 0.7,-4 1.3,-6 0.6,-1.8 1.2,-3.9 2.2,-5.5 0.3,-0.5 0.5,-0.6 1,-0.6 1.1,0.2 2.2,0.6 3.2,0.9 1.5,0.4 3,0.9 4.5,1.3 -1.4,3.6 -2.9,6.9 -4.5,10.2 z" />
	</g><g
     id="g57">
		<polygon
   id="polygon41"
   points="" />
		<path
   id="path43"
   d="m 491.9,106.2 c 0,-0.1 0,-0.1 0,0 0,-0.1 0,-0.1 0,0 z" />
		<path
   id="path45"
   d="m 492,106.4 c 0,-0.1 0,-0.1 0,0 0,-0.1 0,-0.1 0,0 z" />
		<path
   id="path47"
   d="m 492,106.2 c 0,0 0,0 0,0 -0.1,0 -0.1,0 0,0 -0.1,0 -0.1,0 0,0 z" />
		<path
   id="path49"
   d="m 498.3,157.2 c 0.1,3.3 0.2,6.6 0.4,10 0,1 0.8,1.9 1.9,1.9 1,0 1.9,-0.8 1.9,-1.9 -0.1,-3.3 -0.2,-6.6 -0.4,-10 0,-0.3 -0.1,-0.6 -0.3,-0.9 11.7,-14 23.3,-27.9 35,-41.9 1.5,-1.8 -1.1,-4.5 -2.7,-2.7 -11.9,14.2 -23.8,28.5 -35.7,42.7 -0.7,0.8 -0.5,1.7 -0.1,2.4 0,0.2 0,0.3 0,0.4 z" />
		<path
   id="path51"
   d="m 458.1,222.1 c 0,14.4 0.1,28.8 0.1,43.2 0,0.3 0,0.6 0.1,0.9 0.1,0.2 0.3,0.4 0.4,0.6 3.7,4.7 9.7,6.9 15.7,5.7 5.1,-1 10.5,-4.6 11.7,-9.9 0.1,-0.2 0.1,-0.4 0.1,-0.6 -0.3,-26 -0.4,-52 -0.3,-78.1 0.1,-24.5 0.4,-49.1 0.8,-73.6 0,1.5 0.1,2.9 0.1,4.4 0,0.8 0,1.6 0.4,2.4 0.4,0.7 1.1,1.2 1.9,1.4 1.5,0.3 3.1,0.3 4.7,0.5 1,0.1 1.9,-0.9 1.9,-1.9 0,-3.4 0.2,-6.8 0.1,-10.2 0,-1.6 -0.6,-3.3 -2.2,-4.1 -1.3,-0.6 -2.7,-0.5 -4.1,-0.3 -0.7,0.1 -1.2,0.7 -1.3,1.4 -0.6,0.1 -1.1,0.5 -1.4,1 0.3,-14.2 0.6,-28.4 1,-42.5 0.1,-2.4 -3.7,-2.4 -3.8,0 -0.7,25.9 -1.3,51.9 -1.6,77.8 -0.3,26 -0.4,52 -0.4,78.1 0,14.5 0.2,29 0.3,43.5 -1,3.9 -5,6.3 -8.7,7.1 -4.3,1 -9,-0.6 -11.8,-4 0,-26 -0.1,-52 -0.2,-78 -0.1,-27 -0.2,-54 -0.3,-81 -0.1,-14.5 -0.2,-28.9 -0.3,-43.4 0,-2.4 -3.8,-2.4 -3.8,0 0.2,26.2 0.3,52.4 0.4,78.6 0.4,27 0.5,54 0.5,81 z M 492,106.2 c 0,0 -0.1,-0.1 0,0 -0.1,-0.1 0,-0.1 0,0 0,0 0,0 0,0 z m -1.1,-0.2 c 0.2,0 0.4,0 0.6,0 0,0 0.1,0 0.1,0 0.1,0 0.1,0 0.1,0 0,0 0.1,0 0.1,0 0,0 0,0 0,0 0,0 0,0 0,0 0,0 0,0 0,0 0,0 0,0 0,0 v 0 c 0,0 0,0 0,0 0,0 0,0 0,0 0,0 0,0.1 0,0.1 0,0 0,0.2 0,0.2 0,0.7 0,1.3 0,2 0,2.1 -0.1,4.3 -0.1,6.4 -0.5,0 -0.9,-0.1 -1.4,-0.1 0,-0.5 0,-1.1 0,-1.6 -0.1,-2.3 -0.1,-4.7 -0.2,-7 0,0 0.1,0 0.1,0 0.4,0.1 0.7,0.1 0.7,0 z" />
		<path
   id="path53"
   d="m 539.2,359.7 c -0.3,-9.4 -0.7,-18.8 -1,-28.1 -0.3,-9.1 -0.5,-18.3 -1.9,-27.4 -0.8,-5 -1.9,-9.9 -3.4,-14.7 -0.1,-0.3 -0.3,-0.6 -0.4,-0.8 -0.3,-0.4 -0.8,-0.6 -1.4,-0.6 -12.7,-0.1 -25.4,0 -38,0.5 -2.2,0.1 -4.4,0.2 -6.6,0.4 2.7,-6.2 6,-12 10,-17.4 0.9,0 1.8,-0.6 1.8,-1.8 -0.1,-28.6 -0.2,-57.2 -0.3,-85.7 0,-8.1 -0.1,-16.2 -0.1,-24.2 0,-0.6 -0.2,-1.1 -0.6,-1.4 0.1,-0.1 0.1,-0.2 0.1,-0.3 0.1,-0.2 0.1,-0.5 0,-0.7 0,-0.2 -0.1,-0.5 -0.2,-0.7 -0.1,-0.1 -0.2,-0.3 -0.3,-0.4 -0.2,-0.2 -0.5,-0.4 -0.8,-0.5 0,0 -0.1,0 -0.1,0 -0.1,-0.1 -0.2,-0.1 -0.3,-0.2 -0.2,-0.1 -0.4,-0.2 -0.7,-0.2 -0.2,-0.1 -0.5,0 -0.7,0 -0.1,0.1 -0.3,0.1 -0.4,0.2 -0.1,0.1 -0.2,0.1 -0.3,0.2 -0.5,-0.3 -1.1,-0.6 -1.6,-0.9 -0.6,-0.5 -1.1,-1 -1.6,-1.6 -0.3,-0.4 -0.9,-0.5 -1.3,-0.5 -0.5,0 -1,0.2 -1.3,0.5 -0.3,0.3 -0.5,0.7 -0.5,1 -0.5,0.3 -0.9,0.8 -0.9,1.6 0.3,29.1 0.6,58.2 0.9,87.3 0.1,8.1 0.2,16.3 0.3,24.4 0,0 0,0 0,0 -3,6.2 -6.3,12.4 -9.7,18.4 -0.9,1.5 0.6,2.9 1.9,2.8 0.3,0.4 0.6,0.8 0.9,1.2 -1.5,0.8 -1,3 0.4,3.4 -0.1,5 0.5,9.9 1.9,14.7 0.2,0.7 1,1.4 1.8,1.4 5.7,-0.4 11.4,-0.3 17,0.5 2.7,0.4 5.4,0.8 8,1.5 2.4,0.6 4.2,1.7 5.4,3.9 2.6,4.6 4.2,9.9 5.3,15 0.3,1.2 0.3,2.5 0.7,3.6 0,0.1 0,0.2 0,0.2 -0.2,0.1 -0.4,0.1 -0.5,0.1 -0.7,0.1 -1.5,0.2 -2.3,0.3 -2.7,0.4 -5.4,0.9 -8.2,1.1 -1,0.1 -2.3,0.1 -3,-0.6 -0.8,-0.8 -1,-2.2 -1.2,-3.2 -0.8,-3.1 -1.6,-6.3 -2.4,-9.4 -0.3,-1 -1.1,-1.4 -1.9,-1.3 -8.9,-2.8 -18.1,-1 -27.1,0.4 -4.6,0.7 -9.2,1.3 -13.8,1.2 -4.6,-0.1 -9.3,-0.5 -13.7,0.7 -3.5,1 -7,3.2 -8.8,6.4 -0.5,0.8 -0.8,1.7 -1.1,2.6 -0.3,1 -0.4,2 -0.9,2.9 -0.8,1.4 -2.6,1.4 -4.1,1.2 -0.8,-0.1 -1.7,-0.3 -2.5,-0.6 -1.1,-0.3 -1.3,-0.5 -1.4,-1.6 -0.2,-2.4 -0.2,-4.9 0,-7.3 0.1,-1.2 0.2,-2.4 0.4,-3.6 0.1,-0.9 0.2,-1.9 1.1,-2.5 0.7,-0.5 1.7,-0.7 2.6,-1 1.1,-0.4 2.2,-0.8 3.3,-1.1 9.5,-3.3 19.5,-6.7 29.6,-5.9 0.9,0.1 1.4,-0.4 1.6,-1 0.2,-0.3 0.3,-0.6 0.2,-0.9 -0.6,-5.9 -1.7,-11.7 -3.3,-17.4 0.3,-0.1 0.5,-0.3 0.7,-0.5 0.4,-0.1 0.7,-0.4 0.9,-0.8 0.3,-0.7 0.7,-1.2 1.4,-1.6 0.6,-0.4 1.2,-1.4 0.9,-2.1 -2.8,-6.6 -6.2,-12.8 -10.4,-18.6 0,0 -0.1,-0.1 -0.1,-0.1 0,-0.1 0,-0.2 0,-0.3 0.4,-21.8 0.5,-43.5 0.3,-65.3 -0.2,-21.7 -0.7,-43.4 -1.4,-65 -0.4,-12.2 -1,-24.4 -1.6,-36.6 0,0 0,-0.1 0,-0.1 0,-0.1 0,-0.3 0,-0.4 0,-1 -0.8,-1.9 -1.9,-1.9 -1.7,0 -3.5,0 -5.2,0 -1,0 -1.9,0.9 -1.9,1.9 0,0.4 0.2,0.8 0.4,1.1 0.8,22 1.3,44 1.7,65.9 0.4,22.2 0.6,44.4 0.6,66.6 0,12.5 0,25 -0.1,37.4 0,0.8 0.4,1.3 1,1.6 1.2,3.1 3,6 4.9,8.7 1.6,2.2 3.2,4.3 4.9,6.5 -3.1,0.3 -6.2,0.9 -9.3,0.9 -2.4,0 -4.8,-0.5 -7.2,-0.7 -2.3,-0.2 -4.7,0 -7,0.2 -5.6,0.7 -11.1,2.1 -16.7,2.9 -1.3,0.2 -2.5,0.3 -3.8,0.5 -0.5,0 -1.1,0.1 -1.6,0.1 -0.2,0 -0.3,0 -0.5,0 0,0 0,0 -0.1,0 -0.8,-0.2 -1.4,0 -1.8,0.5 -0.3,0.3 -0.6,0.7 -0.6,1.3 -0.1,20.1 0.6,40.3 2.3,60.4 0,0.3 0.1,0.6 0.3,0.8 0.3,0.6 0.8,1 1.6,1 16.4,0.4 32.9,0.8 49.3,1.2 14.7,0.4 29.3,0.8 44,1.1 9.8,0.2 19.7,0.5 29.5,0.7 0.5,0 0.9,-0.2 1.2,-0.4 0.5,0.2 0.8,-0.3 0.7,-1 z M 493.4,159.8 c 0.2,0.1 0.5,0.1 0.7,0.1 0,0 0,0 0,0 0.1,28.6 0.2,57.2 0.3,85.7 0,7.6 0.1,15.1 0.1,22.7 -0.2,0.2 -0.4,0.3 -0.6,0.6 -4.3,5.7 -7.8,11.9 -10.7,18.5 -0.3,-0.4 -0.5,-0.7 -0.8,-1.1 -0.1,-0.1 -0.1,-0.2 -0.2,-0.3 3.1,-5.5 6,-11.1 8.8,-16.8 0.1,-0.3 0.2,-0.6 0.2,-0.9 0.1,-0.2 0.1,-0.4 0.1,-0.6 -0.3,-29.1 -0.6,-58.2 -0.9,-87.3 -0.1,-7.4 -0.2,-14.8 -0.2,-22.2 0.9,0.7 2,1.2 3.2,1.6 z m 27.9,174.7 c -0.1,0 -0.1,0 0,0 z M 452.7,274 c -0.1,-0.4 -0.4,-0.7 -0.7,-0.9 0.2,-22 0.2,-43.9 0,-65.9 -0.2,-22.2 -0.6,-44.4 -1.1,-66.6 -0.3,-12 -0.7,-24 -1.1,-36 0.4,0 0.7,0 1.1,0 1.1,21.3 1.8,42.6 2.3,63.9 0.5,21.7 0.8,43.4 0.7,65.1 0,12.2 -0.1,24.4 -0.4,36.6 0,0.5 0.1,0.8 0.4,1.1 -0.1,0.4 0,0.8 0.2,1.2 3.8,5.2 7,10.7 9.6,16.6 -0.2,0.2 -0.4,0.5 -0.6,0.7 -1.8,-2.4 -3.7,-4.9 -5.5,-7.3 -2,-2.7 -3.8,-5.5 -4.9,-8.5 z m 35.4,82.6 c -14.7,-0.4 -29.3,-0.8 -44,-1.1 -9.3,-0.2 -18.5,-0.5 -27.8,-0.7 -1.5,-18.8 -2.2,-37.6 -2.1,-56.5 1.2,-0.1 2.3,-0.3 3.4,-0.4 2.7,-0.3 5.4,-0.8 8.1,-1.3 2.6,-0.5 5.1,-1 7.7,-1.5 2.3,-0.4 4.6,-0.6 7,-0.6 2.4,0 4.8,0.4 7.2,0.6 4.3,0.4 8.4,-0.7 12.7,-0.9 1.4,5 2.4,10.1 3.1,15.3 -8.9,-0.2 -17.8,2.5 -26.2,5.3 -2.3,0.8 -4.5,1.5 -6.7,2.3 -2.2,0.8 -4,1.8 -4.8,4.2 -0.8,2.4 -0.8,5.1 -0.9,7.6 -0.1,2.5 -0.3,5.3 0.3,7.7 0.6,2.3 2.6,3 4.7,3.6 2,0.5 4.1,0.8 6.1,0.3 2.1,-0.5 3.6,-2 4.4,-4.1 0.7,-1.8 0.8,-3.7 2,-5.3 2.5,-3.3 7,-4.4 11,-4.5 5,-0.2 10,0.3 15.1,-0.2 10.6,-1.1 21.6,-4.6 32.2,-1.5 0.7,2.9 1.4,5.8 2.2,8.7 0.7,2.6 1.9,5.1 4.7,5.9 2.8,0.8 6,-0.2 8.8,-0.5 1.7,-0.2 3.4,-0.5 5,-0.7 1.4,-0.2 2.7,-0.7 3.4,-2 0.7,-1.4 0.3,-3 0.1,-4.4 -0.3,-1.6 -0.6,-3.1 -1.1,-4.7 -0.8,-3.1 -1.8,-6.1 -3.1,-9.1 -1.2,-2.8 -2.3,-5.8 -4.8,-7.7 -2.3,-1.9 -5.3,-2.4 -8.2,-3 -7,-1.4 -14.2,-1.9 -21.4,-1.5 -1.1,-4.2 -1.5,-8.5 -1.4,-12.8 3.3,-0.5 6.7,-0.5 10.1,-0.7 4.1,-0.2 8.1,-0.3 12.2,-0.3 7.6,-0.1 15.1,-0.2 22.7,-0.1 4.9,16.9 4.5,34.7 5.2,52.2 0.2,4.6 0.3,9.2 0.5,13.8 -15.9,-0.6 -31.6,-1 -47.4,-1.4 z" />
		<path
   id="path55"
   d="m 471.8,308.7 c 0.3,0.3 0.6,0.6 0.8,0.9 0.7,0.9 1.7,1.6 2.9,1.3 1.1,-0.3 1.6,-1.3 2.1,-2.1 0.5,-0.9 1,-1.8 1.5,-2.7 0.2,-0.4 0.2,-1 -0.1,-1.4 -0.3,-0.4 -0.8,-0.5 -1.3,-0.4 -0.6,0.1 -1.2,0.2 -1.8,0.3 -0.2,-2.8 -0.5,-5.6 -0.9,-8.4 -0.7,-4.4 -1.7,-8.7 -1.6,-13.2 0,-1.6 -2.5,-1.6 -2.5,0 -0.1,4.4 0.7,8.7 1.5,12.9 0.5,3 0.8,6.1 1.1,9.1 -0.7,0.1 -1.3,0.3 -2,0.4 -0.3,0.1 -0.5,0.3 -0.7,0.5 -0.2,0.1 -0.4,0.2 -0.5,0.4 -0.3,0.6 -0.2,1.4 0.4,1.7 0.2,0.1 0.4,0.2 0.6,0.3 0.3,0.2 0.3,0.3 0.5,0.4 -0.3,-0.2 0,0 0,0 z" />
	</g><path
     id="path59"
     d="m 204.1,294.5 c 0,-0.1 0,-0.2 0,-0.2 0,0.3 0,0.7 0,1 -0.1,0.2 -0.1,0.3 -0.2,0.5 -1.1,-0.4 -2.1,-0.9 -3.2,-1.3 0,3 0,6.1 0.1,9.1 0,0.3 -0.1,0.7 0,1 0,0.1 0,0.2 0,0.2 1.2,-0.7 1.4,-1 0.7,-0.9 -0.5,-0.2 -1.4,-0.1 -1.9,-0.2 -1.4,-0.1 -3,-0.3 -4.4,-0.1 -3.2,0.4 -2.3,4.4 -2.3,6.7 0,1.4 0.1,2.7 0.1,4.1 0,1.4 0.3,2.8 1.8,3.3 1.2,0.4 2.8,0.1 4.1,0.1 1.5,0 2.9,0 4.4,0 3,0 6.1,0 9.1,0.1 2.9,0.1 5.9,0.3 8.8,0.4 3.6,0.1 3.4,-3.6 3.5,-6.2 0.1,-1.6 0.2,-3.2 0.2,-4.9 0,-1.4 0.2,-3 -0.7,-4.1 -0.9,-1 -2.1,-1.1 -3.4,-1.1 -1.8,0 -3.6,0.1 -5.3,0.1 0.6,0.6 1.3,1.3 1.9,1.9 0.1,-2.4 0.1,-4.8 0,-7.2 -0.1,-1.3 -0.2,-2.5 -0.3,-3.8 -0.1,-1 -0.2,-2 -1,-2.7 -0.8,-0.7 -1.8,-0.7 -2.8,-0.6 -1.2,0 -2.5,0.1 -3.7,0.3 -2.3,0.3 -4.6,0.8 -6.8,1.6 -2.3,0.8 -1.3,4.4 1,3.6 1.8,-0.6 3.6,-1.1 5.4,-1.4 0.9,-0.1 1.8,-0.2 2.7,-0.3 0.5,0 0.9,0 1.4,-0.1 0.2,0 0.5,0 0.7,0 0.6,0.1 0.4,-0.2 -0.7,-0.7 -0.2,0.3 0.2,2.3 0.3,2.7 0.1,1 0.1,1.9 0.2,2.9 0.1,1.9 0.1,3.8 0,5.7 0,1 0.9,1.9 1.9,1.9 1.9,0 3.7,-0.1 5.6,-0.1 0.1,0 0.6,0 0.6,0 -0.3,-0.7 -0.5,-0.9 -0.5,-0.5 0,0.2 0,0.3 0,0.5 0,1 0,1.9 0,2.9 -0.1,1.8 -0.2,3.6 -0.4,5.3 0,0 -0.2,1.3 -0.1,1.3 0.3,-0.2 0.5,-0.5 0.8,-0.7 -0.3,0 -0.7,0 -1,-0.1 -0.9,0 -1.8,-0.1 -2.7,-0.1 -3.7,-0.2 -7.4,-0.3 -11.1,-0.3 -1.8,0 -3.6,0 -5.4,0 -1,0 -2,0 -2.9,0 -0.5,0 -2.1,0.2 -2.4,0 0.3,0.4 0.6,0.7 0.9,1.1 -0.4,-0.9 -0.1,-2.4 -0.2,-3.4 0,-1.3 -0.1,-2.5 -0.1,-3.8 0,-0.3 0,-0.7 0,-1 0,-0.2 0,-0.3 0,-0.5 -0.3,0.3 -0.5,0.5 -0.8,0.8 0,0.1 1.8,0 1.9,0 1.3,0 2.7,0.2 4,0.3 1.1,0 2.1,-0.4 2.6,-1.4 0.5,-1.1 0.3,-2.5 0.3,-3.6 0,-2.7 0,-5.4 -0.1,-8.1 0,-1.7 -2,-2.3 -3.2,-1.3 -0.8,0.6 -0.9,1.5 -0.7,2.4 0.1,2.2 3.7,1.2 3.3,-1.1 z" /><path
     id="path139"
     d="m 446.7,83.1 c 0,-0.6 -0.3,-1.2 -0.9,-1.3 -1.3,-0.2 -2.6,-0.3 -4,-0.3 -0.6,0 -1.2,0 -1.9,0.1 -0.7,0 -1.4,0.1 -2.1,0.2 -0.9,0.2 -1.3,1.1 -1.1,2 0.1,0.5 0.4,1.1 0.6,1.6 0.1,0.2 0.2,0.4 0.3,0.7 -12.5,3 -28.5,6.2 -38,-4.9 -1,-1.2 -2.8,0.6 -1.8,1.8 4.4,5.1 10.8,7.6 17.3,8.4 8,0.9 16,-1 23.6,-2.9 0.1,0.1 0.1,0.2 0.2,0.3 0.4,0.6 0.9,1.1 1.6,1.3 0.8,0.2 1.5,0 2.1,-0.5 1,-0.8 1.8,-1.8 2.7,-2.7 0.5,-0.5 1,-0.9 1.4,-1.5 0.5,-0.9 0.5,-1.7 0,-2.3 z m -8.1,1 c 0,0 -0.1,0 0,0 z" /><path
     id="path141"
     d="m 393.4,321.2 c -0.5,-0.6 -1,-1.2 -1.6,-1.8 -1,-1 -2.9,-3.1 -4.4,-2.1 -0.3,0.1 -0.6,0.3 -0.7,0.5 -0.5,1 -0.9,2.1 -1.4,3.1 -13.1,-4.5 -21.1,-17.5 -28,-28.9 -0.8,-1.4 -3,-0.1 -2.2,1.3 7.2,11.9 15.6,25.2 29.2,29.9 -0.3,0.6 -0.5,1.2 -0.8,1.9 -0.2,0.4 -0.2,0.8 0,1.3 0.2,0.4 0.6,0.7 1.1,0.6 1.9,-0.1 3.7,-0.4 5.6,-0.7 0.8,-0.1 1.7,-0.2 2.5,-0.5 0.9,-0.3 2,-0.9 2,-2 0,-1.1 -0.8,-2 -1.3,-2.6 z" /><path
     id="path143"
     d="m 163.6,253.6 c -0.3,-0.9 -1.4,-1.4 -2.3,-1.6 -0.9,-0.2 -1.8,-0.2 -2.7,-0.1 -0.9,0.1 -1.9,0.1 -2.8,0.2 -1,0.1 -2,0.2 -2.9,0.7 -0.6,0.3 -0.9,0.8 -1,1.4 -0.1,0 -0.2,0 -0.3,0.1 -0.6,0.4 -0.8,1.1 -0.4,1.7 0.5,0.9 1,1.8 1.6,2.7 -16.7,13.1 -26.8,33.5 -27,54.7 -0.1,6.6 0.9,13.1 2.5,19.4 0.4,1.6 2.8,0.9 2.4,-0.7 -2.7,-10.9 -3.2,-22.1 -0.7,-33.2 2.3,-9.9 6.8,-19.3 13.1,-27.2 3.3,-4.1 7,-7.8 11.1,-11.1 0.5,0.7 1,1.3 1.6,1.9 0.4,0.5 1.3,0.5 1.8,0 1.3,-1.3 2.5,-2.7 3.6,-4.2 0.5,-0.7 1.1,-1.4 1.6,-2.2 0.4,-0.6 1.1,-1.5 0.8,-2.5 z" /><g
     aria-label="PLASTIQUE FONDU"
     style="font-style:normal;font-weight:normal;font-size:42.60985184px;line-height:1.25;font-family:sans-serif;letter-spacing:0px;word-spacing:0px;fill:#000000;fill-opacity:1;stroke:none;stroke-width:1"
     id="text961"><path
       d="m 35.993769,347.67381 h -0.04261 q 0,-0.0852 0.04261,-0.17044 0.04261,-0.0852 0.04261,-0.17044 0,-0.0852 0,-0.12783 0.04261,-0.0852 0.04261,-0.17044 h 0.04261 q 0.426099,-1.06525 1.363516,-1.19308 h 0.255659 q 1.874833,0 4.388814,1.7044 1.704394,1.15046 2.727031,3.11052 1.022636,1.96005 1.022636,4.13315 0,1.44874 -0.468708,2.64181 -0.426099,1.15047 -1.193076,2.1305 -0.724367,0.98002 -1.704394,1.83222 -0.980027,0.80959 -2.087883,1.57656 l -0.809587,0.55393 q -0.08522,0.34088 -0.08522,2.04528 v 2.51398 l 0.08522,4.94274 q -0.894807,0.93742 -1.661784,0.93742 -0.639148,0 -1.022637,-0.46871 -0.383488,-0.46871 -0.468708,-1.02264 -0.04261,-0.34088 -0.127829,-2.51398 -0.04261,-2.1731 -0.04261,-5.79494 0,-0.8522 -0.04261,-1.66178 0,-0.80959 0,-1.53396 0,-4.60186 -0.12783,-6.26365 -0.08522,-1.91744 -0.127829,-3.45139 -0.04261,-1.53396 -0.04261,-2.64182 0,-0.29826 0,-0.51131 0,-0.21305 0.04261,-0.4261 z m 3.110519,2.98269 q 0.08522,0.85219 0.08522,1.747 0.04261,0.8522 0.04261,1.7044 0,0.38348 0,0.72436 0,0.34088 0.04261,0.59654 0.12783,0.98003 0.12783,1.83222 0,0.8522 0,1.44874 0,0.59654 0,0.80959 0,0.21305 -0.04261,0.51132 1.320905,-0.8522 2.343542,-2.17311 1.022636,-1.36351 1.022636,-2.89747 0,-4.04793 -3.664447,-5.66711 v 0.55393 q 0,0.12783 0,0.34088 0,0.17044 0.04261,0.46871 z"
       style="font-style:normal;font-variant:normal;font-weight:normal;font-stretch:normal;font-family:PreciousPlastic;-inkscape-font-specification:PreciousPlastic;stroke-width:0.93874997"
       id="path1068" /><path
       d="m 48.393228,359.00803 q 0,-5.1984 0.08522,-7.92543 0.08522,-2.72703 0.298269,-2.94008 0.426098,-0.4261 0.852197,-0.4261 0.980026,0 1.406125,1.15046 0.08522,0.46871 0.127829,2.64181 0.08522,2.17311 0.12783,5.92277 0.04261,3.32357 0.04261,5.92277 0,2.5992 0,4.38882 0,2.5992 -0.17044,3.23835 0.596538,0 1.150466,0.0426 0.596538,0.0426 1.150466,0.17044 v -0.38349 q 1.278296,1.27829 1.278296,1.83222 0,0.76698 -0.596538,1.15047 -0.596538,0.38349 -1.193076,0.38349 -0.170439,0 -0.681758,0 -0.468708,-0.0426 -1.022636,-0.0852 -0.553928,-0.0426 -1.022636,-0.0852 -0.426099,-0.0426 -0.511319,-0.0852 -0.852197,-0.51132 -1.150466,-1.96006 -0.170439,-0.72436 -0.170439,-12.95339 z"
       style="font-style:normal;font-variant:normal;font-weight:normal;font-stretch:normal;font-family:PreciousPlastic;-inkscape-font-specification:PreciousPlastic;stroke-width:0.93874997"
       id="path1070" /><path
       d="m 57.4265,372.77101 q 0,-0.21305 0.04261,-0.55393 0.04261,-0.34088 0.127829,-0.76697 0.17044,-0.98003 0.724368,-3.79228 0.553928,-2.81225 1.491344,-7.45673 0.894807,-4.51664 1.406126,-7.11584 0.553928,-2.64181 0.639147,-2.94008 0.17044,-0.72437 0.937417,-1.32091 0.766977,-0.63914 1.533955,-0.63914 0.596538,0 0.937416,0.34088 0.340879,0.34087 0.980027,2.08788 0.639148,1.747 1.363515,5.07057 0.17044,0.72437 0.340879,1.44874 0.213049,0.72436 0.426099,1.57656 0.511318,2.04527 1.150466,4.51664 0.681757,2.42877 1.448735,5.49667 1.022636,4.09055 1.022636,4.81492 0,0.59654 -0.426098,1.02263 -0.383489,0.4261 -0.980027,0.4261 -0.894807,0 -1.363515,-1.10785 -0.21305,-0.55393 -1.065247,-3.11052 -0.852197,-2.55659 -1.661784,-6.94541 -0.08522,-0.51132 -0.213049,-0.8948 -0.08522,-0.38349 -0.170439,-0.55393 -0.639148,-0.12783 -3.366179,-0.12783 h -0.255659 q -0.08522,0.34088 -0.170439,0.85219 -0.08522,0.51132 -0.255659,1.2783 -0.17044,0.76698 -0.340879,1.53395 -0.17044,0.76698 -0.298269,1.57657 -0.08522,0.55393 -0.255659,1.40612 -0.12783,0.80959 -0.298269,1.66179 -0.12783,0.8522 -0.340879,1.61917 -0.170439,0.76698 -0.383489,1.19308 -0.426098,0.89481 -1.278295,0.89481 -0.596538,0 -1.022637,-0.4261 -0.426098,-0.46871 -0.426098,-1.06525 z m 5.66711,-13.59254 h 1.193076 q 0.340879,0 0.596538,0 0.298269,0 0.511318,0.0426 -0.04261,-0.12783 -0.08522,-0.25566 -0.04261,-0.12783 -0.08522,-0.29827 l -0.04261,-0.21305 q -0.04261,-0.21305 -0.17044,-0.59654 -0.08522,-0.4261 -0.255659,-0.98002 -0.213049,-0.59654 -0.298269,-1.15047 -0.08522,-0.55393 -0.255659,-1.15047 l -0.127829,-0.51131 q -0.08522,0.34087 -0.17044,0.72436 -0.04261,0.38349 -0.127829,0.80959 -0.298269,1.23569 -0.468709,2.13049 -0.127829,0.89481 -0.213049,1.44874 z"
       style="font-style:normal;font-variant:normal;font-weight:normal;font-stretch:normal;font-family:PreciousPlastic;-inkscape-font-specification:PreciousPlastic;stroke-width:0.93874997"
       id="path1072" /><path
       d="m 74.640806,372.68579 q 0,-0.76698 0.511318,-1.15046 0.553929,-0.4261 2.94008,-0.93742 1.917444,-0.4261 2.94008,-1.87484 1.022636,-1.44873 1.022636,-3.28095 0,-1.15047 -0.170439,-2.00267 -0.170439,-0.85219 -0.511318,-1.53395 -0.340879,-0.72437 -0.937417,-1.40613 -0.553928,-0.68175 -1.320905,-1.44873 -0.639148,-0.63915 -1.150466,-1.10786 -0.468709,-0.46871 -0.766978,-0.76697 -0.980026,-0.98003 -1.704394,-2.1305 -0.724367,-1.19307 -0.724367,-2.5992 0,-1.06524 0.468708,-2.13049 0.468709,-1.06525 1.235686,-1.91744 0.766977,-0.89481 1.789614,-1.40613 1.022636,-0.55393 2.087882,-0.55393 1.448735,0 1.448735,1.36352 0,0.68176 -0.255659,0.8948 -0.213049,0.21305 -1.235685,0.59654 -1.107857,0.4261 -1.832224,1.23569 -0.724368,0.76698 -0.724368,2.00266 0,0.29827 0.08522,0.59654 0.08522,0.29827 0.17044,0.51132 0,0.0426 0.383488,0.46871 0.426099,0.42609 0.937417,0.93741 0.511318,0.51132 1.022636,0.98003 0.511319,0.46871 0.681758,0.68176 l 0.553928,0.51131 q 0.639148,0.59654 1.065246,1.02264 0.426099,0.4261 0.553928,0.63915 0.809588,1.44873 1.363516,3.0253 0.596538,1.57656 0.596538,3.62184 0,2.21571 -1.235686,4.26098 -1.193076,2.00266 -3.110519,3.11052 -0.298269,0.12783 -0.937417,0.34088 -0.639148,0.21305 -1.363515,0.4261 -0.681758,0.17044 -1.363516,0.34088 -0.681757,0.12783 -1.065246,0.12783 -1.448735,0 -1.448735,-1.44874 z"
       style="font-style:normal;font-variant:normal;font-weight:normal;font-stretch:normal;font-family:PreciousPlastic;-inkscape-font-specification:PreciousPlastic;stroke-width:0.93874997"
       id="path1074" /><path
       d="m 87.935044,349.46342 q 0,-1.10785 1.022636,-1.36351 0.383489,-0.0852 2.173103,-0.0426 1.789613,0 4.601864,-0.25566 0.340878,-0.0426 0.766977,-0.0426 0.468708,0 0.852197,0 h 0.852197 q 0.809587,0 1.448735,0.21305 0.681757,0.21305 0.681757,1.19307 v 0.12783 q 0,0.38349 -0.29827,0.72437 -0.298267,0.34088 -0.681756,0.55393 -0.170439,0.0852 -0.681758,0.17044 -0.468708,0.0426 -1.022636,0.0852 -0.553928,0 -1.065246,0.0426 -0.511319,0 -0.766978,0 h -0.255659 v 10.73768 q 0,5.6245 -0.127829,8.82024 -0.08522,3.15313 -0.298269,3.49401 -0.12783,0.21305 -0.383489,0.25566 -0.255659,0.0426 -0.681758,0.0426 -0.255659,0 -0.553928,0 -0.255659,-0.0426 -0.468708,-0.21305 -0.340879,-0.38349 -0.468708,-0.80959 -0.12783,-0.46871 -0.12783,-1.02264 0,-0.59653 0.04261,-1.3209 0.04261,-0.76698 0.04261,-1.78962 0,-1.44873 0,-2.81225 0.04261,-1.40612 0.04261,-2.81225 -0.04261,-1.36351 -0.04261,-2.68442 0.04261,-1.3209 0.04261,-2.64181 l 0.04261,-7.15845 h -1.193075 q -1.065247,0 -1.747004,-0.0426 -0.639148,-0.0426 -0.937417,-0.21305 -0.809587,-0.4261 -0.809587,-1.23569 z"
       style="font-style:normal;font-variant:normal;font-weight:normal;font-stretch:normal;font-family:PreciousPlastic;-inkscape-font-specification:PreciousPlastic;stroke-width:0.93874997"
       id="path1076" /><path
       d="m 102.97631,350.74172 q 0,-2.72703 1.49135,-2.72703 0.55393,0 1.06524,0.51132 l 0.51132,0.51131 0.0426,2.42876 q 0.0426,2.04528 0.0852,4.17577 0.0426,2.13049 0.12783,4.17577 0.0852,2.08788 0.0852,4.13315 0.0426,2.04527 0.0852,4.21838 0.0426,1.66178 0.0426,2.5992 0.0426,0.93741 0.0426,0.98002 0,0.38349 -0.0426,0.80959 0,0.38349 -0.17044,0.76698 -0.12783,0.34088 -0.4261,0.59654 -0.29827,0.21305 -0.8948,0.21305 -0.46871,0 -0.8522,-0.29827 -0.34088,-0.34088 -0.51132,-0.80959 -0.12783,-0.4261 -0.21305,-3.40879 -0.0426,-2.98269 -0.21305,-8.2237 l -0.0426,-1.3209 q -0.0426,-1.10786 -0.0426,-2.04528 0,-0.93741 -0.0426,-1.78961 -0.0852,-2.21571 -0.0852,-3.4514 0,-1.2783 -0.0426,-1.49134 z"
       style="font-style:normal;font-variant:normal;font-weight:normal;font-stretch:normal;font-family:PreciousPlastic;-inkscape-font-specification:PreciousPlastic;stroke-width:0.93874997"
       id="path1078" /><path
       d="m 109.11206,360.41415 q 0,-1.78961 0.17044,-3.57922 0.21305,-1.78962 0.55393,-3.57923 0.21305,-1.10786 0.72437,-2.25832 0.51132,-1.19308 1.27829,-2.17311 0.76698,-0.98002 1.78962,-1.57656 1.02263,-0.63915 2.30093,-0.63915 3.19574,0 4.98535,1.44874 1.83222,1.44873 2.72703,3.70705 0.89481,2.21572 1.10786,4.90014 0.21305,2.64181 0.21305,5.07057 0,1.36351 -0.12783,2.81225 -0.0852,1.44873 -0.46871,2.85486 -0.34088,1.36351 -0.98003,2.64181 -0.59654,1.23569 -1.61917,2.25832 0.34088,0.51132 0.68176,1.2783 0.34087,0.76698 0.34087,1.23568 0,0.68176 -0.42609,1.06525 -0.38349,0.34088 -0.98003,0.34088 -0.8522,0 -2.34354,-2.30093 -0.38349,0.0852 -0.76698,0.17044 -0.38349,0.0852 -0.8522,0.0852 -2.72703,0 -4.38881,-1.36352 -1.61918,-1.36351 -2.51398,-3.40879 -0.8522,-2.08788 -1.15047,-4.47403 -0.25566,-2.42876 -0.25566,-4.51665 z m 4.55926,8.35153 q 0.59653,1.10786 1.53395,1.7044 0.93742,0.55393 2.13049,0.63915 l -0.0852,-0.12783 q -0.34088,-0.55393 -0.51131,-0.98003 -0.12783,-0.46871 -0.12783,-0.72437 0,-0.55393 0.4687,-0.98002 0.46871,-0.46871 1.02264,-0.46871 0.76698,0 1.02264,0.72437 0.0852,0.25565 0.25566,0.63914 0.21305,0.34088 0.59653,0.55393 0.51132,-0.59654 0.98003,-1.66178 0.51132,-1.10786 0.72437,-2.51398 0.0852,-0.59654 0.12783,-1.78962 0.0852,-1.23568 0.0852,-3.11052 0,-0.93741 -0.0426,-2.04527 -0.0426,-1.15047 -0.17044,-2.30093 -0.12783,-1.15047 -0.38349,-2.21571 -0.25566,-1.06525 -0.68176,-1.87484 -0.59654,-1.15046 -1.83222,-1.83222 -1.23569,-0.72437 -2.47137,-0.72437 -0.93742,0 -1.61918,0.59654 -0.68176,0.59654 -1.15046,1.57656 -0.46871,0.93742 -0.76698,2.17311 -0.25566,1.19307 -0.4261,2.42876 -0.17044,1.19307 -0.21305,2.34354 -0.0426,1.10786 -0.0426,1.87483 0,0.8522 0.0852,1.96006 0.12783,1.06524 0.29827,2.1731 0.21305,1.10785 0.51132,2.1731 0.29827,1.02264 0.68176,1.78961 z m 4.09054,2.76965 v -0.38349 l -0.12783,0.17044 v 0.21305 z"
       style="font-style:normal;font-variant:normal;font-weight:normal;font-stretch:normal;font-family:PreciousPlastic;-inkscape-font-specification:PreciousPlastic;stroke-width:0.93874997"
       id="path1080" /><path
       d="m 127.90292,349.50603 v -0.0852 q 0.63915,-0.51132 1.19308,-0.51132 0.4261,0 0.68176,0.21305 0.25566,0.21305 0.38348,0.55393 0.17044,0.29827 0.21305,0.68176 0.0852,0.38349 0.12783,0.72437 0.0852,0.4687 0.12783,1.53395 0.0426,1.06525 0.12783,2.76964 0.0852,0.93742 0.12783,2.00266 0.0426,1.06525 0.12783,2.34355 0.21305,2.55659 0.38349,4.43142 0.21305,1.87483 0.55393,2.94008 0.17044,0.55393 0.4261,1.19308 0.29827,0.63914 0.68175,1.19307 0.38349,0.55393 0.89481,0.89481 0.51132,0.34088 1.15047,0.34088 0.68176,0 1.27829,-0.38349 0.59654,-0.4261 1.02264,-1.02264 0.46871,-0.63914 0.72437,-1.36351 0.29827,-0.72437 0.34088,-1.36352 0.0426,-0.51132 0.0426,-1.87483 0.0426,-1.40613 0.12783,-3.74967 0.12782,-4.43142 0.12782,-8.82024 0,-0.12783 0,-0.21305 0.0426,-0.12783 0.0426,-0.21305 v -0.25566 q -0.17043,-0.17043 -0.17043,-0.68175 0,-0.55393 0.34087,-0.93742 0.34088,-0.4261 0.89481,-0.51132 0.76698,0 1.10786,0.29827 0.34088,0.25566 0.59654,0.89481 0.25565,0.63915 0.25565,6.22104 0,9.80026 -0.51131,11.58988 -0.29827,1.02263 -0.8522,2.00266 -0.55393,0.98003 -1.36352,1.747 -0.76697,0.76698 -1.747,1.23569 -0.98003,0.4261 -2.13049,0.4261 -2.25832,0 -3.62184,-1.2783 -1.36352,-1.3209 -2.13049,-3.19574 -0.72437,-1.87483 -1.02264,-3.96271 -0.25566,-2.1305 -0.34088,-3.74967 0,-0.25566 -0.0426,-1.10786 -0.0426,-0.85219 -0.12783,-1.91744 l -0.0426,-0.76698 q -0.0426,-0.55393 -0.0852,-1.06524 0,-0.51132 -0.0426,-0.93742 l -0.0426,-1.10786 q -0.0426,-1.19307 -0.12783,-2.13049 -0.0426,-0.98003 -0.0426,-1.53395 0,-0.89481 0.34088,-1.49135 z"
       style="font-style:normal;font-variant:normal;font-weight:normal;font-stretch:normal;font-family:PreciousPlastic;-inkscape-font-specification:PreciousPlastic;stroke-width:0.93874997"
       id="path1082" /><path
       d="m 144.30766,351.72174 q 0,-3.45139 0.17044,-3.79227 0.46871,-0.72437 1.19307,-0.80959 0.72437,-0.12783 2.00267,-0.12783 h 0.29826 q 0.25566,-0.0426 0.55393,-0.0426 0.29827,0 0.63915,0 h 0.68176 q 0.46871,0 0.93742,0.0426 0.4687,0 0.80958,0.17044 0.38349,0.17044 0.59654,0.51132 0.25566,0.34088 0.25566,0.93741 h 0.0852 q -0.29827,0.51132 -0.8522,0.80959 -0.55393,0.29827 -1.19307,0.4261 -0.63915,0.12783 -1.32091,0.17044 -0.63915,0 -1.19308,0 -0.17043,0 -0.34087,0.0426 -0.17044,0 -0.34088,0 l 0.0426,4.21838 q 0.0426,1.78961 0.0852,3.0679 0.0426,1.23569 0.0426,1.87484 v 0.38349 q 2.04527,0.0426 2.04527,1.49134 0,0.89481 -0.63915,1.2783 -0.59654,0.34088 -1.3209,0.38349 v 0.68175 q -0.0426,0.21305 -0.0426,0.46871 0,0.21305 0,0.55393 0,1.02264 0,2.13049 0.0426,1.06525 0.12783,2.30093 0.0426,0.46871 0,0.89481 0,0.4261 0.0852,0.68176 0.0426,0.12783 0.0426,0.38349 0.21304,0.0426 0.51131,0.0852 0.34088,0 0.80959,0 1.96005,0 2.55659,0.25566 0.63915,0.25566 0.63915,1.10785 v 0.0852 q 0,0.46871 -0.63915,1.61918 l -2.98269,-0.0426 h -0.38349 q -1.15046,0 -1.747,0 -0.59654,-0.0426 -0.93742,-0.12783 -0.29827,-0.0852 -0.4261,-0.29827 -0.12782,-0.25566 -0.29826,-0.63915 -0.0852,-0.21305 -0.17044,-1.70439 -0.0426,-1.49135 -0.12783,-3.62184 -0.0426,-2.1731 -0.12783,-4.68708 -0.0426,-2.51399 -0.0852,-4.77231 0,-2.30093 -0.0426,-4.04793 0,-1.74701 0,-2.34355 z"
       style="font-style:normal;font-variant:normal;font-weight:normal;font-stretch:normal;font-family:PreciousPlastic;-inkscape-font-specification:PreciousPlastic;stroke-width:0.93874997"
       id="path1084" /><path
       d="m 165.74031,348.31296 q 0.25566,-1.10786 1.06525,-1.36352 0.46871,-0.12783 3.36618,-0.12783 3.06791,0 3.57922,0.34088 0.59654,0.38349 0.59654,1.23569 0,0.51131 -0.0852,0.80958 -0.0426,0.29827 -0.38349,0.46871 -0.29826,0.12783 -0.98002,0.17044 -0.63915,0.0426 -1.78962,0.0426 h -0.59653 l -1.78962,0.0426 v 2.89747 q 0,0.4261 0,0.8522 0.0426,0.38349 0.0426,0.80958 v 2.42877 h 2.25832 l 0.55393,0.72436 q 0.17044,0.21305 0.25566,0.34088 0.0852,0.12783 0.0852,0.4261 0,0.46871 -0.29827,0.80959 -0.29827,0.29827 -0.72437,0.46871 -0.38348,0.17044 -0.8948,0.25566 -0.46871,0.0426 -0.8522,0.0426 h -0.38349 v 0.51131 q 0,2.64181 0.12783,10.56725 v 2.38615 l -0.55393,0.4261 q -0.4261,0.29827 -0.80958,0.29827 -1.40613,0 -1.66179,-2.34355 -0.25566,-2.42876 -0.25566,-17.85352 0,-5.02797 0.12783,-5.66711 z"
       style="font-style:normal;font-variant:normal;font-weight:normal;font-stretch:normal;font-family:PreciousPlastic;-inkscape-font-specification:PreciousPlastic;stroke-width:0.93874997"
       id="path1086" /><path
       d="m 177.28753,353.76702 q 0.12783,-1.49135 0.59654,-2.76964 0.51132,-1.32091 1.3209,-2.25833 0.8522,-0.98002 2.04528,-1.53395 1.23568,-0.55393 2.81225,-0.55393 1.87483,0 3.19573,0.8522 1.32091,0.8522 2.17311,2.1731 0.85219,1.32091 1.27829,2.98269 0.46871,1.61918 0.63915,3.15313 0.0852,0.8522 0.12783,2.21571 0.0426,1.32091 0.0852,3.11052 0,1.40613 -0.0852,2.98269 -0.0426,1.57657 -0.34088,3.11052 -0.29827,1.53395 -0.93742,2.94008 -0.63914,1.36352 -1.747,2.38615 -1.66178,1.53396 -4.00533,1.53396 -2.1731,0 -3.57922,-1.23569 -1.40613,-1.23569 -2.21572,-3.06791 -0.80958,-1.83222 -1.10785,-3.92011 -0.29827,-2.08788 -0.29827,-3.79227 0,-0.8522 -0.0852,-1.66179 -0.0852,-0.80958 -0.0852,-1.66178 0,-1.49135 0.0426,-2.72703 0.0852,-1.2783 0.17044,-2.25832 z m 2.85486,4.55925 q 0,1.10786 0.0852,3.0253 0.0852,1.87483 0.38349,3.79228 0.34088,1.91744 0.8948,3.53662 0.59654,1.57656 1.57657,2.04527 0.34088,0.17044 1.23568,0.17044 1.53396,0 2.38616,-1.06525 0.85219,-1.06525 1.27829,-2.5992 0.4261,-1.53395 0.51132,-3.19574 0.0852,-1.70439 0.0852,-2.89747 l -0.0852,-0.59654 h 0.0426 q -0.0426,-0.34088 -0.0852,-0.76697 0,-0.46871 0,-1.06525 0,-1.10786 -0.17044,-2.64181 -0.12783,-1.57657 -0.63915,-3.0253 -0.46871,-1.44874 -1.36351,-2.42876 -0.8522,-1.02264 -2.34354,-1.02264 -0.76698,0 -1.36352,0.34088 -0.55393,0.34088 -1.02264,0.89481 -0.42609,0.55393 -0.72436,1.23568 -0.29827,0.68176 -0.4261,1.36352 -0.25566,1.19307 -0.25566,4.90013 z"
       style="font-style:normal;font-variant:normal;font-weight:normal;font-stretch:normal;font-family:PreciousPlastic;-inkscape-font-specification:PreciousPlastic;stroke-width:0.93874997"
       id="path1088" /><path
       d="m 194.11839,349.63386 q 0.21305,-1.78961 1.36351,-1.78961 0.63915,0 1.40613,0.76697 0.46871,0.46871 1.49134,2.68443 1.02264,2.21571 2.5992,6.0932 l 0.59654,1.44874 q 0.34088,0.76698 0.59654,1.44873 0.29827,0.68176 0.51132,1.2783 0.34088,0.89481 0.55393,1.44873 0.21304,0.51132 0.38348,0.93742 0.17044,0.4261 0.34088,0.80959 0.17044,0.38349 0.38349,0.89481 -0.0426,-1.7044 -0.17044,-3.36618 -0.0852,-1.7044 -0.21305,-3.36618 -0.0852,-0.59654 -0.0852,-1.02264 0,-0.46871 0,-0.68176 0,-1.40612 -0.0852,-2.5992 -0.0852,-1.23568 -0.21305,-2.25832 -0.0852,-0.76698 -0.12783,-1.44873 -0.0426,-0.68176 -0.0426,-1.2783 v -0.17044 q 0,-0.59654 0.38349,-1.19307 0.4261,-0.63915 0.93742,-0.63915 1.19308,0 1.53396,1.49134 0.12782,0.59654 0.21304,2.51398 0.12783,1.91745 0.34088,5.24102 0.0852,1.91744 0.21305,4.17576 0.17044,2.25832 0.34088,4.94274 0.0852,1.53396 0.12783,2.81225 0.0426,1.23569 0.0426,2.1305 0,0.29827 -0.0426,0.85219 0,0.51132 -0.17044,1.02264 -0.12783,0.51132 -0.46871,0.89481 -0.29827,0.38349 -0.8948,0.38349 -0.72437,0 -1.19308,-0.63915 -0.4261,-0.68176 -0.72437,-1.2783 -0.29827,-0.59653 -1.10785,-2.30093 -0.80959,-1.70439 -1.91745,-4.51664 -0.85219,-2.21572 -1.78961,-4.43143 -0.93742,-2.25832 -1.87483,-4.43142 0.0852,1.78961 0.12783,3.57923 0.0852,1.78961 0.17043,3.57922 0.0852,3.06791 0.17044,5.15579 0.12783,2.08789 0.12783,3.06791 0,0.46871 -0.0426,0.80959 0,0.29827 -0.0426,0.51132 -0.0852,0.46871 -0.4687,0.63915 -0.38349,0.17044 -0.72437,0.17044 -0.55393,0 -0.98003,-0.34088 -0.4261,-0.38349 -0.55393,-1.15047 -0.0426,-0.21305 -0.21305,-2.85486 -0.17043,-2.64181 -0.34087,-7.7976 -0.0426,-1.10786 -0.0852,-2.13049 -0.0426,-1.06525 -0.0852,-2.00267 -0.0852,-3.19574 -0.21305,-5.15579 -0.0852,-1.96005 -0.0852,-2.68442 z"
       style="font-style:normal;font-variant:normal;font-weight:normal;font-stretch:normal;font-family:PreciousPlastic;-inkscape-font-specification:PreciousPlastic;stroke-width:0.93874997"
       id="path1090" /><path
       d="m 212.31273,346.3529 q 2.42876,0 4.38881,1.23569 1.96006,1.23568 3.32357,3.15313 0.8522,1.3209 1.36352,2.76964 0.55393,1.40612 0.85219,2.89747 0.29827,1.44873 0.38349,2.98269 0.0852,1.53395 0.0852,3.06791 0,1.36351 -0.0426,2.30093 -0.0426,0.89481 -0.12783,1.3209 -0.42609,1.78962 -1.19307,3.28096 -0.72437,1.49135 -1.83223,2.55659 -1.10785,1.02264 -2.5992,1.61918 -1.49134,0.59654 -3.40878,0.59654 h -0.29827 q -1.78962,-0.0426 -2.1305,-1.36352 -0.12783,-0.51132 -0.17044,-1.83222 -0.0426,-1.32091 -0.12783,-3.36618 -0.0426,-1.36352 -0.0852,-3.06791 0,-1.70439 -0.21304,-3.74967 -0.0426,-0.68175 -0.12783,-2.72703 0,-1.36351 -0.0426,-2.72703 -0.0426,-1.36351 -0.12783,-2.72703 -0.12783,-2.64181 -0.12783,-3.79228 0,-0.76697 0.0852,-1.23568 0.0852,-0.46871 0.29827,-0.72437 0.25565,-0.29827 0.68175,-0.38349 0.46871,-0.0852 1.19308,-0.0852 z m 0.68176,3.28096 q 0.21305,1.15047 0.25566,3.83489 0.0426,1.3209 0.0852,2.89747 0.0426,1.53395 0.0852,3.32357 0.0426,1.78961 0.0426,2.76964 0.0426,0.98002 0.0426,1.19307 0.0852,2.55659 0.21304,4.43143 0.12783,1.87483 0.25566,2.98269 2.17311,-0.55393 3.4514,-1.74701 1.32091,-1.23568 2.00266,-3.40879 0.25566,-0.85219 0.25566,-3.70705 0,-1.74701 -0.29827,-3.79228 -0.25565,-2.08788 -1.02263,-3.92011 -0.72437,-1.87483 -2.04527,-3.23834 -1.2783,-1.40613 -3.36618,-1.83223 0,0.0852 0,0.12783 0.0426,0.0426 0.0426,0.0852 z"
       style="font-style:normal;font-variant:normal;font-weight:normal;font-stretch:normal;font-family:PreciousPlastic;-inkscape-font-specification:PreciousPlastic;stroke-width:0.93874997"
       id="path1092" /><path
       d="m 225.69221,349.50603 v -0.0852 q 0.63915,-0.51132 1.19308,-0.51132 0.4261,0 0.68176,0.21305 0.25566,0.21305 0.38349,0.55393 0.17044,0.29827 0.21305,0.68176 0.0852,0.38349 0.12783,0.72437 0.0852,0.4687 0.12782,1.53395 0.0426,1.06525 0.12783,2.76964 0.0852,0.93742 0.12783,2.00266 0.0426,1.06525 0.12783,2.34355 0.21305,2.55659 0.38349,4.43142 0.21305,1.87483 0.55393,2.94008 0.17044,0.55393 0.4261,1.19308 0.29827,0.63914 0.68176,1.19307 0.38348,0.55393 0.8948,0.89481 0.51132,0.34088 1.15047,0.34088 0.68176,0 1.27829,-0.38349 0.59654,-0.4261 1.02264,-1.02264 0.46871,-0.63914 0.72437,-1.36351 0.29827,-0.72437 0.34088,-1.36352 0.0426,-0.51132 0.0426,-1.87483 0.0426,-1.40613 0.12783,-3.74967 0.12783,-4.43142 0.12783,-8.82024 0,-0.12783 0,-0.21305 0.0426,-0.12783 0.0426,-0.21305 v -0.25566 q -0.17044,-0.17043 -0.17044,-0.68175 0,-0.55393 0.34088,-0.93742 0.34087,-0.4261 0.8948,-0.51132 0.76698,0 1.10786,0.29827 0.34088,0.25566 0.59654,0.89481 0.25566,0.63915 0.25566,6.22104 0,9.80026 -0.51132,11.58988 -0.29827,1.02263 -0.8522,2.00266 -0.55393,0.98003 -1.36351,1.747 -0.76698,0.76698 -1.74701,1.23569 -0.98003,0.4261 -2.13049,0.4261 -2.25832,0 -3.62184,-1.2783 -1.36351,-1.3209 -2.13049,-3.19574 -0.72437,-1.87483 -1.02264,-3.96271 -0.25566,-2.1305 -0.34088,-3.74967 0,-0.25566 -0.0426,-1.10786 -0.0426,-0.85219 -0.12783,-1.91744 l -0.0426,-0.76698 q -0.0426,-0.55393 -0.0852,-1.06524 0,-0.51132 -0.0426,-0.93742 l -0.0426,-1.10786 q -0.0426,-1.19307 -0.12782,-2.13049 -0.0426,-0.98003 -0.0426,-1.53395 0,-0.89481 0.34087,-1.49135 z"
       style="font-style:normal;font-variant:normal;font-weight:normal;font-stretch:normal;font-family:PreciousPlastic;-inkscape-font-specification:PreciousPlastic;stroke-width:0.93874997"
       id="path1094" /></g><g
     aria-label="piston"
     style="font-style:normal;font-weight:normal;font-size:42.60985184px;line-height:1.25;font-family:sans-serif;letter-spacing:0px;word-spacing:0px;fill:#000000;fill-opacity:1;stroke:none;stroke-width:1"
     id="text1035"><path
       d="m 354.75599,47.717609 h -0.0426 q 0,-0.08522 0.0426,-0.17044 0.0426,-0.08522 0.0426,-0.170439 0,-0.08522 0,-0.12783 0.0426,-0.08522 0.0426,-0.170439 h 0.0426 q 0.4261,-1.065247 1.36351,-1.193076 h 0.25566 q 1.87483,0 4.38882,1.704394 1.70439,1.150466 2.72703,3.110519 1.02263,1.960053 1.02263,4.133156 0,1.448735 -0.46871,2.641811 -0.42609,1.150466 -1.19307,2.130492 -0.72437,0.980027 -1.7044,1.832224 -0.98002,0.809587 -2.08788,1.576564 l -0.80959,0.553928 q -0.0852,0.340879 -0.0852,2.045273 v 2.513982 l 0.0852,4.942742 q -0.8948,0.937417 -1.66178,0.937417 -0.63915,0 -1.02264,-0.468708 -0.38348,-0.468709 -0.4687,-1.022637 -0.0426,-0.340879 -0.12783,-2.513981 -0.0426,-2.173102 -0.0426,-5.79494 0,-0.852197 -0.0426,-1.661784 0,-0.809587 0,-1.533955 0,-4.601864 -0.12783,-6.263648 -0.0852,-1.917443 -0.12783,-3.451398 -0.0426,-1.533955 -0.0426,-2.641811 0,-0.298269 0,-0.511318 0,-0.213049 0.0426,-0.426098 z m 3.11052,2.982689 q 0.0852,0.852197 0.0852,1.747004 0.0426,0.852197 0.0426,1.704394 0,0.383489 0,0.724368 0,0.340878 0.0426,0.596538 0.12783,0.980026 0.12783,1.832223 0,0.852197 0,1.448735 0,0.596538 0,0.809587 0,0.21305 -0.0426,0.511319 1.3209,-0.852197 2.34354,-2.173103 1.02263,-1.363515 1.02263,-2.89747 0,-4.047936 -3.66444,-5.66711 v 0.553928 q 0,0.12783 0,0.340879 0,0.170439 0.0426,0.468708 z"
       style="font-style:normal;font-variant:normal;font-weight:normal;font-stretch:normal;font-family:PreciousPlastic;-inkscape-font-specification:PreciousPlastic;stroke-width:0.93874997"
       id="path1108" /><path
       d="m 367.19806,50.785518 q 0,-2.727031 1.49134,-2.727031 0.55393,0 1.06525,0.511319 l 0.51132,0.511318 0.0426,2.428761 q 0.0426,2.045273 0.0852,4.175766 0.0426,2.130492 0.12782,4.175765 0.0852,2.087883 0.0852,4.133156 0.0426,2.045273 0.0852,4.218375 0.0426,1.661784 0.0426,2.599201 0.0426,0.937417 0.0426,0.980027 0,0.383488 -0.0426,0.809587 0,0.383489 -0.17044,0.766977 -0.12783,0.340879 -0.42609,0.596538 -0.29827,0.213049 -0.89481,0.213049 -0.46871,0 -0.8522,-0.298268 -0.34088,-0.340879 -0.51132,-0.809588 -0.12783,-0.426098 -0.21305,-3.408788 -0.0426,-2.982689 -0.21304,-8.223701 l -0.0426,-1.320906 q -0.0426,-1.107856 -0.0426,-2.045272 0,-0.937417 -0.0426,-1.789614 -0.0852,-2.215713 -0.0852,-3.451398 0,-1.278296 -0.0426,-1.491345 z"
       style="font-style:normal;font-variant:normal;font-weight:normal;font-stretch:normal;font-family:PreciousPlastic;-inkscape-font-specification:PreciousPlastic;stroke-width:0.93874997"
       id="path1110" /><path
       d="m 373.24858,72.729592 q 0,-0.766978 0.51132,-1.150466 0.55393,-0.426099 2.94008,-0.937417 1.91744,-0.426099 2.94008,-1.874834 1.02264,-1.448735 1.02264,-3.280958 0,-1.150466 -0.17044,-2.002663 -0.17044,-0.852197 -0.51132,-1.533955 -0.34088,-0.724367 -0.93742,-1.406125 -0.55393,-0.681758 -1.3209,-1.448735 -0.63915,-0.639148 -1.15047,-1.107856 -0.46871,-0.468709 -0.76698,-0.766978 -0.98002,-0.980026 -1.70439,-2.130492 -0.72437,-1.193076 -0.72437,-2.599201 0,-1.065246 0.46871,-2.130493 0.46871,-1.065246 1.23569,-1.917443 0.76697,-0.894807 1.78961,-1.406125 1.02264,-0.553928 2.08788,-0.553928 1.44874,0 1.44874,1.363515 0,0.681758 -0.25566,0.894807 -0.21305,0.213049 -1.23569,0.596538 -1.10785,0.426098 -1.83222,1.235686 -0.72437,0.766977 -0.72437,2.002663 0,0.298269 0.0852,0.596538 0.0852,0.298269 0.17044,0.511318 0,0.04261 0.38349,0.468708 0.4261,0.426099 0.93742,0.937417 0.51131,0.511318 1.02263,0.980026 0.51132,0.468709 0.68176,0.681758 l 0.55393,0.511318 q 0.63915,0.596538 1.06525,1.022637 0.42609,0.426098 0.55392,0.639148 0.80959,1.448735 1.36352,3.025299 0.59654,1.576565 0.59654,3.621837 0,2.215713 -1.23569,4.260986 -1.19308,2.002663 -3.11052,3.110519 -0.29827,0.127829 -0.93742,0.340879 -0.63914,0.213049 -1.36351,0.426098 -0.68176,0.17044 -1.36352,0.340879 -0.68175,0.127829 -1.06524,0.127829 -1.44874,0 -1.44874,-1.448734 z"
       style="font-style:normal;font-variant:normal;font-weight:normal;font-stretch:normal;font-family:PreciousPlastic;-inkscape-font-specification:PreciousPlastic;stroke-width:0.93874997"
       id="path1112" /><path
       d="m 386.54282,49.507222 q 0,-1.107856 1.02264,-1.363515 0.38349,-0.08522 2.1731,-0.04261 1.78961,0 4.60187,-0.255659 0.34087,-0.04261 0.76697,-0.04261 0.46871,0 0.8522,0 h 0.8522 q 0.80958,0 1.44873,0.213049 0.68176,0.21305 0.68176,1.193076 v 0.12783 q 0,0.383489 -0.29827,0.724367 -0.29827,0.340879 -0.68176,0.553928 -0.17044,0.08522 -0.68176,0.17044 -0.4687,0.04261 -1.02263,0.08522 -0.55393,0 -1.06525,0.04261 -0.51132,0 -0.76698,0 h -0.25565 V 61.65103 q 0,5.6245 -0.12783,8.820239 -0.0852,3.153129 -0.29827,3.494008 -0.12783,0.213049 -0.38349,0.255659 -0.25566,0.04261 -0.68176,0.04261 -0.25566,0 -0.55393,0 -0.25566,-0.04261 -0.46871,-0.213049 -0.34087,-0.383489 -0.4687,-0.809587 -0.12783,-0.468709 -0.12783,-1.022637 0,-0.596538 0.0426,-1.320905 0.0426,-0.766977 0.0426,-1.789614 0,-1.448735 0,-2.81225 0.0426,-1.406125 0.0426,-2.81225 -0.0426,-1.363516 -0.0426,-2.684421 0.0426,-1.320905 0.0426,-2.641811 l 0.0426,-7.158455 h -1.19308 q -1.06525,0 -1.747,-0.04261 -0.63915,-0.04261 -0.93742,-0.213049 -0.80959,-0.426099 -0.80959,-1.235686 z"
       style="font-style:normal;font-variant:normal;font-weight:normal;font-stretch:normal;font-family:PreciousPlastic;-inkscape-font-specification:PreciousPlastic;stroke-width:0.93874997"
       id="path1114" /><path
       d="m 401.83975,53.810817 q 0.12783,-1.491344 0.59654,-2.76964 0.51132,-1.320905 1.32091,-2.258322 0.85219,-0.980027 2.04527,-1.533955 1.23568,-0.553928 2.81225,-0.553928 1.87483,0 3.19574,0.852197 1.3209,0.852197 2.1731,2.173103 0.8522,1.320905 1.2783,2.982689 0.4687,1.619175 0.63914,3.153129 0.0852,0.852197 0.12783,2.215713 0.0426,1.320905 0.0852,3.110519 0,1.406125 -0.0852,2.982689 -0.0426,1.576565 -0.34088,3.110519 -0.29826,1.533955 -0.93741,2.94008 -0.63915,1.363516 -1.74701,2.386152 -1.66178,1.533955 -4.00532,1.533955 -2.17311,0 -3.57923,-1.235686 -1.40613,-1.235686 -2.21571,-3.067909 -0.80959,-1.832224 -1.10786,-3.920107 -0.29827,-2.087883 -0.29827,-3.792277 0,-0.852197 -0.0852,-1.661784 -0.0852,-0.809587 -0.0852,-1.661784 0,-1.491345 0.0426,-2.727031 0.0852,-1.278295 0.17044,-2.258322 z m 2.85486,4.559254 q 0,1.107857 0.0852,3.0253 0.0852,1.874833 0.38349,3.792277 0.34088,1.917443 0.89481,3.536617 0.59654,1.576565 1.57656,2.045273 0.34088,0.17044 1.23569,0.17044 1.53395,0 2.38615,-1.065247 0.8522,-1.065246 1.2783,-2.599201 0.42609,-1.533954 0.51131,-3.195738 0.0852,-1.704394 0.0852,-2.89747 l -0.0852,-0.596538 h 0.0426 q -0.0426,-0.340879 -0.0852,-0.766978 0,-0.468708 0,-1.065246 0,-1.107856 -0.17044,-2.641811 -0.12783,-1.576564 -0.63914,-3.025299 -0.46871,-1.448735 -1.36352,-2.428762 -0.8522,-1.022636 -2.34354,-1.022636 -0.76698,0 -1.36352,0.340879 -0.55392,0.340878 -1.02263,0.894807 -0.4261,0.553928 -0.72437,1.235685 -0.29827,0.681758 -0.4261,1.363516 -0.25566,1.193075 -0.25566,4.900132 z"
       style="font-style:normal;font-variant:normal;font-weight:normal;font-stretch:normal;font-family:PreciousPlastic;-inkscape-font-specification:PreciousPlastic;stroke-width:0.93874997"
       id="path1116" /><path
       d="m 418.6706,49.677662 q 0.21305,-1.789614 1.36352,-1.789614 0.63915,0 1.40612,0.766977 0.46871,0.468709 1.49135,2.684421 1.02263,2.215712 2.5992,6.093209 l 0.59654,1.448735 q 0.34088,0.766977 0.59653,1.448735 0.29827,0.681757 0.51132,1.278295 0.34088,0.894807 0.55393,1.448735 0.21305,0.511318 0.38349,0.937417 0.17044,0.426098 0.34088,0.809587 0.17044,0.383489 0.38349,0.894807 -0.0426,-1.704394 -0.17044,-3.366178 -0.0852,-1.704394 -0.21305,-3.366179 -0.0852,-0.596538 -0.0852,-1.022636 0,-0.468708 0,-0.681758 0,-1.406125 -0.0852,-2.599201 -0.0852,-1.235685 -0.21305,-2.258322 -0.0852,-0.766977 -0.12783,-1.448735 -0.0426,-0.681757 -0.0426,-1.278295 v -0.17044 q 0,-0.596538 0.38349,-1.193076 0.4261,-0.639147 0.93742,-0.639147 1.19307,0 1.53395,1.491344 0.12783,0.596538 0.21305,2.513982 0.12783,1.917443 0.34088,5.241012 0.0852,1.917443 0.21305,4.175765 0.17044,2.258322 0.34088,4.942743 0.0852,1.533954 0.12783,2.81225 0.0426,1.235686 0.0426,2.130493 0,0.298269 -0.0426,0.852197 0,0.511318 -0.17044,1.022636 -0.12783,0.511318 -0.46871,0.894807 -0.29827,0.383489 -0.89481,0.383489 -0.72437,0 -1.19307,-0.639148 -0.4261,-0.681758 -0.72437,-1.278296 -0.29827,-0.596538 -1.10786,-2.300932 -0.80959,-1.704394 -1.91744,-4.516644 -0.8522,-2.215712 -1.78961,-4.431425 -0.93742,-2.258322 -1.87484,-4.431424 0.0852,1.789614 0.12783,3.579227 0.0852,1.789614 0.17044,3.579228 0.0852,3.067909 0.17044,5.155792 0.12783,2.087883 0.12783,3.067909 0,0.468709 -0.0426,0.809588 0,0.298268 -0.0426,0.511318 -0.0852,0.468708 -0.46871,0.639148 -0.38349,0.170439 -0.72437,0.170439 -0.55392,0 -0.98002,-0.340879 -0.4261,-0.383489 -0.55393,-1.150466 -0.0426,-0.213049 -0.21305,-2.85486 -0.17044,-2.641811 -0.34088,-7.797603 -0.0426,-1.107856 -0.0852,-2.130492 -0.0426,-1.065247 -0.0852,-2.002663 -0.0852,-3.195739 -0.21305,-5.155793 -0.0852,-1.960053 -0.0852,-2.68442 z"
       style="font-style:normal;font-variant:normal;font-weight:normal;font-stretch:normal;font-family:PreciousPlastic;-inkscape-font-specification:PreciousPlastic;stroke-width:0.93874997"
       id="path1118" /></g><g
     aria-label="moule"
     style="font-style:normal;font-weight:normal;font-size:42.60985184px;line-height:1.25;font-family:sans-serif;letter-spacing:0px;word-spacing:0px;fill:#000000;fill-opacity:1;stroke:none;stroke-width:1"
     id="text1039"><path
       d="m 324.66633,285.15251 q 0,-0.80958 0.4261,-5.28362 0.42609,-4.51664 1.36351,-12.82556 0.12783,-1.15047 0.21305,-2.25833 0.12783,-1.10785 0.21305,-2.1731 0.12783,-1.49134 0.4261,-1.83222 0.34088,-0.34088 1.06524,-0.34088 1.10786,0 2.00267,1.15046 0.29827,0.38349 0.72436,1.06525 0.4261,0.68176 1.15047,1.66178 0.34088,0.46871 0.59654,0.89481 0.29827,0.4261 0.46871,0.72437 0.12783,0.25566 0.21305,0.34088 0.25565,-0.34088 0.63914,-0.89481 0.38349,-0.59654 0.89481,-1.36351 1.83222,-2.85486 2.34354,-3.28096 0.46871,-0.4261 1.15047,-0.4261 1.06524,0 1.44873,0.98003 0.12783,0.34087 0.25566,1.36351 0.17044,1.02264 0.51132,2.81225 0.0852,0.51132 0.17044,1.06525 0.0852,0.55393 0.17044,1.15046 0.59654,3.62184 1.06525,6.94541 0.4687,3.28096 0.93741,6.34887 0.0852,0.63914 0.17044,1.23568 0.0852,0.59654 0.17044,1.02264 0.12783,0.89481 0.17044,1.10786 0.17044,0.68175 0.17044,1.06524 0,0.34088 0,0.55393 0,0.63915 -0.4261,1.06525 -0.4261,0.38348 -0.89481,0.38348 h -0.12782 q -0.25566,0 -0.55393,-0.12783 -0.25566,-0.17043 -0.38349,-0.34087 -0.38349,-0.46871 -0.80959,-2.81225 -0.4261,-2.34355 -1.02264,-6.56192 -0.59653,-4.26099 -1.02263,-7.28629 -0.4261,-3.0253 -0.76698,-4.94274 -0.46871,0.68176 -0.93742,1.40613 -0.4687,0.68175 -0.93741,1.3209 l -0.76698,1.02264 q -0.63915,0.8522 -0.93742,1.15046 -0.25566,0.29827 -0.72436,0.29827 -0.4261,0 -0.93742,-0.4261 -0.51132,-0.4687 -1.02264,-1.44873 -0.12783,-0.25566 -0.4261,-0.72437 -0.25565,-0.46871 -0.55392,-0.98002 -0.29827,-0.51132 -0.59654,-0.93742 -0.29827,-0.4261 -0.51132,-0.55393 -0.0426,0.76698 -0.12783,1.91744 -0.0852,1.10786 -0.21305,2.51399 -0.34088,3.45139 -0.63915,6.90279 -0.29827,3.40879 -0.68175,6.86019 -0.17044,1.66178 -0.59654,2.42876 l 0.0852,0.0852 -0.21305,0.17044 q -0.12783,0.12783 -0.12783,0.17044 l -0.0426,-0.0426 q -0.29827,0.25566 -0.72437,0.25566 h -0.12783 q -0.59654,0 -0.98002,-0.4261 -0.38349,-0.4261 -0.38349,-1.15047 z"
       style="font-style:normal;font-variant:normal;font-weight:normal;font-stretch:normal;font-family:PreciousPlastic;-inkscape-font-specification:PreciousPlastic;stroke-width:0.93874997"
       id="path1097" /><path
       d="m 346.65294,266.31896 q 0.12783,-1.49135 0.59654,-2.76964 0.51132,-1.32091 1.3209,-2.25832 0.8522,-0.98003 2.04528,-1.53396 1.23568,-0.55393 2.81225,-0.55393 1.87483,0 3.19573,0.8522 1.32091,0.8522 2.17311,2.1731 0.85219,1.32091 1.27829,2.98269 0.46871,1.61918 0.63915,3.15313 0.0852,0.8522 0.12783,2.21571 0.0426,1.32091 0.0852,3.11052 0,1.40613 -0.0852,2.98269 -0.0426,1.57657 -0.34088,3.11052 -0.29827,1.53396 -0.93742,2.94008 -0.63914,1.36352 -1.747,2.38615 -1.66178,1.53396 -4.00533,1.53396 -2.1731,0 -3.57922,-1.23569 -1.40613,-1.23568 -2.21572,-3.06791 -0.80958,-1.83222 -1.10785,-3.9201 -0.29827,-2.08789 -0.29827,-3.79228 0,-0.8522 -0.0852,-1.66179 -0.0852,-0.80958 -0.0852,-1.66178 0,-1.49134 0.0426,-2.72703 0.0852,-1.2783 0.17044,-2.25832 z m 2.85486,4.55925 q 0,1.10786 0.0852,3.0253 0.0852,1.87483 0.38349,3.79228 0.34088,1.91744 0.8948,3.53662 0.59654,1.57656 1.57657,2.04527 0.34088,0.17044 1.23568,0.17044 1.53396,0 2.38616,-1.06525 0.85219,-1.06524 1.27829,-2.5992 0.4261,-1.53395 0.51132,-3.19574 0.0852,-1.70439 0.0852,-2.89747 l -0.0852,-0.59654 h 0.0426 q -0.0426,-0.34087 -0.0852,-0.76697 0,-0.46871 0,-1.06525 0,-1.10786 -0.17044,-2.64181 -0.12783,-1.57656 -0.63915,-3.0253 -0.46871,-1.44873 -1.36351,-2.42876 -0.8522,-1.02264 -2.34354,-1.02264 -0.76698,0 -1.36352,0.34088 -0.55393,0.34088 -1.02264,0.89481 -0.42609,0.55393 -0.72436,1.23568 -0.29827,0.68176 -0.4261,1.36352 -0.25566,1.19307 -0.25566,4.90013 z"
       style="font-style:normal;font-variant:normal;font-weight:normal;font-stretch:normal;font-family:PreciousPlastic;-inkscape-font-specification:PreciousPlastic;stroke-width:0.93874997"
       id="path1099" /><path
       d="m 363.86728,262.05797 v -0.0852 q 0.63915,-0.51132 1.19308,-0.51132 0.4261,0 0.68176,0.21305 0.25565,0.21305 0.38348,0.55393 0.17044,0.29827 0.21305,0.68176 0.0852,0.38349 0.12783,0.72437 0.0852,0.46871 0.12783,1.53395 0.0426,1.06525 0.12783,2.76964 0.0852,0.93742 0.12783,2.00267 0.0426,1.06524 0.12783,2.34354 0.21305,2.55659 0.38349,4.43142 0.21305,1.87484 0.55393,2.94008 0.17044,0.55393 0.4261,1.19308 0.29827,0.63915 0.68175,1.19307 0.38349,0.55393 0.89481,0.89481 0.51132,0.34088 1.15047,0.34088 0.68175,0 1.27829,-0.38349 0.59654,-0.4261 1.02264,-1.02264 0.46871,-0.63914 0.72437,-1.36351 0.29827,-0.72437 0.34088,-1.36352 0.0426,-0.51131 0.0426,-1.87483 0.0426,-1.40613 0.12782,-3.74967 0.12783,-4.43142 0.12783,-8.82024 0,-0.12783 0,-0.21305 0.0426,-0.12783 0.0426,-0.21305 v -0.25565 q -0.17044,-0.17044 -0.17044,-0.68176 0,-0.55393 0.34088,-0.93742 0.34088,-0.4261 0.89481,-0.51132 0.76698,0 1.10786,0.29827 0.34088,0.25566 0.59653,0.89481 0.25566,0.63915 0.25566,6.22104 0,9.80026 -0.51131,11.58988 -0.29827,1.02263 -0.8522,2.00266 -0.55393,0.98003 -1.36352,1.747 -0.76697,0.76698 -1.747,1.23569 -0.98003,0.4261 -2.13049,0.4261 -2.25833,0 -3.62184,-1.2783 -1.36352,-1.3209 -2.13049,-3.19574 -0.72437,-1.87483 -1.02264,-3.96271 -0.25566,-2.13049 -0.34088,-3.74967 0,-0.25566 -0.0426,-1.10786 -0.0426,-0.85219 -0.12783,-1.91744 l -0.0426,-0.76698 q -0.0426,-0.55392 -0.0852,-1.06524 0,-0.51132 -0.0426,-0.93742 l -0.0426,-1.10786 q -0.0426,-1.19307 -0.12783,-2.13049 -0.0426,-0.98002 -0.0426,-1.53395 0,-0.89481 0.34088,-1.49135 z"
       style="font-style:normal;font-variant:normal;font-weight:normal;font-stretch:normal;font-family:PreciousPlastic;-inkscape-font-specification:PreciousPlastic;stroke-width:0.93874997"
       id="path1101" /><path
       d="m 380.27201,271.55997 q 0,-5.1984 0.0852,-7.92543 0.0852,-2.72703 0.29827,-2.94008 0.4261,-0.4261 0.85219,-0.4261 0.98003,0 1.40613,1.15046 0.0852,0.46871 0.12783,2.64182 0.0852,2.1731 0.12783,5.92277 0.0426,3.32356 0.0426,5.92276 0,2.59921 0,4.38882 0,2.5992 -0.17044,3.23835 0.59654,0 1.15047,0.0426 0.59653,0.0426 1.15046,0.17044 v -0.38349 q 1.2783,1.27829 1.2783,1.83222 0,0.76698 -0.59654,1.15047 -0.59654,0.38349 -1.19308,0.38349 -0.17044,0 -0.68175,0 -0.46871,-0.0426 -1.02264,-0.0852 -0.55393,-0.0426 -1.02264,-0.0852 -0.4261,-0.0426 -0.51132,-0.0852 -0.85219,-0.51132 -1.15046,-1.96006 -0.17044,-0.72436 -0.17044,-12.95339 z"
       style="font-style:normal;font-variant:normal;font-weight:normal;font-stretch:normal;font-family:PreciousPlastic;-inkscape-font-specification:PreciousPlastic;stroke-width:0.93874997"
       id="path1103" /><path
       d="m 389.17746,264.27368 q 0,-3.45139 0.17044,-3.79227 0.46871,-0.72437 1.19307,-0.80959 0.72437,-0.12783 2.00267,-0.12783 h 0.29827 q 0.25565,-0.0426 0.55392,-0.0426 0.29827,0 0.63915,0 h 0.68176 q 0.46871,0 0.93742,0.0426 0.4687,0 0.80958,0.17044 0.38349,0.17044 0.59654,0.51132 0.25566,0.34088 0.25566,0.93742 h 0.0852 q -0.29827,0.51131 -0.8522,0.80958 -0.55393,0.29827 -1.19307,0.4261 -0.63915,0.12783 -1.32091,0.17044 -0.63915,0 -1.19307,0 -0.17044,0 -0.34088,0.0426 -0.17044,0 -0.34088,0 l 0.0426,4.21838 q 0.0426,1.78961 0.0852,3.06791 0.0426,1.23568 0.0426,1.87483 v 0.38349 q 2.04527,0.0426 2.04527,1.49134 0,0.89481 -0.63915,1.2783 -0.59654,0.34088 -1.3209,0.38349 v 0.68175 q -0.0426,0.21305 -0.0426,0.46871 0,0.21305 0,0.55393 0,1.02264 0,2.13049 0.0426,1.06525 0.12783,2.30094 0.0426,0.4687 0,0.8948 0,0.4261 0.0852,0.68176 0.0426,0.12783 0.0426,0.38349 0.21305,0.0426 0.51131,0.0852 0.34088,0 0.80959,0 1.96005,0 2.55659,0.25566 0.63915,0.25566 0.63915,1.10785 v 0.0852 q 0,0.46871 -0.63915,1.61918 l -2.98269,-0.0426 h -0.38349 q -1.15046,0 -1.747,0 -0.59654,-0.0426 -0.93742,-0.12783 -0.29827,-0.0852 -0.42609,-0.29827 -0.12783,-0.25566 -0.29827,-0.63915 -0.0852,-0.21305 -0.17044,-1.70439 -0.0426,-1.49135 -0.12783,-3.62184 -0.0426,-2.1731 -0.12783,-4.68708 -0.0426,-2.51399 -0.0852,-4.77231 0,-2.30093 -0.0426,-4.04793 0,-1.74701 0,-2.34355 z"
       style="font-style:normal;font-variant:normal;font-weight:normal;font-stretch:normal;font-family:PreciousPlastic;-inkscape-font-specification:PreciousPlastic;stroke-width:0.93874997"
       id="path1105" /></g><g
     aria-label="piece finale"
     style="font-style:normal;font-weight:normal;font-size:42.60985184px;line-height:1.25;font-family:sans-serif;letter-spacing:0px;word-spacing:0px;fill:#000000;fill-opacity:1;stroke:none;stroke-width:1"
     id="text1043"><path
       d="m 787.29471,344.85289 h -0.0426 q 0,-0.0852 0.0426,-0.17044 0.0426,-0.0852 0.0426,-0.17044 0,-0.0852 0,-0.12783 0.0426,-0.0852 0.0426,-0.17044 h 0.0426 q 0.4261,-1.06525 1.36352,-1.19308 h 0.25566 q 1.87483,0 4.38881,1.7044 1.7044,1.15046 2.72703,3.11051 1.02264,1.96006 1.02264,4.13316 0,1.44874 -0.46871,2.64181 -0.4261,1.15047 -1.19307,2.13049 -0.72437,0.98003 -1.7044,1.83223 -0.98003,0.80958 -2.08788,1.57656 l -0.80959,0.55393 q -0.0852,0.34088 -0.0852,2.04527 v 2.51398 l 0.0852,4.94275 q -0.89481,0.93741 -1.66178,0.93741 -0.63915,0 -1.02264,-0.4687 -0.38349,-0.46871 -0.46871,-1.02264 -0.0426,-0.34088 -0.12783,-2.51398 -0.0426,-2.1731 -0.0426,-5.79494 0,-0.8522 -0.0426,-1.66179 0,-0.80958 0,-1.53395 0,-4.60186 -0.12783,-6.26365 -0.0852,-1.91744 -0.12783,-3.4514 -0.0426,-1.53395 -0.0426,-2.64181 0,-0.29827 0,-0.51132 0,-0.21305 0.0426,-0.42609 z m 3.11052,2.98268 q 0.0852,0.8522 0.0852,1.74701 0.0426,0.8522 0.0426,1.70439 0,0.38349 0,0.72437 0,0.34088 0.0426,0.59654 0.12783,0.98002 0.12783,1.83222 0,0.8522 0,1.44874 0,0.59653 0,0.80958 0,0.21305 -0.0426,0.51132 1.32091,-0.85219 2.34354,-2.1731 1.02264,-1.36352 1.02264,-2.89747 0,-4.04794 -3.66445,-5.66711 v 0.55393 q 0,0.12783 0,0.34088 0,0.17044 0.0426,0.4687 z"
       style="font-style:normal;font-variant:normal;font-weight:normal;font-stretch:normal;font-family:PreciousPlastic;-inkscape-font-specification:PreciousPlastic;stroke-width:0.93874997"
       id="path1045" /><path
       d="m 799.73678,347.92079 q 0,-2.72703 1.49135,-2.72703 0.55393,0 1.06524,0.51132 l 0.51132,0.51132 0.0426,2.42876 q 0.0426,2.04528 0.0852,4.17577 0.0426,2.13049 0.12783,4.17576 0.0852,2.08789 0.0852,4.13316 0.0426,2.04527 0.0852,4.21837 0.0426,1.66179 0.0426,2.5992 0.0426,0.93742 0.0426,0.98003 0,0.38349 -0.0426,0.80959 0,0.38349 -0.17044,0.76698 -0.12783,0.34087 -0.4261,0.59653 -0.29827,0.21305 -0.8948,0.21305 -0.46871,0 -0.8522,-0.29827 -0.34088,-0.34087 -0.51132,-0.80958 -0.12783,-0.4261 -0.21305,-3.40879 -0.0426,-2.98269 -0.21305,-8.2237 l -0.0426,-1.32091 q -0.0426,-1.10785 -0.0426,-2.04527 0,-0.93742 -0.0426,-1.78961 -0.0852,-2.21572 -0.0852,-3.4514 0,-1.2783 -0.0426,-1.49135 z"
       style="font-style:normal;font-variant:normal;font-weight:normal;font-stretch:normal;font-family:PreciousPlastic;-inkscape-font-specification:PreciousPlastic;stroke-width:0.93874997"
       id="path1047" /><path
       d="m 805.7447,348.90082 q 0,-3.4514 0.17044,-3.79228 0.46871,-0.72436 1.19308,-0.80958 0.72436,-0.12783 2.00266,-0.12783 h 0.29827 q 0.25566,-0.0426 0.55393,-0.0426 0.29826,0 0.63914,0 h 0.68176 q 0.46871,0 0.93742,0.0426 0.46871,0 0.80958,0.17044 0.38349,0.17044 0.59654,0.51132 0.25566,0.34087 0.25566,0.93741 h 0.0852 q -0.29827,0.51132 -0.8522,0.80959 -0.55392,0.29827 -1.19307,0.4261 -0.63915,0.12783 -1.32091,0.17044 -0.63914,0 -1.19307,0 -0.17044,0 -0.34088,0.0426 -0.17044,0 -0.34088,0 l 0.0426,4.21837 q 0.0426,1.78962 0.0852,3.06791 0.0426,1.23569 0.0426,1.87484 v 0.38348 q 2.04527,0.0426 2.04527,1.49135 0,0.89481 -0.63915,1.27829 -0.59653,0.34088 -1.3209,0.38349 v 0.68176 q -0.0426,0.21305 -0.0426,0.46871 0,0.21305 0,0.55393 0,1.02263 0,2.13049 0.0426,1.06525 0.12783,2.30093 0.0426,0.46871 0,0.89481 0,0.4261 0.0852,0.68176 0.0426,0.12783 0.0426,0.38348 0.21305,0.0426 0.51132,0.0852 0.34087,0 0.80958,0 1.96006,0 2.55659,0.25566 0.63915,0.25566 0.63915,1.10786 v 0.0852 q 0,0.46871 -0.63915,1.61917 l -2.98269,-0.0426 h -0.38348 q -1.15047,0 -1.74701,0 -0.59654,-0.0426 -0.93741,-0.12783 -0.29827,-0.0852 -0.4261,-0.29826 -0.12783,-0.25566 -0.29827,-0.63915 -0.0852,-0.21305 -0.17044,-1.7044 -0.0426,-1.49134 -0.12783,-3.62183 -0.0426,-2.17311 -0.12783,-4.68709 -0.0426,-2.51398 -0.0852,-4.7723 0,-2.30093 -0.0426,-4.04794 0,-1.747 0,-2.34354 z"
       style="font-style:normal;font-variant:normal;font-weight:normal;font-stretch:normal;font-family:PreciousPlastic;-inkscape-font-specification:PreciousPlastic;stroke-width:0.93874997"
       id="path1049" /><path
       d="m 819.12417,346.68511 q 0.76698,-1.10786 1.78961,-2.04527 1.02264,-0.98003 2.51398,-0.98003 h 0.21305 l 0.0852,0.0426 q 0.4261,0 0.98003,0.51132 0.55393,0.51132 0.55393,0.93741 0,1.36352 -1.7044,1.53396 -0.34087,0.0426 -0.72436,0.38349 -0.38349,0.29827 -0.76698,0.76697 -1.32091,1.66179 -1.87483,4.00533 -0.51132,2.34354 -0.51132,6.00799 0,2.94008 0.46871,5.07057 0.51131,2.1305 1.36351,3.49401 0.59654,0.76698 1.36352,1.15047 0.76697,0.38348 2.13049,0.55392 1.747,0.21305 1.747,1.57657 0,1.49134 -1.747,1.49134 h -0.21305 q -2.13049,-0.0852 -3.57923,-0.8948 -1.44873,-0.8522 -2.38615,-2.17311 -0.89481,-1.36351 -1.40612,-3.0679 -0.46871,-1.7044 -0.72437,-3.53662 -0.12783,-0.89481 -0.12783,-3.83489 0,-2.81225 0.4261,-5.66711 0.46871,-2.89747 2.13049,-5.32623 z"
       style="font-style:normal;font-variant:normal;font-weight:normal;font-stretch:normal;font-family:PreciousPlastic;-inkscape-font-specification:PreciousPlastic;stroke-width:0.93874997"
       id="path1051" /><path
       d="m 829.3931,348.90082 q 0,-3.4514 0.17044,-3.79228 0.46871,-0.72436 1.19307,-0.80958 0.72437,-0.12783 2.00267,-0.12783 h 0.29827 q 0.25566,-0.0426 0.55392,-0.0426 0.29827,0 0.63915,0 h 0.68176 q 0.46871,0 0.93742,0.0426 0.46871,0 0.80958,0.17044 0.38349,0.17044 0.59654,0.51132 0.25566,0.34087 0.25566,0.93741 h 0.0852 q -0.29827,0.51132 -0.8522,0.80959 -0.55392,0.29827 -1.19307,0.4261 -0.63915,0.12783 -1.32091,0.17044 -0.63915,0 -1.19307,0 -0.17044,0 -0.34088,0.0426 -0.17044,0 -0.34088,0 l 0.0426,4.21837 q 0.0426,1.78962 0.0852,3.06791 0.0426,1.23569 0.0426,1.87484 v 0.38348 q 2.04527,0.0426 2.04527,1.49135 0,0.89481 -0.63915,1.27829 -0.59653,0.34088 -1.3209,0.38349 v 0.68176 q -0.0426,0.21305 -0.0426,0.46871 0,0.21305 0,0.55393 0,1.02263 0,2.13049 0.0426,1.06525 0.12783,2.30093 0.0426,0.46871 0,0.89481 0,0.4261 0.0852,0.68176 0.0426,0.12783 0.0426,0.38348 0.21305,0.0426 0.51132,0.0852 0.34087,0 0.80958,0 1.96006,0 2.55659,0.25566 0.63915,0.25566 0.63915,1.10786 v 0.0852 q 0,0.46871 -0.63915,1.61917 l -2.98269,-0.0426 h -0.38348 q -1.15047,0 -1.74701,0 -0.59654,-0.0426 -0.93742,-0.12783 -0.29826,-0.0852 -0.42609,-0.29826 -0.12783,-0.25566 -0.29827,-0.63915 -0.0852,-0.21305 -0.17044,-1.7044 -0.0426,-1.49134 -0.12783,-3.62183 -0.0426,-2.17311 -0.12783,-4.68709 -0.0426,-2.51398 -0.0852,-4.7723 0,-2.30093 -0.0426,-4.04794 0,-1.747 0,-2.34354 z"
       style="font-style:normal;font-variant:normal;font-weight:normal;font-stretch:normal;font-family:PreciousPlastic;-inkscape-font-specification:PreciousPlastic;stroke-width:0.93874997"
       id="path1053" /><path
       d="m 850.82575,345.49203 q 0.25566,-1.10785 1.06525,-1.36351 0.4687,-0.12783 3.36617,-0.12783 3.06791,0 3.57923,0.34088 0.59654,0.38349 0.59654,1.23568 0,0.51132 -0.0852,0.80959 -0.0426,0.29827 -0.38349,0.46871 -0.29827,0.12783 -0.98002,0.17044 -0.63915,0.0426 -1.78962,0.0426 h -0.59654 l -1.78961,0.0426 v 2.89747 q 0,0.4261 0,0.85219 0.0426,0.38349 0.0426,0.80959 v 2.42876 h 2.25832 l 0.55393,0.72437 q 0.17044,0.21305 0.25566,0.34088 0.0852,0.12783 0.0852,0.4261 0,0.46871 -0.29827,0.80959 -0.29827,0.29826 -0.72437,0.4687 -0.38349,0.17044 -0.8948,0.25566 -0.46871,0.0426 -0.8522,0.0426 h -0.38349 v 0.51132 q 0,2.64181 0.12783,10.56724 v 2.38616 l -0.55393,0.42609 q -0.4261,0.29827 -0.80959,0.29827 -1.40612,0 -1.66178,-2.34354 -0.25566,-2.42876 -0.25566,-17.85353 0,-5.02796 0.12783,-5.66711 z"
       style="font-style:normal;font-variant:normal;font-weight:normal;font-stretch:normal;font-family:PreciousPlastic;-inkscape-font-specification:PreciousPlastic;stroke-width:0.93874997"
       id="path1055" /><path
       d="m 862.11731,347.92079 q 0,-2.72703 1.49134,-2.72703 0.55393,0 1.06525,0.51132 l 0.51132,0.51132 0.0426,2.42876 q 0.0426,2.04528 0.0852,4.17577 0.0426,2.13049 0.12783,4.17576 0.0852,2.08789 0.0852,4.13316 0.0426,2.04527 0.0852,4.21837 0.0426,1.66179 0.0426,2.5992 0.0426,0.93742 0.0426,0.98003 0,0.38349 -0.0426,0.80959 0,0.38349 -0.17044,0.76698 -0.12783,0.34087 -0.4261,0.59653 -0.29827,0.21305 -0.89481,0.21305 -0.46871,0 -0.8522,-0.29827 -0.34088,-0.34087 -0.51131,-0.80958 -0.12783,-0.4261 -0.21305,-3.40879 -0.0426,-2.98269 -0.21305,-8.2237 l -0.0426,-1.32091 q -0.0426,-1.10785 -0.0426,-2.04527 0,-0.93742 -0.0426,-1.78961 -0.0852,-2.21572 -0.0852,-3.4514 0,-1.2783 -0.0426,-1.49135 z"
       style="font-style:normal;font-variant:normal;font-weight:normal;font-stretch:normal;font-family:PreciousPlastic;-inkscape-font-specification:PreciousPlastic;stroke-width:0.93874997"
       id="path1057" /><path
       d="m 868.16784,346.81294 q 0.21305,-1.78962 1.36351,-1.78962 0.63915,0 1.40613,0.76698 0.46871,0.46871 1.49134,2.68442 1.02264,2.21572 2.5992,6.09321 l 0.59654,1.44874 q 0.34088,0.76697 0.59654,1.44873 0.29827,0.68176 0.51132,1.2783 0.34088,0.8948 0.55393,1.44873 0.21304,0.51132 0.38348,0.93742 0.17044,0.4261 0.34088,0.80959 0.17044,0.38348 0.38349,0.8948 -0.0426,-1.70439 -0.17044,-3.36618 -0.0852,-1.70439 -0.21305,-3.36617 -0.0852,-0.59654 -0.0852,-1.02264 0,-0.46871 0,-0.68176 0,-1.40612 -0.0852,-2.5992 -0.0852,-1.23568 -0.21305,-2.25832 -0.0852,-0.76698 -0.12783,-1.44874 -0.0426,-0.68175 -0.0426,-1.27829 v -0.17044 q 0,-0.59654 0.38349,-1.19308 0.4261,-0.63914 0.93742,-0.63914 1.19308,0 1.53395,1.49134 0.12783,0.59654 0.21305,2.51398 0.12783,1.91744 0.34088,5.24101 0.0852,1.91745 0.21305,4.17577 0.17044,2.25832 0.34088,4.94274 0.0852,1.53396 0.12783,2.81225 0.0426,1.23569 0.0426,2.13049 0,0.29827 -0.0426,0.8522 0,0.51132 -0.17044,1.02264 -0.12783,0.51132 -0.46871,0.8948 -0.29827,0.38349 -0.8948,0.38349 -0.72437,0 -1.19308,-0.63914 -0.4261,-0.68176 -0.72437,-1.2783 -0.29827,-0.59654 -1.10785,-2.30093 -0.80959,-1.7044 -1.91745,-4.51665 -0.85219,-2.21571 -1.78961,-4.43142 -0.93742,-2.25832 -1.87483,-4.43143 0.0852,1.78962 0.12783,3.57923 0.0852,1.78962 0.17043,3.57923 0.0852,3.06791 0.17044,5.15579 0.12783,2.08788 0.12783,3.06791 0,0.46871 -0.0426,0.80959 0,0.29827 -0.0426,0.51132 -0.0852,0.4687 -0.4687,0.63914 -0.38349,0.17044 -0.72437,0.17044 -0.55393,0 -0.98003,-0.34088 -0.4261,-0.38348 -0.55393,-1.15046 -0.0426,-0.21305 -0.21305,-2.85486 -0.17044,-2.64181 -0.34087,-7.7976 -0.0426,-1.10786 -0.0852,-2.1305 -0.0426,-1.06524 -0.0852,-2.00266 -0.0852,-3.19574 -0.21305,-5.15579 -0.0852,-1.96005 -0.0852,-2.68442 z"
       style="font-style:normal;font-variant:normal;font-weight:normal;font-stretch:normal;font-family:PreciousPlastic;-inkscape-font-specification:PreciousPlastic;stroke-width:0.93874997"
       id="path1059" /><path
       d="m 884.18908,369.95009 q 0,-0.21305 0.0426,-0.55393 0.0426,-0.34088 0.12783,-0.76698 0.17044,-0.98002 0.72437,-3.79227 0.55393,-2.81225 1.49135,-7.45673 0.8948,-4.51664 1.40612,-7.11584 0.55393,-2.64181 0.63915,-2.94008 0.17044,-0.72437 0.93742,-1.32091 0.76697,-0.63915 1.53395,-0.63915 0.59654,0 0.93742,0.34088 0.34088,0.34088 0.98002,2.08789 0.63915,1.747 1.36352,5.07057 0.17044,0.72436 0.34088,1.44873 0.21305,0.72437 0.4261,1.57657 0.51131,2.04527 1.15046,4.51664 0.68176,2.42876 1.44874,5.49667 1.02263,4.09055 1.02263,4.81492 0,0.59653 -0.42609,1.02263 -0.38349,0.4261 -0.98003,0.4261 -0.89481,0 -1.36352,-1.10786 -0.21305,-0.55392 -1.06524,-3.11052 -0.8522,-2.55659 -1.66179,-6.9454 -0.0852,-0.51132 -0.21305,-0.89481 -0.0852,-0.38349 -0.17044,-0.55393 -0.63914,-0.12783 -3.36617,-0.12783 h -0.25566 q -0.0852,0.34088 -0.17044,0.8522 -0.0852,0.51132 -0.25566,1.2783 -0.17044,0.76697 -0.34088,1.53395 -0.17044,0.76698 -0.29827,1.57657 -0.0852,0.55392 -0.25566,1.40612 -0.12783,0.80959 -0.29827,1.66179 -0.12783,0.85219 -0.34088,1.61917 -0.17044,0.76698 -0.38349,1.19308 -0.42609,0.8948 -1.27829,0.8948 -0.59654,0 -1.02264,-0.4261 -0.4261,-0.4687 -0.4261,-1.06524 z m 5.66711,-13.59254 h 1.19308 q 0.34088,0 0.59654,0 0.29827,0 0.51132,0.0426 -0.0426,-0.12783 -0.0852,-0.25566 -0.0426,-0.12783 -0.0852,-0.29827 l -0.0426,-0.21305 q -0.0426,-0.21305 -0.17044,-0.59654 -0.0852,-0.4261 -0.25566,-0.98003 -0.21305,-0.59653 -0.29827,-1.15046 -0.0852,-0.55393 -0.25566,-1.15047 l -0.12783,-0.51132 q -0.0852,0.34088 -0.17044,0.72437 -0.0426,0.38349 -0.12783,0.80959 -0.29827,1.23568 -0.46871,2.13049 -0.12783,0.89481 -0.21305,1.44874 z"
       style="font-style:normal;font-variant:normal;font-weight:normal;font-stretch:normal;font-family:PreciousPlastic;-inkscape-font-specification:PreciousPlastic;stroke-width:0.93874997"
       id="path1061" /><path
       d="m 901.36078,356.18711 q 0,-5.19841 0.0852,-7.92544 0.0852,-2.72703 0.29827,-2.94008 0.42609,-0.42609 0.85219,-0.42609 0.98003,0 1.40613,1.15046 0.0852,0.46871 0.12783,2.64181 0.0852,2.1731 0.12783,5.92277 0.0426,3.32357 0.0426,5.92277 0,2.5992 0,4.38882 0,2.5992 -0.17044,3.23834 0.59654,0 1.15046,0.0426 0.59654,0.0426 1.15047,0.17044 v -0.38349 q 1.2783,1.2783 1.2783,1.83223 0,0.76698 -0.59654,1.15046 -0.59654,0.38349 -1.19308,0.38349 -0.17044,0 -0.68176,0 -0.4687,-0.0426 -1.02263,-0.0852 -0.55393,-0.0426 -1.02264,-0.0852 -0.4261,-0.0426 -0.51132,-0.0852 -0.85219,-0.51131 -1.15046,-1.96005 -0.17044,-0.72437 -0.17044,-12.95339 z"
       style="font-style:normal;font-variant:normal;font-weight:normal;font-stretch:normal;font-family:PreciousPlastic;-inkscape-font-specification:PreciousPlastic;stroke-width:0.93874997"
       id="path1063" /><path
       d="m 910.26622,348.90082 q 0,-3.4514 0.17044,-3.79228 0.46871,-0.72436 1.19307,-0.80958 0.72437,-0.12783 2.00267,-0.12783 h 0.29827 q 0.25565,-0.0426 0.55392,-0.0426 0.29827,0 0.63915,0 h 0.68176 q 0.46871,0 0.93742,0.0426 0.4687,0 0.80958,0.17044 0.38349,0.17044 0.59654,0.51132 0.25566,0.34087 0.25566,0.93741 h 0.0852 q -0.29827,0.51132 -0.8522,0.80959 -0.55393,0.29827 -1.19307,0.4261 -0.63915,0.12783 -1.32091,0.17044 -0.63915,0 -1.19307,0 -0.17044,0 -0.34088,0.0426 -0.17044,0 -0.34088,0 l 0.0426,4.21837 q 0.0426,1.78962 0.0852,3.06791 0.0426,1.23569 0.0426,1.87484 v 0.38348 q 2.04527,0.0426 2.04527,1.49135 0,0.89481 -0.63915,1.27829 -0.59654,0.34088 -1.3209,0.38349 v 0.68176 q -0.0426,0.21305 -0.0426,0.46871 0,0.21305 0,0.55393 0,1.02263 0,2.13049 0.0426,1.06525 0.12783,2.30093 0.0426,0.46871 0,0.89481 0,0.4261 0.0852,0.68176 0.0426,0.12783 0.0426,0.38348 0.21305,0.0426 0.51131,0.0852 0.34088,0 0.80959,0 1.96006,0 2.55659,0.25566 0.63915,0.25566 0.63915,1.10786 v 0.0852 q 0,0.46871 -0.63915,1.61917 l -2.98269,-0.0426 h -0.38349 q -1.15046,0 -1.747,0 -0.59654,-0.0426 -0.93742,-0.12783 -0.29826,-0.0852 -0.42609,-0.29826 -0.12783,-0.25566 -0.29827,-0.63915 -0.0852,-0.21305 -0.17044,-1.7044 -0.0426,-1.49134 -0.12783,-3.62183 -0.0426,-2.17311 -0.12783,-4.68709 -0.0426,-2.51398 -0.0852,-4.7723 0,-2.30093 -0.0426,-4.04794 0,-1.747 0,-2.34354 z"
       style="font-style:normal;font-variant:normal;font-weight:normal;font-stretch:normal;font-family:PreciousPlastic;-inkscape-font-specification:PreciousPlastic;stroke-width:0.93874997"
       id="path1065" /></g></g></svg>